D	1	/home/mlang/Documents/mr-tests/qdgga-parser/K15-1004.pdf
P	1	
FR	1	1069	579	1243	609
o	1	N	1069	580	1097	608		
o	2	Y	1099	580	1128	608		
o	3	1	1144	580	1155	608		
o	4	4	1162	579	1181	608		
o	5	6	1183	579	1202	609		
o	6	2	1204	579	1223	608		
o	7	7	1225	580	1243	608		
R	8	HORIZONTAL	1	2	0	0		
R	9	HORIZONTAL	2	3	0	0		
R	10	HORIZONTAL	3	4	0	0		
R	11	HORIZONTAL	4	5	0	0		
R	12	HORIZONTAL	5	6	0	0		
R	13	HORIZONTAL	6	7	0	0		
MML	14	"<mrow>\n <mi xml:id="0:">\n  N\n </mi>\n <mi xml:id="1:">\n  Y\n </mi>\n <mn xml:id="2:">\n  1\n </mn>\n <mn xml:id="3:">\n  4\n </mn>\n <mn xml:id="4:">\n  6\n </mn>\n <mn xml:id="5:">\n  2\n </mn>\n <mn xml:id="6:">\n  7\n </mn>\n</mrow>"	0	0	0	0		
P	2	
P	3	
FR	1	1294	505	1404	540
o	1	g	1294	511	1302	524		
o	2	i	1304	507	1306	520		
o	3	n	1308	511	1313	520		
o	4	l	1314	507	1316	520		
o	5	|	1338	506	1339	524		
o	6	g	1370	516	1379	529		
o	7	i	1381	512	1383	525		
o	8	r	1385	512	1392	525		
o	9	j	1397	505	1404	540		
R	10	HORIZONTAL	1	5	0	0		
R	11	HORIZONTAL	3	4	0	0		
R	12	HORIZONTAL	4	1	0	0		
R	13	HORIZONTAL	5	6	0	0		
R	14	HORIZONTAL	6	7	0	0		
R	15	HORIZONTAL	7	8	0	0		
R	16	HORIZONTAL	8	9	0	0		
R	17	HORIZONTAL	9	2	0	0		
MML	18	"<mrow>\n <mi xml:id="2:">\n  g\n </mi>\n <mi xml:id="3:">\n  i\n </mi>\n <mi xml:id="0:">\n  n\n </mi>\n <mi xml:id="4:">\n  l\n </mi>\n <mo xml:id="5:">\n  |\n </mo>\n <mi xml:id="6:">\n  g\n </mi>\n <mi xml:id="7:">\n  i\n </mi>\n <mi xml:id="8:9:">\n  r\n </mi>\n <mi xml:id="1:">\n  j\n </mi>\n</mrow>"	0	0	0	0		
FR	2	257	941	461	975
o	1	e	257	950	272	967		
o	2	d	274	941	293	967		
o	3	g	293	950	311	975		
o	4	e	313	950	327	967		
o	5	minus	331	957	340	960		
o	6	l	343	941	352	967		
o	7	a	353	950	371	967		
o	8	b	373	941	390	967		
o	9	e	393	950	407	967		
o	10	l	410	941	419	967		
o	11	e	421	950	435	967		
o	12	d	437	941	457	967		
o	13	COMMA	456	963	461	972		
R	14	HORIZONTAL	1	6	0	0		
R	15	HORIZONTAL	2	3	0	0		
R	16	HORIZONTAL	3	4	0	0		
R	17	HORIZONTAL	4	5	0	0		
R	18	HORIZONTAL	5	1	0	0		
R	19	HORIZONTAL	6	7	0	0		
R	20	HORIZONTAL	7	8	0	0		
R	21	HORIZONTAL	8	9	0	0		
R	22	HORIZONTAL	9	10	0	0		
R	23	HORIZONTAL	10	11	0	0		
R	24	HORIZONTAL	11	12	0	0		
R	25	PUNC	12	13	0	0		
MML	26	"<mrow>\n <mi xml:id="1:">\n  e\n </mi>\n <mi xml:id="2:">\n  d\n </mi>\n <mi xml:id="3:">\n  g\n </mi>\n <mi xml:id="4:">\n  e\n </mi>\n <mo xml:id="0:">\n  -\n </mo>\n <mi xml:id="5:">\n  l\n </mi>\n <mi xml:id="6:">\n  a\n </mi>\n <mi xml:id="7:">\n  b\n </mi>\n <mi xml:id="8:">\n  e\n </mi>\n <mi xml:id="9:">\n  l\n </mi>\n <mi xml:id="10:">\n  e\n </mi>\n <mi xml:id="11:">\n  d\n </mi>\n <mo xml:id="12:">\n  ,\n </mo>\n</mrow>"	0	0	0	0		
FR	3	956	941	1030	967
o	1	H	956	941	1030	967		
MML	2	"<mi xml:id="0:1:">\n H\n</mi>"	0	0	0	0		
FR	4	260	987	449	1025
o	1	〈	260	987	269	1025		
o	2	V	274	990	300	1017		
o	3	COMMA	299	1012	304	1023		
o	4	E	315	990	343	1016		
o	5	COMMA	347	1012	352	1023		
o	6	l	363	989	371	1016		
o	7	COMMA	377	1012	381	1023		
o	8	X	392	990	423	1016		
o	9	〉	427	987	436	1025		
o	10	COMMA	443	1012	449	1021		
R	11	HORIZONTAL	1	2	0	0		
R	12	PUNC	2	3	0	0		
R	13	HORIZONTAL	2	4	0	0		
R	14	PUNC	4	5	0	0		
R	15	HORIZONTAL	4	6	0	0		
R	16	PUNC	6	7	0	0		
R	17	HORIZONTAL	6	8	0	0		
R	18	HORIZONTAL	8	9	0	0		
R	19	HORIZONTAL	9	10	0	0		
MML	20	"<mrow>\n <mi xml:id="0:">\n  〈\n </mi>\n <mi xml:id="1:">\n  V\n </mi>\n <mo xml:id="2:">\n  ,\n </mo>\n <mi xml:id="3:">\n  E\n </mi>\n <mo xml:id="4:">\n  ,\n </mo>\n <mi xml:id="5:">\n  l\n </mi>\n <mo xml:id="6:">\n  ,\n </mo>\n <mi xml:id="7:">\n  X\n </mi>\n <mi xml:id="8:">\n  〉\n </mi>\n <mo xml:id="9:">\n  ,\n </mo>\n</mrow>"	0	0	0	0		
FR	5	962	990	1028	1021
o	1	E	962	990	1028	1021		
MML	2	"<mi xml:id="0:1:">\n E\n</mi>"	0	0	0	0		
FR	6	259	1033	308	1065
o	1	V	259	1033	308	1065		
MML	2	"<mi xml:id="0:1:">\n V\n</mi>"	0	0	0	0		
FR	7	793	1085	972	1112
o	1	.	793	1108	797	1112		
o	2	l	813	1085	821	1112		
o	3	:	838	1095	842	1112		
o	4	E	857	1086	885	1112		
o	5	→	899	1096	933	1109		
o	6	L	949	1086	972	1112		
R	7	HORIZONTAL	1	2	0	0		
R	8	HORIZONTAL	2	3	0	0		
R	9	HORIZONTAL	3	4	0	0		
R	10	HORIZONTAL	4	5	0	0		
R	11	HORIZONTAL	5	6	0	0		
MML	12	"<mrow>\n <mo xml:id="0:">\n  .\n </mo>\n <mi xml:id="1:">\n  l\n </mi>\n <mi xml:id="2:">\n  :\n </mi>\n <mi xml:id="3:">\n  E\n </mi>\n <mi xml:id="4:">\n  →\n </mi>\n <mi xml:id="5:">\n  L\n </mi>\n</mrow>"	0	0	0	0		
FR	8	1332	1182	1618	1221
o	1	(	1332	1182	1340	1220		
o	2	A	1344	1183	1371	1211		
o	3	→	1391	1195	1425	1208		
o	4	〈	1450	1182	1459	1220		
o	5	S	1464	1184	1486	1212		
o	6	COMMA	1489	1207	1493	1218		
o	7	R	1504	1185	1532	1212		
o	8	〉	1534	1182	1543	1220		
o	9	COMMA	1551	1207	1555	1218		
o	10	∼	1566	1197	1592	1206		
o	11	)	1597	1182	1606	1221		
o	12	COMMA	1612	1207	1618	1216		
R	13	HORIZONTAL	1	2	0	0		
R	14	HORIZONTAL	2	3	0	0		
R	15	HORIZONTAL	3	4	0	0		
R	16	HORIZONTAL	4	5	0	0		
R	17	PUNC	5	6	0	0		
R	18	HORIZONTAL	5	7	0	0		
R	19	HORIZONTAL	7	8	0	0		
R	20	PUNC	8	9	0	0		
R	21	HORIZONTAL	8	10	0	0		
R	22	HORIZONTAL	10	11	0	0		
R	23	PUNC	11	12	0	0		
MML	24	"<mrow>\n <mi xml:id="0:">\n  (\n </mi>\n <mi xml:id="1:">\n  A\n </mi>\n <mi xml:id="2:">\n  →\n </mi>\n <mi xml:id="3:">\n  〈\n </mi>\n <mi xml:id="4:">\n  S\n </mi>\n <mo xml:id="5:">\n  ,\n </mo>\n <mi xml:id="6:">\n  R\n </mi>\n <mi xml:id="7:">\n  〉\n </mi>\n <mo xml:id="8:">\n  ,\n </mo>\n <mi xml:id="9:">\n  ∼\n </mi>\n <mi xml:id="10:">\n  )\n </mi>\n <mo xml:id="11:">\n  ,\n </mo>\n</mrow>"	0	0	0	0		
FR	9	1744	1183	1867	1213
o	1	A	1744	1183	1770	1211		
o	2	∈	1792	1190	1811	1213		
o	3	N	1835	1185	1867	1211		
R	4	HORIZONTAL	1	2	0	0		
R	5	HORIZONTAL	2	3	0	0		
MML	6	"<mrow>\n <mi xml:id="0:">\n  A\n </mi>\n <mi xml:id="1:">\n  ∈\n </mi>\n <mi xml:id="2:">\n  N\n </mi>\n</mrow>"	0	0	0	0		
FR	10	1172	1329	1326	1356
o	1	N	1172	1329	1204	1355		
o	2	∪	1216	1332	1238	1356		
o	3	T	1250	1329	1276	1355		
o	4	comma	1279	1351	1283	1355		
o	5	∼	1300	1341	1326	1350		
R	6	HORIZONTAL	2	3	0	0		
R	7	HORIZONTAL	3	4	0	0		
R	8	PUNC	4	1	0	0		
R	9	HORIZONTAL	4	5	0	0		
MML	10	"<mrow>\n <mi xml:id="1:">\n  N\n </mi>\n <mi xml:id="2:">\n  ∪\n </mi>\n <mi xml:id="3:">\n  T\n </mi>\n <mo xml:id="0:">\n  ,\n </mo>\n <mi xml:id="4:">\n  ∼\n </mi>\n</mrow>"	0	0	0	0		
FR	11	473	1374	614	1403
o	1	X	473	1375	505	1401		
o	2	∈	528	1380	547	1403		
o	3	V	573	1375	599	1402		
o	4	∗	603	1374	614	1386		
R	5	HORIZONTAL	1	2	0	0		
R	6	HORIZONTAL	2	3	0	0		
R	7	RSUP	3	4	0	0		
MML	8	"<mrow>\n <mi xml:id="0:">\n  X\n </mi>\n <mi xml:id="1:">\n  ∈\n </mi>\n <msup>\n  <mi xml:id="2:">\n   V\n  </mi>\n  <mi xml:id="3:">\n   ∗\n  </mi>\n </msup>\n</mrow>"	0	0	0	0		
FR	12	260	1763	457	1801
o	1	〈	260	1763	269	1801		
o	2	N	273	1766	305	1792		
o	3	COMMA	308	1788	312	1799		
o	4	T	323	1766	349	1792		
o	5	COMMA	351	1788	355	1799		
o	6	P	366	1766	394	1792		
o	7	COMMA	394	1788	398	1799		
o	8	S	410	1765	433	1793		
o	9	〉	435	1763	444	1801		
o	10	COMMA	451	1788	457	1797		
R	11	HORIZONTAL	1	2	0	0		
R	12	PUNC	2	3	0	0		
R	13	HORIZONTAL	2	4	0	0		
R	14	PUNC	4	5	0	0		
R	15	HORIZONTAL	4	6	0	0		
R	16	PUNC	6	7	0	0		
R	17	HORIZONTAL	6	8	0	0		
R	18	HORIZONTAL	8	9	0	0		
R	19	HORIZONTAL	9	10	0	0		
MML	20	"<mrow>\n <mi xml:id="0:">\n  〈\n </mi>\n <mi xml:id="1:">\n  N\n </mi>\n <mo xml:id="2:">\n  ,\n </mo>\n <mi xml:id="3:">\n  T\n </mi>\n <mo xml:id="4:">\n  ,\n </mo>\n <mi xml:id="5:">\n  P\n </mi>\n <mo xml:id="6:">\n  ,\n </mo>\n <mi xml:id="7:">\n  S\n </mi>\n <mi xml:id="8:">\n  〉\n </mi>\n <mo xml:id="9:">\n  ,\n </mo>\n</mrow>"	0	0	0	0		
FR	13	258	1956	400	1989
o	1	A	258	1956	284	1984		
o	2	→	306	1968	340	1981		
o	3	R	364	1958	392	1985		
o	4	comma	394	1980	400	1989		
R	5	HORIZONTAL	2	3	0	0		
R	6	HORIZONTAL	3	4	0	0		
R	7	RSUB	4	1	0	0		
MML	8	"<mrow>\n <mi xml:id="1:">\n  A\n </mi>\n <mi xml:id="2:">\n  →\n </mi>\n <msub>\n  <mi xml:id="3:">\n   R\n  </mi>\n  <mo xml:id="0:">\n   ,\n  </mo>\n </msub>\n</mrow>"	0	0	0	0		
FR	14	528	1956	654	1986
o	1	A	528	1956	554	1984		
o	2	∈	578	1963	597	1986		
o	3	N	622	1958	654	1984		
R	4	HORIZONTAL	1	2	0	0		
R	5	HORIZONTAL	2	3	0	0		
MML	6	"<mrow>\n <mi xml:id="0:">\n  A\n </mi>\n <mi xml:id="1:">\n  ∈\n </mi>\n <mi xml:id="2:">\n  N\n </mi>\n</mrow>"	0	0	0	0		
FR	15	607	2007	714	2034
o	1	N	607	2007	639	2033		
o	2	∪	653	2010	675	2034		
o	3	T	688	2007	714	2033		
R	4	HORIZONTAL	1	2	0	0		
R	5	HORIZONTAL	2	3	0	0		
MML	6	"<mrow>\n <mi xml:id="0:">\n  N\n </mi>\n <mi xml:id="1:">\n  ∪\n </mi>\n <mi xml:id="2:">\n  T\n </mi>\n</mrow>"	0	0	0	0		
FR	16	1700	2106	1866	2137
o	1	“	1700	2106	1713	2115		
o	2	w	1716	2115	1741	2132		
o	3	a	1744	2114	1759	2132		
o	4	n	1761	2114	1778	2132		
o	5	t	1780	2110	1790	2132		
o	6	-	1791	2122	1801	2124		
o	7	0	1804	2106	1821	2133		
o	8	1	1827	2106	1837	2132		
o	9	”	1843	2106	1857	2115		
o	10	COMMA	1861	2128	1866	2137		
R	11	HORIZONTAL	1	2	0	0		
R	12	HORIZONTAL	2	3	0	0		
R	13	HORIZONTAL	3	4	0	0		
R	14	HORIZONTAL	4	5	0	0		
R	15	HORIZONTAL	5	6	0	0		
R	16	HORIZONTAL	6	7	0	0		
R	17	HORIZONTAL	7	8	0	0		
R	18	RSUP	8	9	0	0		
R	19	PUNC	8	10	0	0		
MML	20	"<mrow>\n <mi xml:id="0:">\n  “\n </mi>\n <mi xml:id="1:">\n  w\n </mi>\n <mi xml:id="2:">\n  a\n </mi>\n <mi xml:id="3:">\n  n\n </mi>\n <mi xml:id="4:">\n  t\n </mi>\n <mo xml:id="5:">\n  -\n </mo>\n <mn xml:id="6:">\n  0\n </mn>\n <msup>\n  <mn xml:id="7:">\n   1\n  </mn>\n  <mi xml:id="8:">\n   ”\n  </mi>\n </msup>\n <mo xml:id="9:">\n  ,\n </mo>\n</mrow>"	0	0	0	0		
P	4	
FR	1	1259	563	1413	602
o	1	p	1259	575	1279	599		
o	2	=	1301	578	1326	587		
o	3	[	1352	563	1357	602		
o	4	i	1359	566	1369	592		
o	5	COMMA	1374	588	1379	599		
o	6	j	1388	566	1404	600		
o	7	]	1407	563	1413	602		
R	8	HORIZONTAL	1	2	0	0		
R	9	HORIZONTAL	2	3	0	0		
R	10	HORIZONTAL	3	4	0	0		
R	11	PUNC	4	5	0	0		
R	12	HORIZONTAL	4	6	0	0		
R	13	HORIZONTAL	6	7	0	0		
MML	14	"<mrow>\n <mi xml:id="0:">\n  p\n </mi>\n <mo xml:id="1:">\n  =\n </mo>\n <mi xml:id="2:">\n  [\n </mi>\n <mi xml:id="3:">\n  i\n </mi>\n <mo xml:id="4:">\n  ,\n </mo>\n <mi xml:id="5:">\n  j\n </mi>\n <mi xml:id="6:">\n  ]\n </mi>\n</mrow>"	0	0	0	0		
FR	2	1220	611	1561	650
o	1	{	1220	611	1233	650		
o	2	i	1238	614	1248	640		
o	3	COMMA	1254	636	1258	647		
o	4	i	1269	615	1279	640		
o	5	+	1296	618	1321	643		
o	6	1	1340	614	1353	640		
o	7	COMMA	1359	636	1364	647		
o	8	.	1376	636	1415	640		
o	9	COMMA	1428	636	1433	647		
o	10	j	1442	614	1457	648		
o	11	−	1476	630	1500	631		
o	12	1	1519	614	1532	640		
o	13	}	1538	611	1551	650		
o	14	dot	1557	636	1561	640		
R	15	HORIZONTAL	2	3	0	0		
R	16	PUNC	3	4	0	0		
R	17	HORIZONTAL	3	5	0	0		
R	18	HORIZONTAL	5	6	0	0		
R	19	HORIZONTAL	6	7	0	0		
R	20	PUNC	7	8	0	0		
R	21	HORIZONTAL	7	11	0	0		
R	22	HORIZONTAL	8	9	0	0		
R	23	HORIZONTAL	9	10	0	0		
R	24	HORIZONTAL	11	12	0	0		
R	25	HORIZONTAL	12	13	0	0		
R	26	HORIZONTAL	13	14	0	0		
R	27	PUNC	14	1	0	0		
MML	28	"<mrow>\n <mi xml:id="1:">\n  {\n </mi>\n <mi xml:id="2:">\n  i\n </mi>\n <mo xml:id="3:">\n  ,\n </mo>\n <mi xml:id="4:">\n  i\n </mi>\n <mo xml:id="5:">\n  +\n </mo>\n <mn xml:id="6:">\n  1\n </mn>\n <mi xml:id="12:">\n  j\n </mi>\n <mi xml:id="13:">\n  −\n </mi>\n <mn xml:id="14:">\n  1\n </mn>\n <mi xml:id="15:">\n  }\n </mi>\n <mo xml:id="0:">\n  .\n </mo>\n <mo xml:id="7:">\n  ,\n </mo>\n <mo xml:id="10:8:9:">\n  .\n </mo>\n <mo xml:id="11:">\n  ,\n </mo>\n</mrow>"	0	0	0	0		
FR	3	1405	709	1594	736
o	1	h	1405	709	1424	736		
o	2	:	1444	719	1448	736		
o	3	P	1468	710	1495	736		
o	4	→	1513	720	1547	733		
o	5	F	1567	710	1594	736		
R	6	HORIZONTAL	1	2	0	0		
R	7	HORIZONTAL	2	3	0	0		
R	8	HORIZONTAL	3	4	0	0		
R	9	HORIZONTAL	4	5	0	0		
MML	10	"<mrow>\n <mi xml:id="0:">\n  h\n </mi>\n <mi xml:id="1:">\n  :\n </mi>\n <mi xml:id="2:">\n  P\n </mi>\n <mi xml:id="3:">\n  →\n </mi>\n <mi xml:id="4:">\n  F\n </mi>\n</mrow>"	0	0	0	0		
FR	4	842	718	1030	751
o	1	X	842	719	873	745		
o	2	i	877	719	887	745		
o	3	-	891	735	900	737		
o	4	b	904	718	918	745		
o	5	1	921	732	931	751		
o	6	ldots	944	733	983	737		
o	7	b	995	718	1010	745		
o	8	i	1011	739	1019	751		
o	9	M	1016	732	1019	735		
o	10	comma	1024	741	1030	750		
R	11	HORIZONTAL	1	9	0	0		
R	12	RSUP	2	10	0	0		
R	13	RSUB	4	5	0	0		
R	14	HORIZONTAL	5	6	0	0		
R	15	HORIZONTAL	6	7	0	0		
R	16	HORIZONTAL	7	1	0	0		
R	17	RSUB	7	8	0	0		
R	18	RSUB	9	2	0	0		
R	19	PUNC	9	3	0	0		
MML	20	"<msub>\n <mi xml:id="5:">\n  X\n </mi>\n <mrow>\n  <mi xml:id="6:">\n   i\n  </mi>\n  <mo xml:id="7:">\n   -\n  </mo>\n  <msub>\n   <mi xml:id="8:">\n    b\n   </mi>\n   <mn xml:id="9:">\n    1\n   </mn>\n  </msub>\n  <mo xml:id="0:1:2:">\n   …\n  </mo>\n  <msub>\n   <mi xml:id="10:">\n    b\n   </mi>\n   <msup>\n    <mi xml:id="3:">\n     M\n    </mi>\n    <mi xml:id="11:">\n     i\n    </mi>\n   </msup>\n  </msub>\n  <mo xml:id="4:">\n   ,\n  </mo>\n </mrow>\n</msub>"	0	0	0	0		
FR	5	600	815	655	841
o	1	i	600	815	610	841		
o	2	-	614	831	624	833		
o	3	t	626	820	636	841		
o	4	h	637	815	655	841		
R	5	HORIZONTAL	1	2	0	0		
R	6	HORIZONTAL	2	3	0	0		
R	7	HORIZONTAL	3	4	0	0		
MML	8	"<mrow>\n <mi xml:id="0:">\n  i\n </mi>\n <mo xml:id="1:">\n  -\n </mo>\n <mi xml:id="2:">\n  t\n </mi>\n <mi xml:id="3:">\n  h\n </mi>\n</mrow>"	0	0	0	0		
FR	6	1622	1382	1756	1421
o	1	(	1622	1382	1631	1420		
o	2	[	1638	1382	1644	1421		
o	3	i	1646	1386	1656	1411		
o	4	comma	1661	1407	1666	1412		
o	5	COMMA	1662	1413	1665	1418		
o	6	j	1675	1385	1690	1419		
o	7	]	1694	1382	1699	1421		
o	8	comma	1707	1407	1712	1413		
o	9	COMMA	1708	1414	1711	1418		
o	10	f	1723	1384	1743	1419		
o	11	)	1747	1382	1756	1420		
R	12	HORIZONTAL	3	4	0	0		
R	13	PUNC	4	1	0	0		
R	14	HORIZONTAL	4	5	0	0		
R	15	PUNC	5	6	0	0		
R	16	HORIZONTAL	5	7	0	0		
R	17	HORIZONTAL	7	8	0	0		
R	18	PUNC	8	9	0	0		
R	19	HORIZONTAL	8	10	0	0		
R	20	PUNC	9	2	0	0		
R	21	HORIZONTAL	10	11	0	0		
MML	22	"<mrow>\n <mi xml:id="2:">\n  (\n </mi>\n <mi xml:id="3:">\n  [\n </mi>\n <mo xml:id="0:">\n  ,\n </mo>\n <mi xml:id="4:">\n  i\n </mi>\n <mo xml:id="5:">\n  ,\n </mo>\n <mi xml:id="6:">\n  j\n </mi>\n <mi xml:id="7:">\n  ]\n </mi>\n <mo xml:id="8:">\n  ,\n </mo>\n <mo xml:id="1:">\n  ,\n </mo>\n <mi xml:id="9:">\n  f\n </mi>\n <mi xml:id="10:">\n  )\n </mi>\n</mrow>"	0	0	0	0		
FR	7	1542	1479	1603	1517
o	1	M	1542	1479	1594	1517		
o	2	i	1549	1490	1559	1507		
o	3	i	1556	1481	1559	1485		
o	4	COMMA	1565	1503	1569	1514		
o	5	j	1578	1490	1592	1515		
o	6	]	1598	1479	1603	1517		
R	7	HORIZONTAL	1	2	0	0		
R	8	RSUB	1	3	0	0		
R	9	PUNC	3	4	0	0		
R	10	HORIZONTAL	3	5	0	0		
R	11	HORIZONTAL	5	6	0	0		
MML	12	"<mrow>\n <msub>\n  <mi xml:id="0:">\n   i\n  </mi>\n  <mrow>\n   <mi xml:id="3:">\n    i\n   </mi>\n   <mo xml:id="4:">\n    ,\n   </mo>\n   <mi xml:id="5:">\n    j\n   </mi>\n   <mi xml:id="6:">\n    ]\n   </mi>\n  </mrow>\n </msub>\n <mi xml:id="1:2:">\n  M\n </mi>\n</mrow>"	0	0	0	0		
FR	8	1194	1623	1386	1661
o	1	H	1194	1626	1226	1652		
o	2	=	1245	1638	1270	1647		
o	3	〈	1291	1623	1300	1661		
o	4	V	1305	1626	1332	1653		
o	5	comma	1331	1648	1335	1655		
o	6	E	1346	1626	1374	1652		
o	7	〉	1377	1623	1386	1661		
R	8	PUNC	1	2	0	0		
R	9	HORIZONTAL	1	6	0	0		
R	10	HORIZONTAL	3	4	0	0		
R	11	HORIZONTAL	4	5	0	0		
R	12	HORIZONTAL	5	1	0	0		
R	13	HORIZONTAL	6	7	0	0		
MML	14	"<mrow>\n <mi xml:id="2:">\n  H\n </mi>\n <mo xml:id="3:">\n  =\n </mo>\n <mi xml:id="4:">\n  〈\n </mi>\n <mi xml:id="0:">\n  V\n </mi>\n <mo xml:id="1:">\n  ,\n </mo>\n <mi xml:id="5:">\n  E\n </mi>\n <mi xml:id="6:">\n  〉\n </mi>\n</mrow>"	0	0	0	0		
FR	9	1094	1719	1306	1758
o	1	n	1094	1731	1115	1748		
o	2	=	1130	1734	1155	1743		
o	3	(	1173	1719	1181	1757		
o	4	[	1188	1719	1194	1758		
o	5	i	1196	1723	1206	1748		
o	6	comma	1211	1744	1216	1750		
o	7	COMMA	1212	1751	1215	1755		
o	8	j	1225	1722	1241	1756		
o	9	]	1244	1719	1250	1758		
o	10	COMMA	1258	1744	1262	1755		
o	11	f	1274	1721	1293	1756		
o	12	)	1297	1719	1306	1757		
R	13	HORIZONTAL	2	3	0	0		
R	14	HORIZONTAL	3	4	0	0		
R	15	HORIZONTAL	4	5	0	0		
R	16	PUNC	5	1	0	0		
R	17	HORIZONTAL	5	6	0	0		
R	18	PUNC	6	7	0	0		
R	19	HORIZONTAL	6	8	0	0		
R	20	HORIZONTAL	8	9	0	0		
R	21	PUNC	9	10	0	0		
R	22	HORIZONTAL	9	11	0	0		
R	23	HORIZONTAL	11	12	0	0		
MML	24	"<mrow>\n <mi xml:id="1:">\n  n\n </mi>\n <mo xml:id="2:">\n  =\n </mo>\n <mi xml:id="3:">\n  (\n </mi>\n <mi xml:id="4:">\n  [\n </mi>\n <mo xml:id="0:">\n  ,\n </mo>\n <mi xml:id="5:">\n  i\n </mi>\n <mo xml:id="6:">\n  ,\n </mo>\n <mi xml:id="7:">\n  j\n </mi>\n <mi xml:id="8:">\n  ]\n </mi>\n <mi xml:id="10:">\n  f\n </mi>\n <mi xml:id="11:">\n  )\n </mi>\n <mo xml:id="9:">\n  ,\n </mo>\n</mrow>"	0	0	0	0		
FR	10	1500	2057	1712	2096
o	1	[	1500	2057	1505	2096		
o	2	i	1508	2061	1518	2086		
o	3	1	1523	2073	1532	2092		
o	4	COMMA	1540	2082	1544	2093		
o	5	j	1553	2060	1569	2094		
o	6	1	1573	2073	1582	2092		
o	7	]	1587	2057	1593	2096		
o	8	COMMA	1601	2082	1605	2093		
o	9	[	1619	2057	1625	2096		
o	10	i	1627	2061	1637	2086		
o	11	2	1640	2073	1652	2092		
o	12	COMMA	1659	2082	1663	2093		
o	13	j	1672	2060	1688	2094		
o	14	2	1690	2073	1702	2092		
o	15	]	1707	2057	1712	2096		
R	16	HORIZONTAL	1	2	0	0		
R	17	RSUB	2	3	0	0		
R	18	PUNC	2	4	0	0		
R	19	HORIZONTAL	2	5	0	0		
R	20	RSUB	5	6	0	0		
R	21	HORIZONTAL	5	7	0	0		
R	22	PUNC	7	8	0	0		
R	23	HORIZONTAL	7	9	0	0		
R	24	HORIZONTAL	9	10	0	0		
R	25	RSUB	10	11	0	0		
R	26	PUNC	10	12	0	0		
R	27	HORIZONTAL	10	13	0	0		
R	28	RSUB	13	14	0	0		
R	29	HORIZONTAL	13	15	0	0		
MML	30	"<mrow>\n <mi xml:id="0:">\n  [\n </mi>\n <msub>\n  <mi xml:id="1:">\n   i\n  </mi>\n  <mn xml:id="2:">\n   1\n  </mn>\n </msub>\n <mo xml:id="3:">\n  ,\n </mo>\n <msub>\n  <mi xml:id="4:">\n   j\n  </mi>\n  <mn xml:id="5:">\n   1\n  </mn>\n </msub>\n <mi xml:id="6:">\n  ]\n </mi>\n <mo xml:id="7:">\n  ,\n </mo>\n <mi xml:id="8:">\n  [\n </mi>\n <msub>\n  <mi xml:id="9:">\n   i\n  </mi>\n  <mn xml:id="10:">\n   2\n  </mn>\n </msub>\n <mo xml:id="11:">\n  ,\n </mo>\n <msub>\n  <mi xml:id="12:">\n   j\n  </mi>\n  <mn xml:id="13:">\n   2\n  </mn>\n </msub>\n <mi xml:id="14:">\n  ]\n </mi>\n</mrow>"	0	0	0	0		
FR	11	1476	2105	1865	2144
o	1	{	1476	2105	1488	2144		
o	2	j	1492	2108	1507	2142		
o	3	1	1511	2121	1520	2140		
o	4	COMMA	1528	2130	1533	2141		
o	5	j	1542	2108	1557	2142		
o	6	1	1561	2121	1571	2140		
o	7	+	1592	2112	1617	2137		
o	8	1	1638	2108	1650	2134		
o	9	comma	1657	2130	1662	2135		
o	10	COMMA	1658	2136	1661	2141		
o	11	semicolon	1674	2130	1731	2135		
o	12	.	1692	2130	1713	2134		
o	13	COMMA	1727	2136	1730	2141		
o	14	i	1741	2108	1751	2134		
o	15	2	1755	2121	1767	2140		
o	16	−	1787	2124	1811	2125		
o	17	1	1833	2108	1846	2134		
o	18	}	1852	2105	1865	2144		
R	19	HORIZONTAL	1	11	0	0		
R	20	HORIZONTAL	2	13	0	0		
R	21	HORIZONTAL	3	4	0	0		
R	22	RSUB	4	5	0	0		
R	23	PUNC	4	6	0	0		
R	24	HORIZONTAL	4	7	0	0		
R	25	RSUB	7	8	0	0		
R	26	HORIZONTAL	7	9	0	0		
R	27	HORIZONTAL	9	10	0	0		
R	28	PUNC	10	1	0	0		
R	29	HORIZONTAL	10	14	0	0		
R	30	HORIZONTAL	11	12	0	0		
R	31	HORIZONTAL	12	2	0	0		
R	32	RSUB	14	15	0	0		
R	33	HORIZONTAL	14	16	0	0		
R	34	HORIZONTAL	16	17	0	0		
R	35	HORIZONTAL	17	18	0	0		
MML	36	"<mrow>\n <mi xml:id="3:">\n  {\n </mi>\n <msub>\n  <mi xml:id="4:">\n   j\n  </mi>\n  <mn xml:id="5:">\n   1\n  </mn>\n </msub>\n <mo xml:id="6:">\n  ,\n </mo>\n <msub>\n  <mi xml:id="7:">\n   j\n  </mi>\n  <mn xml:id="8:">\n   1\n  </mn>\n </msub>\n <mo xml:id="9:">\n  +\n </mo>\n <mn xml:id="10:">\n  1\n </mn>\n <mo xml:id="0:">\n  ,\n </mo>\n <mo xml:id="11:">\n  ,\n </mo>\n <mo xml:id="12:13:">\n  .\n </mo>\n <mi xml:id="1:2:">\n  ;\n </mi>\n <mo xml:id="14:">\n  ,\n </mo>\n <msub>\n  <mi xml:id="15:">\n   i\n  </mi>\n  <mn xml:id="16:">\n   2\n  </mn>\n </msub>\n <mi xml:id="17:">\n  −\n </mi>\n <mn xml:id="18:">\n  1\n </mn>\n <mi xml:id="19:">\n  }\n </mi>\n</mrow>"	0	0	0	0		
FR	12	1095	2201	1592	2239
o	1	f	1095	2203	1114	2238		
o	2	1	1114	2217	1124	2236		
o	3	=	1153	2216	1179	2225		
o	4	〈	1207	2201	1216	2239		
o	5	V	1221	2204	1248	2231		
o	6	1	1244	2217	1254	2236		
o	7	comma	1261	2226	1344	2232		
o	8	COMMA	1262	2233	1265	2237		
o	9	E	1277	2204	1305	2230		
o	10	1	1307	2217	1317	2236		
o	11	〉	1322	2201	1331	2239		
o	12	COMMA	1340	2233	1343	2237		
o	13	f	1355	2203	1375	2238		
o	14	2	1374	2217	1385	2236		
o	15	=	1414	2216	1439	2225		
o	16	〈	1468	2201	1477	2239		
o	17	V	1482	2204	1509	2231		
o	18	2	1504	2217	1515	2236		
o	19	comma	1522	2226	1527	2231		
o	20	COMMA	1523	2232	1526	2237		
o	21	E	1538	2204	1566	2230		
o	22	2	1566	2217	1578	2236		
o	23	〉	1583	2201	1592	2239		
R	24	HORIZONTAL	1	9	0	0		
R	25	RSUB	3	4	0	0		
R	26	HORIZONTAL	3	5	0	0		
R	27	HORIZONTAL	5	6	0	0		
R	28	HORIZONTAL	6	7	0	0		
R	29	PUNC	7	1	0	0		
R	30	RSUB	7	8	0	0		
R	31	HORIZONTAL	7	10	0	0		
R	32	RSUB	10	11	0	0		
R	33	HORIZONTAL	10	12	0	0		
R	34	PUNC	12	13	0	0		
R	35	HORIZONTAL	12	14	0	0		
R	36	RSUB	14	15	0	0		
R	37	HORIZONTAL	14	16	0	0		
R	38	HORIZONTAL	16	17	0	0		
R	39	HORIZONTAL	17	18	0	0		
R	40	RSUB	18	19	0	0		
R	41	PUNC	18	20	0	0		
R	42	HORIZONTAL	18	21	0	0		
R	43	HORIZONTAL	20	2	0	0		
R	44	RSUB	21	22	0	0		
R	45	HORIZONTAL	21	23	0	0		
MML	46	"<mrow>\n <msub>\n  <mi xml:id="3:">\n   f\n  </mi>\n  <mn xml:id="4:">\n   1\n  </mn>\n </msub>\n <mo xml:id="5:">\n  =\n </mo>\n <mi xml:id="6:">\n  〈\n </mi>\n <msub>\n  <mi xml:id="7:">\n   V\n  </mi>\n  <mn xml:id="8:">\n   1\n  </mn>\n </msub>\n <mo xml:id="0:1:">\n  ,\n </mo>\n <mo xml:id="9:">\n  ,\n </mo>\n <msub>\n  <mi xml:id="10:">\n   E\n  </mi>\n  <mn xml:id="11:">\n   1\n  </mn>\n </msub>\n <mi xml:id="12:">\n  〉\n </mi>\n <mo xml:id="13:">\n  ,\n </mo>\n <msub>\n  <mi xml:id="14:">\n   f\n  </mi>\n  <mn xml:id="15:">\n   2\n  </mn>\n </msub>\n <mo xml:id="16:">\n  =\n </mo>\n <mi xml:id="17:">\n  〈\n </mi>\n <msub>\n  <mi xml:id="18:">\n   V\n  </mi>\n  <mn xml:id="19:">\n   2\n  </mn>\n </msub>\n <mo xml:id="20:">\n  ,\n </mo>\n <mo xml:id="2:">\n  ,\n </mo>\n <msub>\n  <mi xml:id="21:">\n   E\n  </mi>\n  <mn xml:id="22:">\n   2\n  </mn>\n </msub>\n <mi xml:id="23:">\n  〉\n </mi>\n</mrow>"	0	0	0	0		
FR	13	1094	2249	1311	2284
o	1	E	1094	2252	1122	2278		
o	2	1	1124	2265	1134	2284		
o	3	∩	1149	2255	1171	2279		
o	4	E	1185	2252	1213	2278		
o	5	2	1213	2265	1225	2284		
o	6	=	1244	2264	1270	2273		
o	7	∅	1287	2249	1303	2281		
o	8	dot	1307	2274	1311	2278		
R	9	RSUB	2	3	0	0		
R	10	HORIZONTAL	2	4	0	0		
R	11	HORIZONTAL	4	5	0	0		
R	12	RSUB	5	6	0	0		
R	13	HORIZONTAL	5	7	0	0		
R	14	HORIZONTAL	7	8	0	0		
R	15	PUNC	8	1	0	0		
MML	16	"<mrow>\n <msub>\n  <mi xml:id="1:">\n   E\n  </mi>\n  <mn xml:id="2:">\n   1\n  </mn>\n </msub>\n <mi xml:id="3:">\n  ∩\n </mi>\n <msub>\n  <mi xml:id="4:">\n   E\n  </mi>\n  <mn xml:id="5:">\n   2\n  </mn>\n </msub>\n <mo xml:id="6:">\n  =\n </mo>\n <mi xml:id="7:">\n  ∅\n </mi>\n <mo xml:id="0:">\n  .\n </mo>\n</mrow>"	0	0	0	0		
FR	14	1410	2251	1440	2286
o	1	f	1410	2251	1429	2286		
o	2	one	1430	2265	1440	2284		
R	3	RSUB	1	2	0	0		
MML	4	"<msub>\n <mi xml:id="0:">\n  f\n </mi>\n <mn xml:id="1:2:">\n  1\n </mn>\n</msub>"	0	0	0	0		
FR	15	1524	2251	1554	2286
o	1	f	1524	2251	1554	2286		
MML	2	"<mi xml:id="0:1:">\n f\n</mi>"	0	0	0	0		
FR	16	1352	2298	1785	2336
o	1	f	1352	2300	1372	2335		
o	2	=	1392	2313	1418	2322		
o	3	〈	1440	2298	1449	2336		
o	4	V	1454	2301	1481	2328		
o	5	one	1477	2313	1486	2332		
o	6	i	1477	2315	1479	2316		
o	7	∪	1503	2304	1525	2328		
o	8	V	1541	2301	1568	2328		
o	9	2	1562	2313	1574	2332		
o	10	COMMA	1581	2323	1585	2334		
o	11	E	1596	2301	1624	2327		
o	12	1	1626	2313	1636	2332		
o	13	∪	1653	2304	1675	2328		
o	14	E	1689	2301	1717	2327		
o	15	2	1718	2313	1730	2332		
o	16	〉	1735	2298	1744	2336		
o	17	i	1762	2301	1771	2327		
o	18	s	1774	2309	1785	2327		
R	19	RSUB	1	2	0	0		
R	20	HORIZONTAL	1	7	0	0		
R	21	PUNC	2	3	0	0		
R	22	HORIZONTAL	4	5	0	0		
R	23	HORIZONTAL	5	6	0	0		
R	24	HORIZONTAL	6	1	0	0		
R	25	HORIZONTAL	7	8	0	0		
R	26	RSUB	8	9	0	0		
R	27	PUNC	8	10	0	0		
R	28	HORIZONTAL	8	11	0	0		
R	29	RSUB	11	12	0	0		
R	30	HORIZONTAL	11	13	0	0		
R	31	HORIZONTAL	13	14	0	0		
R	32	RSUB	14	15	0	0		
R	33	HORIZONTAL	14	16	0	0		
R	34	HORIZONTAL	16	17	0	0		
R	35	HORIZONTAL	17	18	0	0		
MML	36	"<mrow>\n <mi xml:id="3:">\n  f\n </mi>\n <mo xml:id="4:">\n  =\n </mo>\n <mi xml:id="5:">\n  〈\n </mi>\n <msub>\n  <mi xml:id="0:">\n   V\n  </mi>\n  <mrow>\n   <mn xml:id="1:">\n    1\n   </mn>\n   <mi xml:id="2:">\n    i\n   </mi>\n  </mrow>\n </msub>\n <mi xml:id="6:">\n  ∪\n </mi>\n <msub>\n  <mi xml:id="7:">\n   V\n  </mi>\n  <mn xml:id="8:">\n   2\n  </mn>\n </msub>\n <msub>\n  <mi xml:id="10:">\n   E\n  </mi>\n  <mn xml:id="11:">\n   1\n  </mn>\n </msub>\n <mi xml:id="12:">\n  ∪\n </mi>\n <msub>\n  <mi xml:id="13:">\n   E\n  </mi>\n  <mn xml:id="14:">\n   2\n  </mn>\n </msub>\n <mi xml:id="15:">\n  〉\n </mi>\n <mi xml:id="16:">\n  i\n </mi>\n <mi xml:id="17:">\n  s\n </mi>\n <mo xml:id="9:">\n  ,\n </mo>\n</mrow>"	0	0	0	0		
FR	17	1582	2394	1865	2433
o	1	n	1582	2406	1603	2423		
o	2	1	1607	2410	1617	2429		
o	3	=	1640	2409	1665	2418		
o	4	(	1687	2394	1696	2432		
o	5	[	1703	2394	1708	2433		
o	6	i	1710	2397	1720	2423		
o	7	1	1726	2410	1735	2429		
o	8	COMMA	1743	2419	1747	2430		
o	9	j	1756	2397	1772	2431		
o	10	1	1776	2410	1785	2429		
o	11	]	1790	2394	1796	2433		
o	12	COMMA	1804	2419	1808	2430		
o	13	f	1820	2396	1839	2431		
o	14	1	1839	2410	1849	2429		
o	15	)	1856	2394	1865	2432		
R	16	RSUB	1	2	0	0		
R	17	HORIZONTAL	1	3	0	0		
R	18	HORIZONTAL	3	4	0	0		
R	19	HORIZONTAL	4	5	0	0		
R	20	HORIZONTAL	5	6	0	0		
R	21	RSUB	6	7	0	0		
R	22	PUNC	6	8	0	0		
R	23	HORIZONTAL	6	9	0	0		
R	24	RSUB	9	10	0	0		
R	25	HORIZONTAL	9	11	0	0		
R	26	PUNC	11	12	0	0		
R	27	HORIZONTAL	11	13	0	0		
R	28	RSUB	13	14	0	0		
R	29	HORIZONTAL	13	15	0	0		
MML	30	"<mrow>\n <msub>\n  <mi xml:id="0:">\n   n\n  </mi>\n  <mn xml:id="1:">\n   1\n  </mn>\n </msub>\n <mo xml:id="2:">\n  =\n </mo>\n <mi xml:id="3:">\n  (\n </mi>\n <mi xml:id="4:">\n  [\n </mi>\n <msub>\n  <mi xml:id="5:">\n   i\n  </mi>\n  <mn xml:id="6:">\n   1\n  </mn>\n </msub>\n <mo xml:id="7:">\n  ,\n </mo>\n <msub>\n  <mi xml:id="8:">\n   j\n  </mi>\n  <mn xml:id="9:">\n   1\n  </mn>\n </msub>\n <mi xml:id="10:">\n  ]\n </mi>\n <mo xml:id="11:">\n  ,\n </mo>\n <msub>\n  <mi xml:id="12:">\n   f\n  </mi>\n  <mn xml:id="13:">\n   1\n  </mn>\n </msub>\n <mi xml:id="14:">\n  )\n </mi>\n</mrow>"	0	0	0	0		
FR	18	1157	2442	1579	2481
o	1	n	1157	2454	1178	2471		
o	2	2	1181	2458	1193	2477		
o	3	=	1209	2457	1235	2466		
o	4	(	1252	2442	1260	2480		
o	5	[	1267	2442	1273	2481		
o	6	i	1275	2446	1285	2471		
o	7	2	1289	2458	1300	2477		
o	8	comma	1307	2467	1312	2472		
o	9	COMMA	1308	2473	1311	2478		
o	10	j	1321	2445	1336	2479		
o	11	2	1339	2458	1350	2477		
o	12	]	1355	2442	1360	2481		
o	13	COMMA	1368	2467	1372	2478		
o	14	f	1384	2444	1403	2479		
o	15	2	1402	2458	1414	2477		
o	16	)	1420	2442	1429	2480		
o	17	(	1442	2445	1452	2478		
o	18	j	1453	2445	1468	2479		
o	19	1	1472	2458	1482	2477		
o	20	≤	1499	2447	1523	2476		
o	21	i	1539	2446	1549	2471		
o	22	2	1553	2458	1564	2477		
o	23	)	1569	2445	1579	2478		
R	24	RSUB	2	3	0	0		
R	25	HORIZONTAL	2	4	0	0		
R	26	HORIZONTAL	4	5	0	0		
R	27	HORIZONTAL	5	6	0	0		
R	28	HORIZONTAL	6	7	0	0		
R	29	PUNC	7	1	0	0		
R	30	RSUB	7	8	0	0		
R	31	HORIZONTAL	7	10	0	0		
R	32	PUNC	8	9	0	0		
R	33	RSUB	10	11	0	0		
R	34	HORIZONTAL	10	12	0	0		
R	35	PUNC	12	13	0	0		
R	36	HORIZONTAL	12	14	0	0		
R	37	RSUB	14	15	0	0		
R	38	HORIZONTAL	14	16	0	0		
R	39	HORIZONTAL	16	17	0	0		
R	40	HORIZONTAL	17	18	0	0		
R	41	RSUB	18	19	0	0		
R	42	HORIZONTAL	18	20	0	0		
R	43	HORIZONTAL	20	21	0	0		
R	44	RSUB	21	22	0	0		
R	45	HORIZONTAL	21	23	0	0		
MML	46	"<mrow>\n <msub>\n  <mi xml:id="1:">\n   n\n  </mi>\n  <mn xml:id="2:">\n   2\n  </mn>\n </msub>\n <mo xml:id="3:">\n  =\n </mo>\n <mi xml:id="4:">\n  (\n </mi>\n <mi xml:id="5:">\n  [\n </mi>\n <msub>\n  <mi xml:id="6:">\n   i\n  </mi>\n  <mrow>\n   <mn xml:id="7:">\n    2\n   </mn>\n   <mo xml:id="8:">\n    ,\n   </mo>\n  </mrow>\n </msub>\n <mo xml:id="0:">\n  ,\n </mo>\n <msub>\n  <mi xml:id="9:">\n   j\n  </mi>\n  <mn xml:id="10:">\n   2\n  </mn>\n </msub>\n <mi xml:id="11:">\n  ]\n </mi>\n <mo xml:id="12:">\n  ,\n </mo>\n <msub>\n  <mi xml:id="13:">\n   f\n  </mi>\n  <mn xml:id="14:">\n   2\n  </mn>\n </msub>\n <mi xml:id="15:">\n  )\n </mi>\n <mi xml:id="16:">\n  (\n </mi>\n <msub>\n  <mi xml:id="17:">\n   j\n  </mi>\n  <mn xml:id="18:">\n   1\n  </mn>\n </msub>\n <mi xml:id="19:">\n  ≤\n </mi>\n <msub>\n  <mi xml:id="20:">\n   i\n  </mi>\n  <mn xml:id="21:">\n   2\n  </mn>\n </msub>\n <mi xml:id="22:">\n  )\n </mi>\n</mrow>"	0	0	0	0		
FR	19	1192	2491	1614	2528
o	1	f	1192	2492	1211	2527		
o	2	=	1237	2505	1262	2514		
o	3	〈	1289	2491	1298	2528		
o	4	V	1303	2493	1330	2520		
o	5	1	1326	2506	1336	2525		
o	6	∪	1355	2496	1377	2520		
o	7	V	1394	2493	1421	2520		
o	8	2	1416	2506	1428	2525		
o	9	COMMA	1435	2515	1439	2526		
o	10	E	1450	2493	1478	2519		
o	11	1	1480	2506	1490	2525		
o	12	∪	1508	2496	1530	2520		
o	13	E	1547	2493	1575	2519		
o	14	2	1576	2506	1588	2525		
o	15	〉	1593	2491	1602	2528		
o	16	comma	1608	2515	1614	2524		
R	17	HORIZONTAL	2	3	0	0		
R	18	HORIZONTAL	3	4	0	0		
R	19	HORIZONTAL	4	5	0	0		
R	20	RSUB	5	6	0	0		
R	21	HORIZONTAL	5	7	0	0		
R	22	HORIZONTAL	7	8	0	0		
R	23	RSUB	8	9	0	0		
R	24	PUNC	8	10	0	0		
R	25	HORIZONTAL	8	11	0	0		
R	26	RSUB	11	12	0	0		
R	27	HORIZONTAL	11	13	0	0		
R	28	HORIZONTAL	13	14	0	0		
R	29	RSUB	14	15	0	0		
R	30	HORIZONTAL	14	16	0	0		
R	31	PUNC	16	1	0	0		
MML	32	"<mrow>\n <mi xml:id="1:">\n  f\n </mi>\n <mo xml:id="2:">\n  =\n </mo>\n <mi xml:id="3:">\n  〈\n </mi>\n <msub>\n  <mi xml:id="4:">\n   V\n  </mi>\n  <mn xml:id="5:">\n   1\n  </mn>\n </msub>\n <mi xml:id="6:">\n  ∪\n </mi>\n <msub>\n  <mi xml:id="7:">\n   V\n  </mi>\n  <mn xml:id="8:">\n   2\n  </mn>\n </msub>\n <msub>\n  <mi xml:id="10:">\n   E\n  </mi>\n  <mn xml:id="11:">\n   1\n  </mn>\n </msub>\n <mi xml:id="12:">\n  ∪\n </mi>\n <msub>\n  <mi xml:id="13:">\n   E\n  </mi>\n  <mn xml:id="14:">\n   2\n  </mn>\n </msub>\n <mi xml:id="15:">\n  〉\n </mi>\n <mo xml:id="0:">\n  ,\n </mo>\n <mo xml:id="9:">\n  ,\n </mo>\n</mrow>"	0	0	0	0		
FR	20	1350	2538	1612	2577
o	1	n	1350	2550	1371	2567		
o	2	=	1390	2553	1415	2562		
o	3	(	1437	2538	1445	2576		
o	4	[	1452	2538	1458	2577		
o	5	i	1460	2550	1470	2567		
o	6	i	1466	2541	1470	2545		
o	7	1	1475	2554	1485	2573		
o	8	comma	1492	2563	1497	2568		
o	9	COMMA	1493	2569	1496	2574		
o	10	j	1506	2550	1520	2575		
o	11	i	1518	2541	1521	2545		
o	12	2	1524	2554	1535	2573		
o	13	]	1540	2538	1545	2577		
o	14	COMMA	1553	2563	1558	2574		
o	15	f	1569	2540	1588	2575		
o	16	)	1592	2538	1601	2576		
o	17	colon	1608	2563	1612	2567		
R	18	PUNC	1	2	0	0		
R	19	HORIZONTAL	1	3	0	0		
R	20	RSUB	1	9	0	0		
R	21	HORIZONTAL	5	6	0	0		
R	22	HORIZONTAL	6	7	0	0		
R	23	HORIZONTAL	7	8	0	0		
R	24	HORIZONTAL	8	1	0	0		
R	25	PUNC	8	11	0	0		
R	26	RSUB	9	10	0	0		
R	27	HORIZONTAL	9	12	0	0		
R	28	RSUB	12	13	0	0		
R	29	HORIZONTAL	12	14	0	0		
R	30	PUNC	14	15	0	0		
R	31	HORIZONTAL	14	16	0	0		
R	32	HORIZONTAL	16	17	0	0		
R	33	RSUB	17	4	0	0		
MML	34	"<mrow>\n <mi xml:id="4:">\n  n\n </mi>\n <mo xml:id="5:">\n  =\n </mo>\n <mi xml:id="6:">\n  (\n </mi>\n <mi xml:id="7:">\n  [\n </mi>\n <msub>\n  <mi xml:id="0:">\n   i\n  </mi>\n  <mrow>\n   <msub>\n    <mi xml:id="8:">\n     i\n    </mi>\n    <mn xml:id="9:">\n     1\n    </mn>\n   </msub>\n   <msub>\n    <mi xml:id="11:">\n     j\n    </mi>\n    <mn xml:id="12:">\n     2\n    </mn>\n   </msub>\n   <mi xml:id="13:">\n    ]\n   </mi>\n   <mo xml:id="14:">\n    ,\n   </mo>\n   <mi xml:id="15:">\n    f\n   </mi>\n   <msub>\n    <mi xml:id="16:">\n     )\n    </mi>\n    <mi xml:id="3:">\n     &amp;colon\n    </mi>\n   </msub>\n  </mrow>\n </msub>\n <mo xml:id="1:">\n  ,\n </mo>\n <mi xml:id="2:">\n  i\n </mi>\n <mo xml:id="10:">\n  ,\n </mo>\n</mrow>"	0	0	0	0		
FR	21	1761	2550	1796	2573
o	1	n	1761	2550	1796	2573		
MML	2	"<mi xml:id="0:1:">\n n\n</mi>"	0	0	0	0		
FR	22	1094	2599	1129	2621
o	1	n	1094	2599	1129	2621		
MML	2	"<mi xml:id="0:1:">\n n\n</mi>"	0	0	0	0		
P	5	
FR	1	548	232	757	377
o	1	Omega	548	232	757	377		
o	2	d	583	247	732	347		
o	3	b	588	323	605	334		
o	4	w	598	246	606	252		
o	5	y	606	326	613	337		
o	6	a	608	245	616	288		
o	7	n	615	245	620	252		
o	8	R	618	278	625	288		
o	9	t	621	244	625	252		
o	10	-	626	248	629	249		
o	11	0	631	243	637	252		
o	12	1	639	243	642	252		
o	13	R	681	249	699	259		
o	14	RightPar	684	232	757	291		
o	15	1	701	249	704	259		
o	16	G	733	298	742	308		
o	17	1	744	298	748	308		
R	18	RSUP	1	2	0	0		
R	19	RSUB	1	4	0	0		
R	20	UPPER	1	5	0	0		
R	21	LSUP	1	12	0	0		
R	22	LSUB	1	14	0	0		
R	23	HORIZONTAL	1	17	0	0		
R	24	HORIZONTAL	3	13	0	0		
R	25	HORIZONTAL	4	6	0	0		
R	26	UNDER	7	9	0	0		
R	27	UPPER	8	7	0	0		
R	28	HORIZONTAL	9	1	0	0		
R	29	UPPER	10	8	0	0		
R	30	UPPER	11	10	0	0		
R	31	HORIZONTAL	14	15	0	0		
R	32	HORIZONTAL	15	3	0	0		
R	33	RSUB	17	16	0	0		
MML	34	"<munder>\n <munder>\n  <munder>\n   <munder>\n    <mi xml:id="7:8:">\n     a\n    </mi>\n    <mrow>\n     <mi xml:id="10:">\n      R\n     </mi>\n     <msup>\n      <msup>\n       <msub>\n        <msub>\n         <munder>\n          <mi xml:id="5:">\n           w\n          </mi>\n          <mi xml:id="0:">\n           Ω\n          </mi>\n         </munder>\n         <mrow>\n          <mi xml:id="15:16:">\n           R\n          </mi>\n          <mn xml:id="17:">\n           1\n          </mn>\n          <mi xml:id="2:">\n           )\n          </mi>\n          <mn xml:id="14:">\n           1\n          </mn>\n         </mrow>\n        </msub>\n        <mrow>\n         <mi xml:id="3:4:">\n          b\n         </mi>\n         <mi xml:id="6:">\n          y\n         </mi>\n        </mrow>\n       </msub>\n       <mi xml:id="1:">\n        d\n       </mi>\n      </msup>\n      <mn xml:id="13:">\n       0\n      </mn>\n     </msup>\n     <msub>\n      <mn xml:id="19:">\n       1\n      </mn>\n      <mi xml:id="18:">\n       G\n      </mi>\n     </msub>\n    </mrow>\n   </munder>\n   <mi xml:id="9:">\n    n\n   </mi>\n  </munder>\n  <mi xml:id="11:">\n   t\n  </mi>\n </munder>\n <mo xml:id="12:">\n  -\n </mo>\n</munder>"	0	0	0	0		
FR	2	1600	324	1841	364
o	1	minus	1600	324	1841	325		
o	2	p	1600	341	1737	363		
o	3	a	1617	341	1629	356		
o	4	i	1630	334	1637	356		
o	5	r	1639	341	1649	356		
o	6	s	1651	341	1660	356		
o	7	(	1674	333	1681	363		
o	8	[	1687	332	1692	364		
o	9	i	1694	335	1702	356		
o	10	k	1706	344	1716	359		
o	11	COMMA	1723	353	1727	362		
o	12	j	1738	335	1748	362		
o	13	k	1750	344	1761	359		
o	14	]	1765	332	1769	364		
o	15	COMMA	1776	353	1780	362		
o	16	f	1790	334	1806	362		
o	17	k	1806	344	1816	359		
o	18	)	1822	332	1829	364		
o	19	COMMA	1835	353	1839	360		
R	20	UPPER	2	1	0	0		
R	21	HORIZONTAL	2	13	0	0		
R	22	HORIZONTAL	3	4	0	0		
R	23	HORIZONTAL	4	5	0	0		
R	24	HORIZONTAL	5	6	0	0		
R	25	HORIZONTAL	6	7	0	0		
R	26	HORIZONTAL	7	8	0	0		
R	27	HORIZONTAL	8	9	0	0		
R	28	RSUB	9	10	0	0		
R	29	PUNC	9	11	0	0		
R	30	HORIZONTAL	9	12	0	0		
R	31	HORIZONTAL	11	2	0	0		
R	32	HORIZONTAL	12	14	0	0		
R	33	PUNC	14	15	0	0		
R	34	HORIZONTAL	14	16	0	0		
R	35	RSUB	16	17	0	0		
R	36	HORIZONTAL	16	18	0	0		
R	37	HORIZONTAL	18	19	0	0		
MML	38	"<mrow>\n <mi xml:id="3:">\n  a\n </mi>\n <mi xml:id="4:">\n  i\n </mi>\n <mi xml:id="5:">\n  r\n </mi>\n <mi xml:id="6:">\n  s\n </mi>\n <mi xml:id="7:">\n  (\n </mi>\n <mi xml:id="8:">\n  [\n </mi>\n <msub>\n  <mi xml:id="9:">\n   i\n  </mi>\n  <mi xml:id="10:">\n   k\n  </mi>\n </msub>\n <mo xml:id="11:">\n  ,\n </mo>\n <munder>\n  <mo xml:id="0:">\n   -\n  </mo>\n  <mi xml:id="1:2:">\n   p\n  </mi>\n </munder>\n <mi xml:id="13:">\n  k\n </mi>\n <mi xml:id="12:">\n  j\n </mi>\n <mi xml:id="14:">\n  ]\n </mi>\n <mo xml:id="15:">\n  ,\n </mo>\n <msub>\n  <mi xml:id="16:">\n   f\n  </mi>\n  <mi xml:id="17:">\n   k\n  </mi>\n </msub>\n <mi xml:id="18:">\n  )\n </mi>\n <mo xml:id="19:">\n  ,\n </mo>\n</mrow>"	0	0	0	0		
FR	3	1147	370	1318	397
o	1	=	1147	379	1164	387		
o	2	1	1175	370	1186	391		
o	3	COMMA	1191	388	1195	397		
o	4	2	1205	370	1218	391		
o	5	COMMA	1222	388	1226	397		
o	6	.	1237	388	1269	391		
o	7	COMMA	1281	388	1284	397		
o	8	n	1293	377	1311	391		
o	9	COMMA	1314	388	1318	395		
R	10	HORIZONTAL	1	2	0	0		
R	11	PUNC	2	3	0	0		
R	12	HORIZONTAL	2	4	0	0		
R	13	PUNC	4	5	0	0		
R	14	HORIZONTAL	4	8	0	0		
R	15	HORIZONTAL	5	6	0	0		
R	16	HORIZONTAL	6	7	0	0		
R	17	RSUB	8	9	0	0		
MML	18	"<mrow>\n <mo xml:id="0:">\n  =\n </mo>\n <mn xml:id="1:">\n  1\n </mn>\n <mo xml:id="2:">\n  ,\n </mo>\n <mn xml:id="3:">\n  2\n </mn>\n <mo xml:id="4:">\n  ,\n </mo>\n <mo xml:id="5:6:7:">\n  .\n </mo>\n <mo xml:id="8:">\n  ,\n </mo>\n <msub>\n  <mi xml:id="9:">\n   n\n  </mi>\n  <mo xml:id="10:">\n   ,\n  </mo>\n </msub>\n</mrow>"	0	0	0	0		
FR	4	1394	401	1430	433
o	1	f	1394	404	1410	432		
o	2	k	1410	418	1421	433		
o	3	′	1413	401	1418	412		
o	4	T	1427	423	1430	426		
R	5	HORIZONTAL	2	1	0	0		
R	6	RSUB	2	3	0	0		
R	7	RSUP	2	4	0	0		
MML	8	"<mrow>\n <msubsup>\n  <mi xml:id="1:">\n   f\n  </mi>\n  <mi xml:id="2:">\n   k\n  </mi>\n  <mi xml:id="3:">\n   ′\n  </mi>\n </msubsup>\n <mi xml:id="0:">\n  T\n </mi>\n</mrow>"	0	0	0	0		
FR	5	1657	401	1812	434
o	1	(	1657	402	1664	434		
o	2	[	1670	402	1675	434		
o	3	i	1676	405	1685	426		
o	4	k	1689	415	1699	430		
o	5	i	1706	405	1730	426		
o	6	COMMA	1706	427	1709	432		
o	7	j	1717	412	1729	432		
o	8	k	1733	415	1743	430		
o	9	]	1748	402	1752	434		
o	10	COMMA	1759	423	1763	432		
o	11	f	1773	404	1789	432		
o	12	k	1789	418	1799	433		
o	13	prime	1791	401	1797	412		
o	14	)	1805	402	1812	434		
R	15	HORIZONTAL	3	4	0	0		
R	16	HORIZONTAL	4	5	0	0		
R	17	RSUB	5	6	0	0		
R	18	HORIZONTAL	5	8	0	0		
R	19	HORIZONTAL	6	1	0	0		
R	20	PUNC	6	7	0	0		
R	21	RSUB	8	9	0	0		
R	22	HORIZONTAL	8	10	0	0		
R	23	PUNC	10	11	0	0		
R	24	HORIZONTAL	10	12	0	0		
R	25	RSUP	12	2	0	0		
R	26	RSUB	12	13	0	0		
R	27	HORIZONTAL	12	14	0	0		
MML	28	"<mrow>\n <mi xml:id="3:">\n  (\n </mi>\n <mi xml:id="4:">\n  [\n </mi>\n <msub>\n  <mi xml:id="5:">\n   i\n  </mi>\n  <mrow>\n   <mi xml:id="6:">\n    k\n   </mi>\n   <mi xml:id="0:1:">\n    i\n   </mi>\n   <mo xml:id="7:">\n    ,\n   </mo>\n  </mrow>\n </msub>\n <msub>\n  <mi xml:id="8:">\n   j\n  </mi>\n  <mi xml:id="9:">\n   k\n  </mi>\n </msub>\n <mi xml:id="10:">\n  ]\n </mi>\n <mo xml:id="11:">\n  ,\n </mo>\n <msubsup>\n  <mi xml:id="12:">\n   f\n  </mi>\n  <mi xml:id="13:">\n   k\n  </mi>\n  <mo xml:id="2:">\n   ′\n  </mo>\n </msubsup>\n <mi xml:id="14:">\n  )\n </mi>\n</mrow>"	0	0	0	0		
FR	6	1332	438	1544	470
o	1	i	1332	440	1338	462		
o	2	t	1341	444	1348	462		
o	3	e	1349	447	1362	462		
o	4	m	1364	447	1387	462		
o	5	c	1397	448	1409	462		
o	6	[	1413	438	1418	470		
o	7	k	1421	440	1435	462		
o	8	]	1437	438	1442	470		
o	9	[	1450	438	1454	470		
o	10	k	1457	440	1471	462		
o	11	+	1483	444	1503	464		
o	12	1	1516	441	1527	462		
o	13	]	1530	438	1534	470		
o	14	.	1541	459	1544	462		
R	15	HORIZONTAL	1	2	0	0		
R	16	HORIZONTAL	2	3	0	0		
R	17	HORIZONTAL	3	4	0	0		
R	18	HORIZONTAL	4	5	0	0		
R	19	HORIZONTAL	5	6	0	0		
R	20	HORIZONTAL	6	7	0	0		
R	21	HORIZONTAL	7	8	0	0		
R	22	HORIZONTAL	8	9	0	0		
R	23	HORIZONTAL	9	10	0	0		
R	24	HORIZONTAL	10	11	0	0		
R	25	HORIZONTAL	11	12	0	0		
R	26	HORIZONTAL	12	13	0	0		
R	27	HORIZONTAL	13	14	0	0		
MML	28	"<mrow>\n <mi xml:id="0:1:">\n  i\n </mi>\n <mi xml:id="2:">\n  t\n </mi>\n <mi xml:id="3:">\n  e\n </mi>\n <mi xml:id="4:">\n  m\n </mi>\n <mi xml:id="5:">\n  c\n </mi>\n <mi xml:id="6:">\n  [\n </mi>\n <mi xml:id="7:">\n  k\n </mi>\n <mi xml:id="8:">\n  ]\n </mi>\n <mi xml:id="9:">\n  [\n </mi>\n <mi xml:id="10:">\n  k\n </mi>\n <mo xml:id="11:">\n  +\n </mo>\n <mn xml:id="12:">\n  1\n </mn>\n <mi xml:id="13:">\n  ]\n </mi>\n <mo xml:id="14:">\n  .\n </mo>\n</mrow>"	0	0	0	0		
FR	7	1380	724	1508	751
o	1	n	1380	731	1398	745		
o	2	-	1400	737	1408	739		
o	3	s	1411	731	1423	745		
o	4	p	1424	731	1441	751		
o	5	a	1443	731	1458	745		
o	6	n	1460	731	1477	745		
o	7	+	1479	729	1495	745		
o	8	1	1501	724	1508	745		
R	9	HORIZONTAL	1	2	0	0		
R	10	HORIZONTAL	2	3	0	0		
R	11	HORIZONTAL	3	4	0	0		
R	12	HORIZONTAL	4	5	0	0		
R	13	HORIZONTAL	5	6	0	0		
R	14	HORIZONTAL	6	7	0	0		
R	15	HORIZONTAL	7	8	0	0		
MML	16	"<mrow>\n <mi xml:id="0:">\n  n\n </mi>\n <mo xml:id="1:">\n  -\n </mo>\n <mi xml:id="2:">\n  s\n </mi>\n <mi xml:id="3:">\n  p\n </mi>\n <mi xml:id="4:">\n  a\n </mi>\n <mi xml:id="5:">\n  n\n </mi>\n <mo xml:id="6:">\n  +\n </mo>\n <mn xml:id="7:">\n  1\n </mn>\n</mrow>"	0	0	0	0		
FR	8	1224	760	1386	787
o	1	j	1224	760	1237	787		
o	2	=	1248	769	1265	777		
o	3	i	1274	760	1283	781		
o	4	+	1293	765	1310	781		
o	5	s	1320	767	1332	781		
o	6	p	1333	767	1350	787		
o	7	a	1352	767	1367	781		
o	8	n	1369	767	1386	781		
R	9	HORIZONTAL	1	2	0	0		
R	10	HORIZONTAL	2	3	0	0		
R	11	HORIZONTAL	3	4	0	0		
R	12	HORIZONTAL	4	5	0	0		
R	13	HORIZONTAL	5	6	0	0		
R	14	HORIZONTAL	6	7	0	0		
R	15	HORIZONTAL	7	8	0	0		
MML	16	"<mrow>\n <mi xml:id="0:">\n  j\n </mi>\n <mo xml:id="1:">\n  =\n </mo>\n <mi xml:id="2:">\n  i\n </mi>\n <mo xml:id="3:">\n  +\n </mo>\n <mi xml:id="4:">\n  s\n </mi>\n <mi xml:id="5:">\n  p\n </mi>\n <mi xml:id="6:">\n  a\n </mi>\n <mi xml:id="7:">\n  n\n </mi>\n</mrow>"	0	0	0	0		
FR	9	1312	827	1506	859
o	1	n	1312	837	1329	851		
o	2	1	1334	830	1344	851		
o	3	=	1358	839	1379	847		
o	4	(	1394	828	1401	858		
o	5	[	1407	827	1412	859		
o	6	s	1414	837	1426	851		
o	7	t	1429	831	1438	851		
o	8	a	1441	837	1456	851		
o	9	r	1458	837	1471	851		
o	10	t	1474	831	1483	851		
o	11	1	1487	841	1495	855		
o	12	comma	1502	848	1506	853		
o	13	COMMA	1503	854	1505	857		
R	14	PUNC	1	13	0	0		
R	15	HORIZONTAL	2	3	0	0		
R	16	HORIZONTAL	3	4	0	0		
R	17	HORIZONTAL	4	5	0	0		
R	18	HORIZONTAL	5	6	0	0		
R	19	HORIZONTAL	6	7	0	0		
R	20	HORIZONTAL	7	8	0	0		
R	21	HORIZONTAL	8	9	0	0		
R	22	HORIZONTAL	9	10	0	0		
R	23	HORIZONTAL	10	11	0	0		
R	24	PUNC	11	1	0	0		
R	25	RSUB	11	12	0	0		
MML	26	"<mrow>\n <mi xml:id="1:">\n  n\n </mi>\n <mn xml:id="2:">\n  1\n </mn>\n <mo xml:id="3:">\n  =\n </mo>\n <mi xml:id="4:">\n  (\n </mi>\n <mi xml:id="5:">\n  [\n </mi>\n <mi xml:id="6:">\n  s\n </mi>\n <mi xml:id="7:">\n  t\n </mi>\n <mi xml:id="8:">\n  a\n </mi>\n <mi xml:id="9:">\n  r\n </mi>\n <msub>\n  <mi xml:id="10:">\n   t\n  </mi>\n  <mn xml:id="11:">\n   1\n  </mn>\n </msub>\n <mo xml:id="0:">\n  ,\n </mo>\n <mo xml:id="12:">\n  ,\n </mo>\n</mrow>"	0	0	0	0		
FR	10	1394	827	1644	859
o	1	(	1394	828	1401	858		
o	2	[	1407	827	1412	859		
o	3	s	1414	837	1426	851		
o	4	t	1429	831	1438	851		
o	5	a	1441	837	1456	851		
o	6	r	1458	837	1471	851		
o	7	t	1474	831	1483	851		
o	8	1	1487	841	1505	857		
o	9	comma	1502	848	1596	853		
o	10	e	1515	837	1528	851		
o	11	n	1530	837	1548	851		
o	12	d	1550	829	1565	851		
o	13	1	1568	841	1576	855		
o	14	]	1581	827	1586	859		
o	15	COMMA	1593	852	1596	857		
o	16	f	1606	829	1622	857		
o	17	1	1623	841	1631	855		
o	18	)	1637	827	1644	859		
R	19	HORIZONTAL	2	3	0	0		
R	20	HORIZONTAL	3	4	0	0		
R	21	HORIZONTAL	4	5	0	0		
R	22	HORIZONTAL	5	6	0	0		
R	23	HORIZONTAL	6	7	0	0		
R	24	HORIZONTAL	7	8	0	0		
R	25	RSUB	8	9	0	0		
R	26	HORIZONTAL	8	10	0	0		
R	27	HORIZONTAL	10	11	0	0		
R	28	HORIZONTAL	11	12	0	0		
R	29	RSUB	12	13	0	0		
R	30	HORIZONTAL	12	14	0	0		
R	31	PUNC	14	15	0	0		
R	32	HORIZONTAL	14	16	0	0		
R	33	UPPER	15	1	0	0		
R	34	RSUB	16	17	0	0		
R	35	HORIZONTAL	16	18	0	0		
MML	36	"<mrow>\n <mi xml:id="2:">\n  (\n </mi>\n <mi xml:id="3:">\n  [\n </mi>\n <mi xml:id="4:">\n  s\n </mi>\n <mi xml:id="5:">\n  t\n </mi>\n <mi xml:id="6:">\n  a\n </mi>\n <mi xml:id="7:">\n  r\n </mi>\n <msub>\n  <mi xml:id="8:">\n   t\n  </mi>\n  <mn xml:id="10:9:">\n   1\n  </mn>\n </msub>\n <mi xml:id="11:">\n  e\n </mi>\n <mi xml:id="12:">\n  n\n </mi>\n <msub>\n  <mi xml:id="13:">\n   d\n  </mi>\n  <mn xml:id="14:">\n   1\n  </mn>\n </msub>\n <mi xml:id="15:">\n  ]\n </mi>\n <munder>\n  <mo xml:id="0:1:">\n   ,\n  </mo>\n  <mo xml:id="16:">\n   ,\n  </mo>\n </munder>\n <msub>\n  <mi xml:id="17:">\n   f\n  </mi>\n  <mn xml:id="18:">\n   1\n  </mn>\n </msub>\n <mi xml:id="19:">\n  )\n </mi>\n</mrow>"	0	0	0	0		
FR	11	1690	827	1764	859
o	1	c	1690	837	1702	851		
o	2	[	1706	827	1711	859		
o	3	i	1713	837	1721	851		
o	4	i	1718	830	1721	833		
o	5	]	1724	827	1728	859		
o	6	[	1736	827	1740	859		
o	7	k	1743	829	1757	851		
o	8	]	1760	827	1764	859		
R	9	HORIZONTAL	2	3	0	0		
R	10	HORIZONTAL	3	4	0	0		
R	11	UPPER	4	1	0	0		
R	12	HORIZONTAL	4	5	0	0		
R	13	HORIZONTAL	5	6	0	0		
R	14	HORIZONTAL	6	7	0	0		
R	15	HORIZONTAL	7	8	0	0		
MML	16	"<mrow>\n <mi xml:id="1:">\n  c\n </mi>\n <mi xml:id="2:">\n  [\n </mi>\n <munder>\n  <mi xml:id="0:">\n   i\n  </mi>\n  <mi xml:id="3:">\n   i\n  </mi>\n </munder>\n <mi xml:id="4:">\n  ]\n </mi>\n <mi xml:id="5:">\n  [\n </mi>\n <mi xml:id="6:">\n  k\n </mi>\n <mi xml:id="7:">\n  ]\n </mi>\n</mrow>"	0	0	0	0		
FR	12	1351	863	1635	895
o	1	n	1351	873	1368	887		
o	2	2	1371	866	1384	887		
o	3	=	1397	875	1418	883		
o	4	(	1433	863	1440	895		
o	5	[	1446	863	1451	895		
o	6	s	1453	873	1465	887		
o	7	t	1468	867	1477	887		
o	8	a	1480	873	1495	887		
o	9	r	1497	873	1510	887		
o	10	t	1513	867	1522	887		
o	11	2	1525	876	1535	890		
o	12	COMMA	1541	884	1545	893		
o	13	e	1554	873	1566	887		
o	14	n	1569	873	1586	887		
o	15	d	1589	865	1604	887		
o	16	2	1606	876	1616	890		
o	17	BigRightPar	1620	863	1624	895		
o	18	COMMA	1631	884	1635	893		
R	19	HORIZONTAL	1	18	0	0		
R	20	HORIZONTAL	2	3	0	0		
R	21	HORIZONTAL	3	4	0	0		
R	22	HORIZONTAL	4	5	0	0		
R	23	HORIZONTAL	5	6	0	0		
R	24	HORIZONTAL	6	7	0	0		
R	25	HORIZONTAL	7	8	0	0		
R	26	HORIZONTAL	8	9	0	0		
R	27	HORIZONTAL	9	10	0	0		
R	28	HORIZONTAL	10	11	0	0		
R	29	RSUB	11	12	0	0		
R	30	HORIZONTAL	11	14	0	0		
R	31	PUNC	12	13	0	0		
R	32	HORIZONTAL	14	15	0	0		
R	33	HORIZONTAL	15	16	0	0		
R	34	RSUB	16	17	0	0		
R	35	HORIZONTAL	17	1	0	0		
MML	36	"<mrow>\n <mi xml:id="1:">\n  n\n </mi>\n <mn xml:id="2:">\n  2\n </mn>\n <mo xml:id="3:">\n  =\n </mo>\n <mi xml:id="4:">\n  (\n </mi>\n <mi xml:id="5:">\n  [\n </mi>\n <mi xml:id="6:">\n  s\n </mi>\n <mi xml:id="7:">\n  t\n </mi>\n <mi xml:id="8:">\n  a\n </mi>\n <mi xml:id="9:">\n  r\n </mi>\n <msub>\n  <mi xml:id="10:">\n   t\n  </mi>\n  <mrow>\n   <mn xml:id="11:">\n    2\n   </mn>\n   <mo xml:id="12:">\n    ,\n   </mo>\n  </mrow>\n </msub>\n <mi xml:id="13:">\n  e\n </mi>\n <mi xml:id="14:">\n  n\n </mi>\n <msub>\n  <mi xml:id="15:">\n   d\n  </mi>\n  <mrow>\n   <mn xml:id="16:">\n    2\n   </mn>\n   <mi xml:id="0:">\n    ]\n   </mi>\n   <mo xml:id="17:">\n    ,\n   </mo>\n  </mrow>\n </msub>\n</mrow>"	0	0	0	0		
FR	13	1695	863	1807	895
o	1	i	1695	865	1789	893		
o	2	n	1704	872	1718	887		
o	3	c	1729	873	1741	887		
o	4	[	1745	863	1750	895		
o	5	k	1752	865	1767	887		
o	6	]	1769	863	1774	895		
o	7	[	1781	863	1786	895		
o	8	j	1790	866	1800	893		
o	9	]	1803	863	1807	895		
R	10	HORIZONTAL	1	2	0	0		
R	11	HORIZONTAL	2	3	0	0		
R	12	HORIZONTAL	3	4	0	0		
R	13	HORIZONTAL	4	5	0	0		
R	14	HORIZONTAL	5	6	0	0		
R	15	HORIZONTAL	6	7	0	0		
R	16	HORIZONTAL	7	8	0	0		
R	17	HORIZONTAL	8	9	0	0		
MML	18	"<mrow>\n <mi xml:id="0:1:2:">\n  i\n </mi>\n <mi xml:id="3:">\n  n\n </mi>\n <mi xml:id="4:">\n  c\n </mi>\n <mi xml:id="5:">\n  [\n </mi>\n <mi xml:id="6:">\n  k\n </mi>\n <mi xml:id="7:">\n  ]\n </mi>\n <mi xml:id="8:">\n  [\n </mi>\n <mi xml:id="9:">\n  j\n </mi>\n <mi xml:id="10:">\n  ]\n </mi>\n</mrow>"	0	0	0	0		
FR	14	1372	900	1397	928
o	1	f	1372	900	1388	928		
o	2	1	1389	912	1397	926		
R	3	RSUB	1	2	0	0		
MML	4	"<msub>\n <mi xml:id="0:1:">\n  f\n </mi>\n <mn xml:id="2:">\n  1\n </mn>\n</msub>"	0	0	0	0		
FR	15	1465	900	1490	928
o	1	f	1465	900	1490	928		
MML	2	"<mi xml:id="0:1:">\n f\n</mi>"	0	0	0	0		
FR	16	1550	901	1785	966
o	1	d	1550	901	1564	922		
o	2	c	1556	944	1568	958		
o	3	i	1565	901	1572	922		
o	4	o	1570	944	1584	958		
o	5	s	1575	907	1585	922		
o	6	j	1584	901	1592	929		
o	7	m	1586	944	1612	958		
o	8	o	1596	907	1610	922		
o	9	i	1612	901	1618	922		
o	10	p	1613	944	1629	964		
o	11	n	1620	907	1635	922		
o	12	o	1631	944	1645	958		
o	13	t	1636	904	1644	922		
o	14	s	1647	944	1659	958		
o	15	t	1653	902	1662	922		
o	16	e	1663	944	1675	958		
o	17	h	1664	901	1680	922		
o	18	(	1679	934	1687	966		
o	19	e	1682	907	1694	922		
o	20	n	1690	944	1707	958		
o	21	n	1696	907	1712	922		
o	22	1	1712	937	1723	958		
o	23	COMMA	1728	955	1732	964		
o	24	n	1741	944	1758	958		
o	25	2	1761	937	1774	958		
o	26	)	1778	934	1785	966		
R	27	HORIZONTAL	1	3	0	0		
R	28	HORIZONTAL	2	4	0	0		
R	29	HORIZONTAL	3	5	0	0		
R	30	HORIZONTAL	4	7	0	0		
R	31	HORIZONTAL	5	8	0	0		
R	32	HORIZONTAL	6	9	0	0		
R	33	UPPER	7	1	0	0		
R	34	HORIZONTAL	7	10	0	0		
R	35	UPPER	8	6	0	0		
R	36	HORIZONTAL	8	11	0	0		
R	37	HORIZONTAL	10	12	0	0		
R	38	HORIZONTAL	11	13	0	0		
R	39	HORIZONTAL	12	14	0	0		
R	40	HORIZONTAL	13	15	0	0		
R	41	HORIZONTAL	14	16	0	0		
R	42	HORIZONTAL	15	17	0	0		
R	43	HORIZONTAL	16	18	0	0		
R	44	HORIZONTAL	17	19	0	0		
R	45	HORIZONTAL	18	20	0	0		
R	46	HORIZONTAL	19	21	0	0		
R	47	HORIZONTAL	20	22	0	0		
R	48	PUNC	22	23	0	0		
R	49	HORIZONTAL	22	24	0	0		
R	50	HORIZONTAL	24	25	0	0		
R	51	HORIZONTAL	25	26	0	0		
MML	52	"<mrow>\n <mi xml:id="1:">\n  c\n </mi>\n <mi xml:id="3:">\n  o\n </mi>\n <munder>\n  <mrow>\n   <mi xml:id="0:">\n    d\n   </mi>\n   <mi xml:id="2:">\n    i\n   </mi>\n   <mi xml:id="4:">\n    s\n   </mi>\n   <munder>\n    <mrow>\n     <mi xml:id="5:">\n      j\n     </mi>\n     <mi xml:id="8:">\n      i\n     </mi>\n    </mrow>\n    <mi xml:id="7:">\n     o\n    </mi>\n   </munder>\n   <mi xml:id="10:">\n    n\n   </mi>\n   <mi xml:id="12:">\n    t\n   </mi>\n   <mi xml:id="14:">\n    t\n   </mi>\n   <mi xml:id="16:">\n    h\n   </mi>\n   <mi xml:id="18:">\n    e\n   </mi>\n   <mi xml:id="20:">\n    n\n   </mi>\n  </mrow>\n  <mi xml:id="6:">\n   m\n  </mi>\n </munder>\n <mi xml:id="9:">\n  p\n </mi>\n <mi xml:id="11:">\n  o\n </mi>\n <mi xml:id="13:">\n  s\n </mi>\n <mi xml:id="15:">\n  e\n </mi>\n <mi xml:id="17:">\n  (\n </mi>\n <mi xml:id="19:">\n  n\n </mi>\n <mn xml:id="21:">\n  1\n </mn>\n <mo xml:id="22:">\n  ,\n </mo>\n <mi xml:id="23:">\n  n\n </mi>\n <mn xml:id="24:">\n  2\n </mn>\n <mi xml:id="25:">\n  )\n </mi>\n</mrow>"	0	0	0	0		
FR	17	1704	969	1810	1001
o	1	(	1704	969	1711	1001		
o	2	n	1714	979	1732	993		
o	3	1	1736	972	1747	993		
o	4	COMMA	1752	990	1756	999		
o	5	n	1765	979	1783	993		
o	6	2	1785	972	1798	993		
o	7	)	1802	969	1810	1001		
R	8	HORIZONTAL	1	2	0	0		
R	9	HORIZONTAL	2	3	0	0		
R	10	PUNC	3	4	0	0		
R	11	HORIZONTAL	3	5	0	0		
R	12	HORIZONTAL	5	6	0	0		
R	13	HORIZONTAL	6	7	0	0		
MML	14	"<mrow>\n <mi xml:id="0:">\n  (\n </mi>\n <mi xml:id="1:">\n  n\n </mi>\n <mn xml:id="2:">\n  1\n </mn>\n <mo xml:id="3:">\n  ,\n </mo>\n <mi xml:id="4:">\n  n\n </mi>\n <mn xml:id="5:">\n  2\n </mn>\n <mi xml:id="6:">\n  )\n </mi>\n</mrow>"	0	0	0	0		
FR	18	1413	1050	1442	1068
o	1	n	1413	1050	1442	1068		
MML	2	"<mi xml:id="0:1:">\n n\n</mi>"	0	0	0	0		
FR	19	1514	1050	1544	1068
o	1	n	1514	1050	1544	1068		
MML	2	"<mi xml:id="0:1:">\n n\n</mi>"	0	0	0	0		
FR	20	1493	1113	1865	1194
o	1	n	1493	1121	1514	1170		
o	2	sum	1493	1192	1865	1194		
o	3	o	1513	1121	1527	1135		
o	4	e	1515	1156	1527	1170		
o	5	d	1528	1113	1544	1135		
o	6	(	1530	1149	1537	1175		
o	7	n	1540	1156	1557	1170		
o	8	e	1546	1121	1558	1135		
o	9	e	1560	1156	1572	1170		
o	10	comma	1562	1132	1565	1135		
o	11	n	1569	1121	1587	1135		
o	12	w	1575	1156	1596	1170		
o	13	o	1590	1121	1604	1135		
o	14	j	1600	1169	1609	1171		
o	15	s	1606	1121	1618	1135		
o	16	n	1610	1156	1628	1170		
o	17	a	1621	1121	1636	1135		
o	18	o	1630	1156	1644	1170		
o	19	m	1638	1121	1664	1135		
o	20	d	1646	1148	1662	1170		
o	21	e	1664	1156	1676	1170		
o	22	p	1665	1121	1681	1141		
o	23	COMMA	1679	1167	1683	1174		
o	24	l	1683	1113	1690	1135		
o	25	e	1694	1121	1706	1135		
o	26	c	1694	1156	1707	1170		
o	27	i	1710	1134	1726	1152		
o	28	[	1711	1146	1716	1178		
o	29	i	1718	1156	1726	1170		
o	30	c	1720	1121	1733	1135		
o	31	]	1728	1146	1733	1178		
o	32	u	1734	1121	1751	1135		
o	33	[	1741	1146	1745	1178		
o	34	j	1745	1149	1759	1176		
o	35	j	1749	1156	1757	1176		
o	36	t	1753	1115	1762	1135		
o	37	]	1762	1146	1766	1178		
o	38	=	1765	1123	1781	1131		
o	39	)	1772	1149	1779	1175		
o	40	T	1782	1114	1801	1135		
o	41	r	1801	1120	1811	1135		
o	42	u	1812	1121	1826	1135		
o	43	e	1828	1120	1840	1135		
R	44	HORIZONTAL	1	4	0	0		
R	45	HORIZONTAL	3	18	0	0		
R	46	HORIZONTAL	5	37	0	0		
R	47	RSUP	6	7	0	0		
R	48	HORIZONTAL	6	8	0	0		
R	49	HORIZONTAL	7	9	0	0		
R	50	HORIZONTAL	8	10	0	0		
R	51	HORIZONTAL	9	12	0	0		
R	52	HORIZONTAL	10	11	0	0		
R	53	HORIZONTAL	11	13	0	0		
R	54	HORIZONTAL	12	14	0	0		
R	55	HORIZONTAL	13	15	0	0		
R	56	PUNC	14	2	0	0		
R	57	HORIZONTAL	14	16	0	0		
R	58	HORIZONTAL	15	3	0	0		
R	59	HORIZONTAL	16	17	0	0		
R	60	HORIZONTAL	17	19	0	0		
R	61	HORIZONTAL	18	20	0	0		
R	62	HORIZONTAL	19	21	0	0		
R	63	HORIZONTAL	20	22	0	0		
R	64	HORIZONTAL	21	24	0	0		
R	65	HORIZONTAL	22	23	0	0		
R	66	PUNC	23	25	0	0		
R	67	HORIZONTAL	23	28	0	0		
R	68	HORIZONTAL	24	26	0	0		
R	69	HORIZONTAL	26	27	0	0		
R	70	HORIZONTAL	28	29	0	0		
R	71	HORIZONTAL	29	32	0	0		
R	72	UNDER	32	30	0	0		
R	73	UPPER	32	31	0	0		
R	74	HORIZONTAL	32	34	0	0		
R	75	HORIZONTAL	33	36	0	0		
R	76	HORIZONTAL	34	35	0	0		
R	77	HORIZONTAL	35	5	0	0		
R	78	UPPER	35	33	0	0		
R	79	HORIZONTAL	36	38	0	0		
R	80	HORIZONTAL	37	39	0	0		
R	81	HORIZONTAL	38	40	0	0		
R	82	HORIZONTAL	39	1	0	0		
R	83	HORIZONTAL	40	41	0	0		
R	84	HORIZONTAL	41	42	0	0		
R	85	HORIZONTAL	42	43	0	0		
MML	86	"<mrow>\n <msup>\n  <mi xml:id="7:8:9:">\n   n\n  </mi>\n  <mrow>\n   <mi xml:id="10:">\n    o\n   </mi>\n   <mi xml:id="12:">\n    d\n   </mi>\n   <mi xml:id="15:">\n    e\n   </mi>\n   <mi xml:id="17:">\n    n\n   </mi>\n   <mo xml:id="1:">\n    ,\n   </mo>\n   <mi xml:id="19:">\n    o\n   </mi>\n   <mi xml:id="20:">\n    s\n   </mi>\n   <mi xml:id="22:">\n    a\n   </mi>\n   <mi xml:id="24:">\n    m\n   </mi>\n   <mi xml:id="27:">\n    p\n   </mi>\n   <mi xml:id="29:">\n    l\n   </mi>\n   <mi xml:id="30:">\n    e\n   </mi>\n  </mrow>\n </msup>\n <mi xml:id="11:">\n  e\n </mi>\n <mi xml:id="13:">\n  (\n </mi>\n <mi xml:id="14:">\n  n\n </mi>\n <mi xml:id="16:">\n  e\n </mi>\n <mi xml:id="18:">\n  w\n </mi>\n <mi xml:id="2:">\n  j\n </mi>\n <mi xml:id="21:">\n  n\n </mi>\n <mi xml:id="23:">\n  o\n </mi>\n <mi xml:id="25:">\n  d\n </mi>\n <mi xml:id="26:">\n  e\n </mi>\n <mo xml:id="28:">\n  ,\n </mo>\n <mi xml:id="31:">\n  c\n </mi>\n <mi xml:id="32:">\n  [\n </mi>\n <munderover>\n  <mi xml:id="35:">\n   ]\n  </mi>\n  <mi xml:id="33:">\n   i\n  </mi>\n  <mi xml:id="34:">\n   c\n  </mi>\n </munderover>\n <mi xml:id="37:">\n  [\n </mi>\n <munder>\n  <mrow>\n   <mi xml:id="36:">\n    u\n   </mi>\n   <mi xml:id="39:">\n    t\n   </mi>\n   <mo xml:id="41:">\n    =\n   </mo>\n   <mi xml:id="43:">\n    T\n   </mi>\n   <mi xml:id="44:">\n    r\n   </mi>\n   <mi xml:id="45:">\n    u\n   </mi>\n   <mi xml:id="46:">\n    e\n   </mi>\n  </mrow>\n  <mi xml:id="38:">\n   j\n  </mi>\n </munder>\n <mi xml:id="5:6:">\n  j\n </mi>\n <mi xml:id="40:">\n  ]\n </mi>\n <mi xml:id="42:">\n  )\n </mi>\n <mo xml:id="0:">\n  ∑\n </mo>\n <mi xml:id="3:4:">\n  i\n </mi>\n</mrow>"	0	0	0	0		
FR	21	1159	1664	1221	1691
o	1	k	1159	1664	1177	1691		
o	2	-	1180	1681	1190	1683		
o	3	t	1192	1670	1202	1691		
o	4	h	1203	1665	1221	1691		
R	5	HORIZONTAL	1	2	0	0		
R	6	HORIZONTAL	2	3	0	0		
R	7	HORIZONTAL	3	4	0	0		
MML	8	"<mrow>\n <mi xml:id="0:">\n  k\n </mi>\n <mo xml:id="1:">\n  -\n </mo>\n <mi xml:id="2:">\n  t\n </mi>\n <mi xml:id="3:">\n  h\n </mi>\n</mrow>"	0	0	0	0		
FR	22	1684	1711	1866	1750
o	1	c	1684	1723	1699	1740		
o	2	[	1704	1711	1709	1750		
o	3	k	1712	1713	1730	1740		
o	4	]	1732	1711	1738	1750		
o	5	[	1747	1711	1752	1750		
o	6	k	1755	1713	1773	1740		
o	7	+	1789	1718	1814	1743		
o	8	1	1832	1714	1845	1740		
o	9	]	1849	1711	1854	1750		
o	10	.	1862	1736	1866	1740		
R	11	HORIZONTAL	1	2	0	0		
R	12	HORIZONTAL	2	3	0	0		
R	13	HORIZONTAL	3	4	0	0		
R	14	HORIZONTAL	4	5	0	0		
R	15	HORIZONTAL	5	6	0	0		
R	16	HORIZONTAL	6	7	0	0		
R	17	HORIZONTAL	7	8	0	0		
R	18	HORIZONTAL	8	9	0	0		
R	19	HORIZONTAL	9	10	0	0		
MML	20	"<mrow>\n <mi xml:id="0:">\n  c\n </mi>\n <mi xml:id="1:">\n  [\n </mi>\n <mi xml:id="2:">\n  k\n </mi>\n <mi xml:id="3:">\n  ]\n </mi>\n <mi xml:id="4:">\n  [\n </mi>\n <mi xml:id="5:">\n  k\n </mi>\n <mo xml:id="6:">\n  +\n </mo>\n <mn xml:id="7:">\n  1\n </mn>\n <mi xml:id="8:">\n  ]\n </mi>\n <mo xml:id="9:">\n  .\n </mo>\n</mrow>"	0	0	0	0		
FR	23	1094	2096	1272	2135
o	1	c	1094	2108	1109	2125		
o	2	[	1114	2096	1119	2135		
o	3	k	1122	2098	1140	2125		
o	4	]	1142	2096	1148	2135		
o	5	[	1157	2096	1162	2135		
o	6	k	1165	2098	1183	2125		
o	7	+	1197	2103	1222	2128		
o	8	1	1238	2099	1251	2125		
o	9	]	1255	2096	1260	2135		
o	10	.	1268	2121	1272	2125		
R	11	HORIZONTAL	1	2	0	0		
R	12	HORIZONTAL	2	3	0	0		
R	13	HORIZONTAL	3	4	0	0		
R	14	HORIZONTAL	4	5	0	0		
R	15	HORIZONTAL	5	6	0	0		
R	16	HORIZONTAL	6	7	0	0		
R	17	HORIZONTAL	7	8	0	0		
R	18	HORIZONTAL	8	9	0	0		
R	19	HORIZONTAL	9	10	0	0		
MML	20	"<mrow>\n <mi xml:id="0:">\n  c\n </mi>\n <mi xml:id="1:">\n  [\n </mi>\n <mi xml:id="2:">\n  k\n </mi>\n <mi xml:id="3:">\n  ]\n </mi>\n <mi xml:id="4:">\n  [\n </mi>\n <mi xml:id="5:">\n  k\n </mi>\n <mo xml:id="6:">\n  +\n </mo>\n <mn xml:id="7:">\n  1\n </mn>\n <mi xml:id="8:">\n  ]\n </mi>\n <mo xml:id="9:">\n  .\n </mo>\n</mrow>"	0	0	0	0		
FR	24	1537	2144	1720	2183
o	1	c	1537	2156	1552	2173		
o	2	[	1557	2144	1562	2183		
o	3	k	1565	2146	1583	2173		
o	4	]	1585	2144	1590	2183		
o	5	[	1600	2144	1605	2183		
o	6	k	1608	2146	1626	2173		
o	7	+	1642	2151	1668	2176		
o	8	1	1687	2147	1699	2173		
o	9	]	1703	2144	1709	2183		
o	10	.	1716	2169	1720	2173		
R	11	HORIZONTAL	1	2	0	0		
R	12	HORIZONTAL	2	3	0	0		
R	13	HORIZONTAL	3	4	0	0		
R	14	HORIZONTAL	4	5	0	0		
R	15	HORIZONTAL	5	6	0	0		
R	16	HORIZONTAL	6	7	0	0		
R	17	HORIZONTAL	7	8	0	0		
R	18	HORIZONTAL	8	9	0	0		
R	19	HORIZONTAL	9	10	0	0		
MML	20	"<mrow>\n <mi xml:id="0:">\n  c\n </mi>\n <mi xml:id="1:">\n  [\n </mi>\n <mi xml:id="2:">\n  k\n </mi>\n <mi xml:id="3:">\n  ]\n </mi>\n <mi xml:id="4:">\n  [\n </mi>\n <mi xml:id="5:">\n  k\n </mi>\n <mo xml:id="6:">\n  +\n </mo>\n <mn xml:id="7:">\n  1\n </mn>\n <mi xml:id="8:">\n  ]\n </mi>\n <mo xml:id="9:">\n  .\n </mo>\n</mrow>"	0	0	0	0		
FR	25	260	2202	453	2241
o	1	(	260	2202	269	2240		
o	2	[	276	2202	281	2241		
o	3	i	283	2205	293	2231		
o	4	k	297	2217	310	2237		
o	5	COMMA	317	2227	321	2238		
o	6	j	330	2205	346	2239		
o	7	k	348	2217	362	2237		
o	8	]	366	2202	371	2241		
o	9	COMMA	379	2227	383	2238		
o	10	f	395	2204	414	2239		
o	11	k	413	2217	427	2237		
o	12	)	432	2202	441	2240		
o	13	COMMA	448	2227	453	2238		
R	14	HORIZONTAL	1	2	0	0		
R	15	HORIZONTAL	2	3	0	0		
R	16	RSUB	3	4	0	0		
R	17	PUNC	3	5	0	0		
R	18	HORIZONTAL	3	6	0	0		
R	19	RSUB	6	7	0	0		
R	20	HORIZONTAL	6	8	0	0		
R	21	PUNC	8	9	0	0		
R	22	HORIZONTAL	8	10	0	0		
R	23	RSUB	10	11	0	0		
R	24	HORIZONTAL	10	12	0	0		
R	25	HORIZONTAL	12	13	0	0		
MML	26	"<mrow>\n <mi xml:id="0:">\n  (\n </mi>\n <mi xml:id="1:">\n  [\n </mi>\n <msub>\n  <mi xml:id="2:">\n   i\n  </mi>\n  <mi xml:id="3:">\n   k\n  </mi>\n </msub>\n <mo xml:id="4:">\n  ,\n </mo>\n <msub>\n  <mi xml:id="5:">\n   j\n  </mi>\n  <mi xml:id="6:">\n   k\n  </mi>\n </msub>\n <mi xml:id="7:">\n  ]\n </mi>\n <mo xml:id="8:">\n  ,\n </mo>\n <msub>\n  <mi xml:id="9:">\n   f\n  </mi>\n  <mi xml:id="10:">\n   k\n  </mi>\n </msub>\n <mi xml:id="11:">\n  )\n </mi>\n <mo xml:id="12:">\n  ,\n </mo>\n</mrow>"	0	0	0	0		
FR	26	464	2204	661	2238
o	1	k	464	2204	482	2231		
o	2	=	502	2217	528	2226		
o	3	1	550	2205	562	2231		
o	4	COMMA	569	2227	574	2238		
o	5	2	585	2205	600	2231		
o	6	COMMA	606	2227	610	2238		
o	7	.	623	2227	661	2231		
R	8	HORIZONTAL	1	2	0	0		
R	9	HORIZONTAL	2	3	0	0		
R	10	PUNC	3	4	0	0		
R	11	HORIZONTAL	3	5	0	0		
R	12	PUNC	5	6	0	0		
R	13	HORIZONTAL	6	7	0	0		
MML	14	"<mrow>\n <mi xml:id="0:">\n  k\n </mi>\n <mo xml:id="1:">\n  =\n </mo>\n <mn xml:id="2:">\n  1\n </mn>\n <mo xml:id="3:">\n  ,\n </mo>\n <mn xml:id="4:">\n  2\n </mn>\n <mo xml:id="5:">\n  ,\n </mo>\n <mo xml:id="6:7:8:">\n  .\n </mo>\n</mrow>"	0	0	0	0		
FR	27	506	2300	840	2334
o	1	k	506	2300	523	2327		
o	2	=	547	2313	572	2322		
o	3	1	598	2301	610	2327		
o	4	COMMA	617	2323	621	2334		
o	5	2	633	2301	648	2327		
o	6	COMMA	654	2323	658	2334		
o	7	.	671	2323	692	2327		
o	8	dot	705	2323	709	2327		
o	9	COMMA	723	2323	727	2334		
o	10	n	737	2310	758	2327		
o	11	−	774	2317	798	2318		
o	12	1	818	2301	840	2327		
R	13	HORIZONTAL	1	9	0	0		
R	14	HORIZONTAL	2	3	0	0		
R	15	HORIZONTAL	3	4	0	0		
R	16	PUNC	4	5	0	0		
R	17	HORIZONTAL	4	6	0	0		
R	18	PUNC	6	7	0	0		
R	19	HORIZONTAL	6	10	0	0		
R	20	HORIZONTAL	7	8	0	0		
R	21	HORIZONTAL	8	1	0	0		
R	22	HORIZONTAL	10	11	0	0		
R	23	HORIZONTAL	11	12	0	0		
MML	24	"<mrow>\n <mi xml:id="1:">\n  k\n </mi>\n <mo xml:id="2:">\n  =\n </mo>\n <mn xml:id="3:">\n  1\n </mn>\n <mo xml:id="4:">\n  ,\n </mo>\n <mn xml:id="5:">\n  2\n </mn>\n <mo xml:id="6:">\n  ,\n </mo>\n <mo xml:id="7:8:">\n  .\n </mo>\n <mo xml:id="0:">\n  .\n </mo>\n <mo xml:id="9:">\n  ,\n </mo>\n <mi xml:id="10:">\n  n\n </mi>\n <mi xml:id="11:">\n  −\n </mi>\n <mn xml:id="12:13:">\n  1\n </mn>\n</mrow>"	0	0	0	0		
FR	28	256	2301	425	2336
o	1	j	256	2301	271	2335		
o	2	k	273	2313	287	2333		
o	3	≤	312	2303	336	2332		
o	4	i	360	2301	370	2327		
o	5	k	374	2313	388	2333		
o	6	+	391	2316	410	2336		
o	7	1	415	2314	425	2333		
R	8	RSUB	1	2	0	0		
R	9	HORIZONTAL	1	3	0	0		
R	10	HORIZONTAL	3	4	0	0		
R	11	RSUB	4	5	0	0		
R	12	HORIZONTAL	5	6	0	0		
R	13	HORIZONTAL	6	7	0	0		
MML	14	"<mrow>\n <msub>\n  <mi xml:id="0:">\n   j\n  </mi>\n  <mi xml:id="1:">\n   k\n  </mi>\n </msub>\n <mi xml:id="2:">\n  ≤\n </mi>\n <msub>\n  <mi xml:id="3:">\n   i\n  </mi>\n  <mrow>\n   <mi xml:id="4:">\n    k\n   </mi>\n   <mo xml:id="5:">\n    +\n   </mo>\n   <mn xml:id="6:">\n    1\n   </mn>\n  </mrow>\n </msub>\n</mrow>"	0	0	0	0		
FR	29	1381	2301	1485	2325
o	1	n	1381	2301	1402	2318		
o	2	1	1406	2305	1416	2324		
o	3	V	1423	2314	1428	2319		
o	4	COMMA	1424	2320	1427	2325		
o	5	n	1438	2301	1459	2318		
o	6	2	1462	2305	1474	2324		
o	7	comma	1479	2314	1485	2323		
R	8	RSUB	3	4	0	0		
R	9	HORIZONTAL	3	6	0	0		
R	10	PUNC	4	5	0	0		
R	11	PUNC	5	1	0	0		
R	12	RSUB	6	7	0	0		
R	13	HORIZONTAL	7	2	0	0		
MML	14	"<mrow>\n <msub>\n  <mi xml:id="2:">\n   n\n  </mi>\n  <mrow>\n   <mn xml:id="3:">\n    1\n   </mn>\n   <mo xml:id="4:">\n    ,\n   </mo>\n   <mi xml:id="0:">\n    V\n   </mi>\n  </mrow>\n </msub>\n <msub>\n  <mi xml:id="5:">\n   n\n  </mi>\n  <mrow>\n   <mn xml:id="6:">\n    2\n   </mn>\n   <mo xml:id="1:">\n    ,\n   </mo>\n  </mrow>\n </msub>\n</mrow>"	0	0	0	0		
P	6	
FR	1	1386	229	1590	402
o	1	f	1386	229	1590	402		
o	2	d	1419	247	1559	347		
o	3	b	1425	323	1432	334		
o	4	w	1434	245	1443	252		
o	5	o	1434	326	1450	337		
o	6	a	1444	245	1450	252		
o	7	A	1444	278	1453	288		
o	8	z	1451	245	1457	252		
o	9	R	1454	278	1462	288		
o	10	equiv	1458	244	1461	252		
o	11	pi	1462	248	1466	249		
o	12	G	1463	278	1472	288		
o	13	i	1467	243	1473	252		
o	14	1	1476	243	1478	252		
o	15	R	1517	249	1535	259		
o	16	D	1537	249	1541	259		
o	17	R	1561	298	1568	308		
o	18	G	1570	298	1579	308		
o	19	1	1581	298	1584	308		
R	20	RSUB	1	2	0	0		
R	21	HORIZONTAL	1	5	0	0		
R	22	UNDER	1	8	0	0		
R	23	RSUP	1	16	0	0		
R	24	UNDER	2	9	0	0		
R	25	HORIZONTAL	3	4	0	0		
R	26	UPPER	5	6	0	0		
R	27	HORIZONTAL	6	15	0	0		
R	28	HORIZONTAL	8	10	0	0		
R	29	UNDER	9	11	0	0		
R	30	HORIZONTAL	11	3	0	0		
R	31	HORIZONTAL	12	1	0	0		
R	32	UNDER	13	12	0	0		
R	33	UPPER	13	14	0	0		
R	34	HORIZONTAL	14	17	0	0		
R	35	HORIZONTAL	16	7	0	0		
R	36	HORIZONTAL	17	18	0	0		
R	37	RSUB	18	19	0	0		
MML	38	"<munderover>\n <mi xml:id="13:">\n  R\n </mi>\n <mrow>\n  <mi xml:id="12:">\n   A\n  </mi>\n  <msup>\n   <msub>\n    <munder>\n     <mi xml:id="0:">\n      f\n     </mi>\n     <mrow>\n      <mi xml:id="7:">\n       b\n      </mi>\n      <mi xml:id="10:9:">\n       o\n      </mi>\n     </mrow>\n    </munder>\n    <munder>\n     <mi xml:id="1:">\n      d\n     </mi>\n     <munder>\n      <mi xml:id="8:">\n       w\n      </mi>\n      <mrow>\n       <mi xml:id="11:">\n        a\n       </mi>\n       <mi xml:id="2:">\n        z\n       </mi>\n       <mi xml:id="3:">\n        ≡\n       </mi>\n      </mrow>\n     </munder>\n    </munder>\n   </msub>\n   <mrow>\n    <mi xml:id="16:17:">\n     R\n    </mi>\n    <mi xml:id="6:">\n     D\n    </mi>\n   </mrow>\n  </msup>\n  <munder>\n   <mrow>\n    <mi xml:id="5:">\n     i\n    </mi>\n    <mn xml:id="15:">\n     1\n    </mn>\n   </mrow>\n   <mi xml:id="4:">\n    π\n   </mi>\n  </munder>\n </mrow>\n <mrow>\n  <mi xml:id="14:">\n   G\n  </mi>\n  <mi xml:id="18:">\n   R\n  </mi>\n  <msub>\n   <mi xml:id="19:">\n    G\n   </mi>\n   <mn xml:id="20:">\n    1\n   </mn>\n  </msub>\n </mrow>\n</munderover>"	0	0	0	0		
FR	2	1311	604	1418	702
o	1	langle	1311	604	1418	675		
o	2	w	1322	620	1327	626		
o	3	vert	1323	621	1385	668		
o	4	a	1328	619	1334	626		
o	5	n	1336	619	1341	626		
o	6	A	1338	638	1347	648		
o	7	t	1342	617	1345	626		
o	8	-	1347	622	1350	623		
o	9	R	1348	638	1356	648		
o	10	w	1350	694	1361	702		
o	11	0	1351	617	1357	626		
o	12	1	1360	617	1363	626		
o	13	a	1362	694	1370	702		
o	14	k	1367	638	1374	648		
o	15	n	1371	694	1378	702		
o	16	t	1379	691	1383	702		
o	17	s	1384	694	1391	702		
o	18	R	1386	627	1393	637		
o	19	G	1395	627	1404	637		
o	20	1	1406	627	1409	637		
o	21	1	1413	607	1417	619		
R	22	RSUB	1	7	0	0		
R	23	RSUP	1	8	0	0		
R	24	UNDER	1	11	0	0		
R	25	HORIZONTAL	1	17	0	0		
R	26	UPPER	1	21	0	0		
R	27	HORIZONTAL	2	1	0	0		
R	28	UPPER	2	5	0	0		
R	29	UPPER	3	13	0	0		
R	30	RSUP	3	18	0	0		
R	31	HORIZONTAL	4	2	0	0		
R	32	UPPER	7	6	0	0		
R	33	HORIZONTAL	7	10	0	0		
R	34	UPPER	8	9	0	0		
R	35	HORIZONTAL	10	3	0	0		
R	36	UPPER	10	12	0	0		
R	37	HORIZONTAL	11	14	0	0		
R	38	HORIZONTAL	14	15	0	0		
R	39	HORIZONTAL	15	16	0	0		
R	40	HORIZONTAL	18	19	0	0		
R	41	HORIZONTAL	19	20	0	0		
MML	42	"<mrow>\n <mi xml:id="3:">\n  w\n </mi>\n <munder>\n  <mi xml:id="4:">\n   a\n  </mi>\n  <mo xml:id="1:">\n   |\n  </mo>\n </munder>\n <msup>\n  <msub>\n   <munderover>\n    <mi xml:id="0:">\n     &amp;langle\n    </mi>\n    <mrow>\n     <mi xml:id="10:">\n      w\n     </mi>\n     <mi xml:id="13:">\n      a\n     </mi>\n     <mi xml:id="14:">\n      n\n     </mi>\n     <mi xml:id="15:">\n      t\n     </mi>\n    </mrow>\n    <mn xml:id="20:">\n     1\n    </mn>\n   </munderover>\n   <mrow>\n    <munder>\n     <mi xml:id="5:">\n      n\n     </mi>\n     <mi xml:id="6:">\n      A\n     </mi>\n    </munder>\n    <munder>\n     <mn xml:id="11:">\n      0\n     </mn>\n     <mi xml:id="9:">\n      R\n     </mi>\n    </munder>\n    <msup>\n     <munder>\n      <mn xml:id="12:">\n       1\n      </mn>\n      <mi xml:id="2:">\n       k\n      </mi>\n     </munder>\n     <mrow>\n      <mi xml:id="17:">\n       R\n      </mi>\n      <mi xml:id="18:">\n       G\n      </mi>\n      <mn xml:id="19:">\n       1\n      </mn>\n     </mrow>\n    </msup>\n   </mrow>\n  </msub>\n  <munder>\n   <mo xml:id="8:">\n    -\n   </mo>\n   <mi xml:id="7:">\n    t\n   </mi>\n  </munder>\n </msup>\n <mi xml:id="16:">\n  s\n </mi>\n</mrow>"	0	0	0	0		
FR	3	1213	1477	1746	1570
o	1	P	1213	1488	1240	1514		
o	2	t	1237	1501	1246	1519		
o	3	(	1253	1485	1261	1523		
o	4	Y	1265	1488	1293	1514		
o	5	=	1308	1500	1334	1509		
o	6	y	1348	1497	1365	1522		
o	7	COMMA	1370	1510	1375	1521		
o	8	Z	1387	1488	1412	1514		
o	9	=	1427	1500	1452	1509		
o	10	z	1467	1497	1483	1514		
o	11	)	1487	1485	1496	1523		
o	12	∝	1512	1497	1538	1514		
o	13	r	1553	1551	1565	1563		
o	14	∈	1569	1547	1583	1565		
o	15	∏	1586	1477	1631	1531		
o	16	τ	1587	1551	1602	1563		
o	17	(	1606	1542	1613	1570		
o	18	y	1615	1551	1629	1569		
o	19	COMMA	1633	1560	1637	1568		
o	20	z	1640	1551	1652	1563		
o	21	)	1656	1542	1663	1570		
o	22	w	1673	1497	1699	1514		
o	23	(	1705	1485	1714	1523		
o	24	r	1717	1497	1733	1514		
o	25	)	1737	1485	1746	1524		
R	26	RSUB	1	2	0	0		
R	27	HORIZONTAL	1	3	0	0		
R	28	HORIZONTAL	3	4	0	0		
R	29	HORIZONTAL	4	5	0	0		
R	30	HORIZONTAL	5	6	0	0		
R	31	RSUB	6	7	0	0		
R	32	HORIZONTAL	6	8	0	0		
R	33	HORIZONTAL	8	9	0	0		
R	34	HORIZONTAL	9	10	0	0		
R	35	HORIZONTAL	10	11	0	0		
R	36	HORIZONTAL	11	12	0	0		
R	37	HORIZONTAL	12	15	0	0		
R	38	HORIZONTAL	13	14	0	0		
R	39	HORIZONTAL	14	16	0	0		
R	40	UNDER	15	13	0	0		
R	41	HORIZONTAL	15	22	0	0		
R	42	HORIZONTAL	16	17	0	0		
R	43	HORIZONTAL	17	18	0	0		
R	44	RSUB	18	19	0	0		
R	45	HORIZONTAL	18	21	0	0		
R	46	HORIZONTAL	19	20	0	0		
R	47	HORIZONTAL	22	23	0	0		
R	48	HORIZONTAL	23	24	0	0		
R	49	HORIZONTAL	24	25	0	0		
MML	50	"<mrow>\n <msub>\n  <mi xml:id="0:">\n   P\n  </mi>\n  <mi xml:id="1:">\n   t\n  </mi>\n </msub>\n <mi xml:id="2:">\n  (\n </mi>\n <mi xml:id="3:">\n  Y\n </mi>\n <mo xml:id="4:">\n  =\n </mo>\n <msub>\n  <mi xml:id="5:">\n   y\n  </mi>\n  <mo xml:id="6:">\n   ,\n  </mo>\n </msub>\n <mi xml:id="7:">\n  Z\n </mi>\n <mo xml:id="8:">\n  =\n </mo>\n <mi xml:id="9:">\n  z\n </mi>\n <mi xml:id="10:">\n  )\n </mi>\n <mi xml:id="11:">\n  ∝\n </mi>\n <munder>\n  <mi xml:id="14:">\n   ∏\n  </mi>\n  <mrow>\n   <mi xml:id="12:">\n    r\n   </mi>\n   <mi xml:id="13:">\n    ∈\n   </mi>\n   <mi xml:id="15:">\n    τ\n   </mi>\n   <mi xml:id="16:">\n    (\n   </mi>\n   <msub>\n    <mi xml:id="17:">\n     y\n    </mi>\n    <mrow>\n     <mo xml:id="18:">\n      ,\n     </mo>\n     <mi xml:id="19:">\n      z\n     </mi>\n    </mrow>\n   </msub>\n   <mi xml:id="20:">\n    )\n   </mi>\n  </mrow>\n </munder>\n <mi xml:id="21:">\n  w\n </mi>\n <mi xml:id="22:">\n  (\n </mi>\n <mi xml:id="23:">\n  r\n </mi>\n <mi xml:id="24:">\n  )\n </mi>\n</mrow>"	0	0	0	0		
FR	4	1201	1621	1305	1660
o	1	τ	1201	1633	1220	1650		
o	2	(	1225	1621	1234	1660		
o	3	y	1238	1633	1255	1658		
o	4	COMMA	1260	1646	1265	1657		
o	5	z	1276	1633	1292	1650		
o	6	)	1296	1621	1305	1660		
R	7	HORIZONTAL	1	2	0	0		
R	8	HORIZONTAL	2	3	0	0		
R	9	PUNC	3	4	0	0		
R	10	HORIZONTAL	3	5	0	0		
R	11	HORIZONTAL	5	6	0	0		
MML	12	"<mrow>\n <mi xml:id="0:">\n  τ\n </mi>\n <mi xml:id="1:">\n  (\n </mi>\n <mi xml:id="2:">\n  y\n </mi>\n <mo xml:id="3:">\n  ,\n </mo>\n <mi xml:id="4:">\n  z\n </mi>\n <mi xml:id="5:">\n  )\n </mi>\n</mrow>"	0	0	0	0		
FR	5	1349	1669	1421	1707
o	1	w	1349	1681	1375	1698		
o	2	(	1381	1669	1389	1707		
o	3	r	1393	1681	1409	1698		
o	4	)	1413	1669	1421	1707		
R	5	HORIZONTAL	1	2	0	0		
R	6	HORIZONTAL	2	3	0	0		
R	7	HORIZONTAL	3	4	0	0		
MML	8	"<mrow>\n <mi xml:id="0:">\n  w\n </mi>\n <mi xml:id="1:">\n  (\n </mi>\n <mi xml:id="2:">\n  r\n </mi>\n <mi xml:id="3:">\n  )\n </mi>\n</mrow>"	0	0	0	0		
FR	6	1299	1953	1660	1992
o	1	G	1299	1955	1326	1983		
o	2	|	1343	1953	1344	1992		
o	3	α	1361	1965	1383	1982		
o	4	comma	1388	1978	1598	1983		
o	5	COMMA	1389	1984	1392	1989		
o	6	P	1404	1956	1431	1982		
o	7	0	1428	1969	1441	1989		
o	8	∼	1456	1968	1482	1977		
o	9	D	1486	1956	1516	1982		
o	10	i	1519	1956	1529	1982		
o	11	r	1532	1965	1548	1982		
o	12	(	1554	1953	1562	1991		
o	13	α	1567	1965	1588	1982		
o	14	COMMA	1594	1984	1597	1989		
o	15	P	1609	1956	1636	1982		
o	16	0	1633	1969	1646	1989		
o	17	)	1651	1953	1660	1992		
R	18	HORIZONTAL	1	5	0	0		
R	19	HORIZONTAL	2	3	0	0		
R	20	HORIZONTAL	3	4	0	0		
R	21	PUNC	4	1	0	0		
R	22	HORIZONTAL	4	6	0	0		
R	23	RSUB	6	7	0	0		
R	24	HORIZONTAL	6	8	0	0		
R	25	HORIZONTAL	8	9	0	0		
R	26	HORIZONTAL	9	10	0	0		
R	27	HORIZONTAL	10	11	0	0		
R	28	HORIZONTAL	11	12	0	0		
R	29	HORIZONTAL	12	13	0	0		
R	30	PUNC	13	14	0	0		
R	31	HORIZONTAL	13	15	0	0		
R	32	RSUB	15	16	0	0		
R	33	HORIZONTAL	15	17	0	0		
MML	34	"<mrow>\n <mi xml:id="2:">\n  G\n </mi>\n <mo xml:id="3:">\n  |\n </mo>\n <mi xml:id="4:">\n  α\n </mi>\n <mo xml:id="0:1:">\n  ,\n </mo>\n <mo xml:id="5:">\n  ,\n </mo>\n <msub>\n  <mi xml:id="6:">\n   P\n  </mi>\n  <mn xml:id="7:">\n   0\n  </mn>\n </msub>\n <mi xml:id="8:">\n  ∼\n </mi>\n <mi xml:id="9:">\n  D\n </mi>\n <mi xml:id="10:">\n  i\n </mi>\n <mi xml:id="11:">\n  r\n </mi>\n <mi xml:id="12:">\n  (\n </mi>\n <mi xml:id="13:">\n  α\n </mi>\n <mo xml:id="14:">\n  ,\n </mo>\n <msub>\n  <mi xml:id="15:">\n   P\n  </mi>\n  <mn xml:id="16:">\n   0\n  </mn>\n </msub>\n <mi xml:id="17:">\n  )\n </mi>\n</mrow>"	0	0	0	0		
FR	7	1363	2012	1514	2051
o	1	r	1363	2024	1379	2041		
o	2	|	1396	2012	1397	2051		
o	3	G	1415	2014	1443	2042		
o	4	∼	1456	2027	1482	2036		
o	5	G	1487	2014	1514	2042		
R	6	HORIZONTAL	1	2	0	0		
R	7	HORIZONTAL	2	3	0	0		
R	8	HORIZONTAL	3	4	0	0		
R	9	HORIZONTAL	4	5	0	0		
MML	10	"<mrow>\n <mi xml:id="0:">\n  r\n </mi>\n <mo xml:id="1:">\n  |\n </mo>\n <mi xml:id="2:">\n  G\n </mi>\n <mi xml:id="3:">\n  ∼\n </mi>\n <mi xml:id="4:">\n  G\n </mi>\n</mrow>"	0	0	0	0		
FR	8	1611	2253	1659	2286
o	1	P	1611	2253	1639	2279		
o	2	0	1636	2266	1648	2286		
o	3	semicolon	1653	2275	1659	2284		
R	4	PUNC	2	1	0	0		
R	5	RSUB	2	3	0	0		
MML	6	"<mrow>\n <msub>\n  <mi xml:id="1:">\n   P\n  </mi>\n  <mn xml:id="2:">\n   0\n  </mn>\n </msub>\n <mi xml:id="0:">\n  ;\n </mi>\n</mrow>"	0	0	0	0		
FR	9	1789	2494	1866	2520
o	1	N	1789	2494	1866	2520		
MML	2	"<mi xml:id="0:1:">\n N\n</mi>"	0	0	0	0		
FR	10	1095	2539	1245	2578
o	1	{	1095	2539	1108	2578		
o	2	N	1113	2542	1146	2568		
o	3	C	1145	2554	1165	2575		
o	4	}	1171	2539	1184	2578		
o	5	C	1189	2554	1210	2575		
o	6	∈	1214	2558	1228	2576		
o	7	I	1233	2555	1245	2574		
R	8	HORIZONTAL	1	2	0	0		
R	9	RSUB	2	3	0	0		
R	10	HORIZONTAL	2	4	0	0		
R	11	HORIZONTAL	4	5	0	0		
R	12	HORIZONTAL	5	6	0	0		
R	13	HORIZONTAL	6	7	0	0		
MML	14	"<mrow>\n <mi xml:id="0:">\n  {\n </mi>\n <msub>\n  <mi xml:id="1:">\n   N\n  </mi>\n  <mi xml:id="2:">\n   C\n  </mi>\n </msub>\n <mi xml:id="3:">\n  }\n </mi>\n <mi xml:id="4:">\n  C\n </mi>\n <mi xml:id="5:">\n  ∈\n </mi>\n <mi xml:id="6:">\n  I\n </mi>\n</mrow>"	0	0	0	0		
P	7	
FR	1	379	362	907	447
o	1	P	379	391	406	417		
o	2	(	411	388	420	427		
o	3	r	423	400	439	417		
o	4	i	441	404	449	423		
o	5	=	465	403	490	412		
o	6	r	505	400	520	417		
o	7	|	527	388	528	427		
o	8	N	534	391	567	417		
o	9	)	571	388	579	426		
o	10	=	596	403	622	412		
o	11	minus	639	407	907	409		
o	12	N	641	365	673	391		
o	13	R	672	378	693	398		
o	14	(	699	362	708	400		
o	15	r	711	374	727	391		
o	16	n	726	427	747	444		
o	17	)	731	362	740	401		
o	18	+	755	369	780	394		
o	19	+	759	422	785	447		
o	20	α	793	374	815	391		
o	21	α	797	427	819	444		
o	22	P	818	365	845	391		
o	23	0	842	378	855	398		
o	24	(	862	362	871	400		
o	25	r	874	374	890	391		
o	26	)	894	362	903	400		
R	27	UPPER	1	12	0	0		
R	28	UNDER	1	16	0	0		
R	29	HORIZONTAL	2	3	0	0		
R	30	HORIZONTAL	3	4	0	0		
R	31	RSUB	4	5	0	0		
R	32	HORIZONTAL	4	6	0	0		
R	33	HORIZONTAL	6	7	0	0		
R	34	HORIZONTAL	7	8	0	0		
R	35	HORIZONTAL	8	9	0	0		
R	36	HORIZONTAL	9	10	0	0		
R	37	HORIZONTAL	10	11	0	0		
R	38	HORIZONTAL	11	1	0	0		
R	39	RSUB	12	13	0	0		
R	40	HORIZONTAL	13	14	0	0		
R	41	HORIZONTAL	14	15	0	0		
R	42	HORIZONTAL	15	17	0	0		
R	43	HORIZONTAL	16	19	0	0		
R	44	HORIZONTAL	17	18	0	0		
R	45	HORIZONTAL	18	20	0	0		
R	46	HORIZONTAL	19	21	0	0		
R	47	HORIZONTAL	20	22	0	0		
R	48	RSUB	22	23	0	0		
R	49	HORIZONTAL	23	24	0	0		
R	50	HORIZONTAL	24	25	0	0		
R	51	HORIZONTAL	25	26	0	0		
MML	52	"<mrow>\n <mi xml:id="1:">\n  P\n </mi>\n <mi xml:id="2:">\n  (\n </mi>\n <msub>\n  <mi xml:id="3:">\n   r\n  </mi>\n  <mi xml:id="4:">\n   i\n  </mi>\n </msub>\n <mo xml:id="5:">\n  =\n </mo>\n <mi xml:id="6:">\n  r\n </mi>\n <mo xml:id="7:">\n  |\n </mo>\n <mi xml:id="8:">\n  N\n </mi>\n <mi xml:id="9:">\n  )\n </mi>\n <mo xml:id="10:">\n  =\n </mo>\n <mfrac xml:id="0:">\n  <msub>\n   <mi xml:id="11:">\n    N\n   </mi>\n   <mrow>\n    <mi xml:id="12:">\n     R\n    </mi>\n    <mi xml:id="13:">\n     (\n    </mi>\n    <mi xml:id="14:">\n     r\n    </mi>\n    <mi xml:id="16:">\n     )\n    </mi>\n    <mo xml:id="17:">\n     +\n    </mo>\n    <mi xml:id="19:">\n     α\n    </mi>\n    <msub>\n     <mi xml:id="21:">\n      P\n     </mi>\n     <mrow>\n      <mn xml:id="22:">\n       0\n      </mn>\n      <mi xml:id="23:">\n       (\n      </mi>\n      <mi xml:id="24:">\n       r\n      </mi>\n      <mi xml:id="25:">\n       )\n      </mi>\n     </mrow>\n    </msub>\n   </mrow>\n  </msub>\n  <mrow>\n   <mi xml:id="15:">\n    n\n   </mi>\n   <mo xml:id="18:">\n    +\n   </mo>\n   <mi xml:id="20:">\n    α\n   </mi>\n  </mrow>\n </mfrac>\n</mrow>"	0	0	0	0		
FR	2	628	490	783	529
o	1	I	628	493	645	519		
o	2	=	664	505	690	514		
o	3	{	710	490	723	529		
o	4	R	728	493	756	520		
o	5	}	759	490	772	529		
o	6	COMMA	778	515	783	524		
R	7	HORIZONTAL	1	2	0	0		
R	8	HORIZONTAL	2	3	0	0		
R	9	HORIZONTAL	3	4	0	0		
R	10	HORIZONTAL	4	5	0	0		
R	11	PUNC	5	6	0	0		
MML	12	"<mrow>\n <mi xml:id="0:">\n  I\n </mi>\n <mo xml:id="1:">\n  =\n </mo>\n <mi xml:id="2:">\n  {\n </mi>\n <mi xml:id="3:">\n  R\n </mi>\n <mi xml:id="4:">\n  }\n </mi>\n <mo xml:id="5:">\n  ,\n </mo>\n</mrow>"	0	0	0	0		
FR	3	257	840	286	863
o	1	r	257	840	286	863		
MML	2	"<mi xml:id="0:1:">\n r\n</mi>"	0	0	0	0		
FR	4	840	1065	1030	1135
o	1	i	840	1065	847	1086		
o	2	o	840	1121	854	1135		
o	3	f	848	1065	859	1086		
o	4	t	855	1118	863	1135		
o	5	h	864	1114	878	1135		
o	6	z	867	1072	880	1086		
o	7	e	880	1075	912	1135		
o	8	r	893	1121	903	1135		
o	9	w	904	1121	924	1135		
o	10	0	924	1065	937	1087		
o	11	i	926	1114	932	1135		
o	12	s	935	1121	944	1135		
o	13	e	947	1121	959	1135		
o	14	(	989	1084	998	1116		
o	15	3	1002	1084	1016	1111		
o	16	)	1020	1084	1030	1117		
R	17	HORIZONTAL	1	3	0	0		
R	18	HORIZONTAL	2	4	0	0		
R	19	RSUB	3	2	0	0		
R	20	HORIZONTAL	3	6	0	0		
R	21	HORIZONTAL	4	5	0	0		
R	22	HORIZONTAL	5	11	0	0		
R	23	HORIZONTAL	6	7	0	0		
R	24	RSUB	7	8	0	0		
R	25	HORIZONTAL	7	10	0	0		
R	26	HORIZONTAL	8	9	0	0		
R	27	HORIZONTAL	9	12	0	0		
R	28	HORIZONTAL	10	14	0	0		
R	29	HORIZONTAL	11	13	0	0		
R	30	HORIZONTAL	14	15	0	0		
R	31	HORIZONTAL	15	16	0	0		
MML	32	"<mrow>\n <mi xml:id="0:">\n  i\n </mi>\n <msub>\n  <mi xml:id="2:">\n   f\n  </mi>\n  <mrow>\n   <mi xml:id="1:">\n    o\n   </mi>\n   <mi xml:id="3:">\n    t\n   </mi>\n   <mi xml:id="4:">\n    h\n   </mi>\n   <mi xml:id="11:">\n    i\n   </mi>\n   <mi xml:id="13:">\n    e\n   </mi>\n  </mrow>\n </msub>\n <mi xml:id="5:">\n  z\n </mi>\n <msub>\n  <mi xml:id="6:7:">\n   e\n  </mi>\n  <mrow>\n   <mi xml:id="8:">\n    r\n   </mi>\n   <mi xml:id="9:">\n    w\n   </mi>\n   <mi xml:id="12:">\n    s\n   </mi>\n  </mrow>\n </msub>\n <mn xml:id="10:">\n  0\n </mn>\n <mi xml:id="14:">\n  (\n </mi>\n <mn xml:id="15:">\n  3\n </mn>\n <mi xml:id="16:">\n  )\n </mi>\n</mrow>"	0	0	0	0		
FR	5	739	1195	870	1234
o	1	P	739	1198	767	1224		
o	2	(	772	1195	781	1233		
o	3	r	784	1207	800	1224		
o	4	i	802	1211	810	1230		
o	5	|	817	1195	818	1234		
o	6	N	825	1198	857	1224		
o	7	)	861	1195	870	1233		
R	8	HORIZONTAL	1	2	0	0		
R	9	HORIZONTAL	2	3	0	0		
R	10	RSUB	3	4	0	0		
R	11	HORIZONTAL	3	5	0	0		
R	12	HORIZONTAL	5	6	0	0		
R	13	HORIZONTAL	6	7	0	0		
MML	14	"<mrow>\n <mi xml:id="0:">\n  P\n </mi>\n <mi xml:id="1:">\n  (\n </mi>\n <msub>\n  <mi xml:id="2:">\n   r\n  </mi>\n  <mi xml:id="3:">\n   i\n  </mi>\n </msub>\n <mo xml:id="4:">\n  |\n </mo>\n <mi xml:id="5:">\n  N\n </mi>\n <mi xml:id="6:">\n  )\n </mi>\n</mrow>"	0	0	0	0		
FR	6	515	1246	598	1279
o	1	N	515	1246	547	1272		
o	2	COMMA	550	1268	554	1279		
o	3	N	565	1246	598	1272		
R	4	PUNC	1	2	0	0		
R	5	HORIZONTAL	1	3	0	0		
MML	6	"<mrow>\n <mi xml:id="0:">\n  N\n </mi>\n <mo xml:id="1:">\n  ,\n </mo>\n <mi xml:id="2:">\n  N\n </mi>\n</mrow>"	0	0	0	0		
FR	7	376	1291	534	1327
o	1	D	376	1294	402	1320		
o	2	P	404	1294	424	1320		
o	3	comma	422	1316	428	1325		
o	4	N	442	1294	474	1320		
o	5	COMMA	477	1316	481	1327		
o	6	N	492	1294	524	1320		
o	7	′	527	1291	534	1305		
R	8	HORIZONTAL	2	3	0	0		
R	9	PUNC	3	1	0	0		
R	10	HORIZONTAL	3	4	0	0		
R	11	PUNC	4	5	0	0		
R	12	HORIZONTAL	4	6	0	0		
R	13	RSUP	6	7	0	0		
MML	14	"<mrow>\n <mi xml:id="1:">\n  D\n </mi>\n <mi xml:id="2:">\n  P\n </mi>\n <mo xml:id="0:">\n  ,\n </mo>\n <mi xml:id="3:">\n  N\n </mi>\n <mo xml:id="4:">\n  ,\n </mo>\n <msup>\n  <mi xml:id="5:">\n   N\n  </mi>\n  <mi xml:id="6:">\n   ′\n  </mi>\n </msup>\n</mrow>"	0	0	0	0		
FR	8	416	1340	780	1381
o	1	N	416	1343	448	1369		
o	2	R	447	1361	468	1381		
o	3	′	450	1340	457	1354		
o	4	(	474	1340	482	1378		
o	5	r	486	1352	502	1369		
o	6	2	504	1355	516	1374		
o	7	)	522	1340	530	1378		
o	8	=	547	1355	573	1364		
o	9	N	588	1343	620	1369		
o	10	R	619	1356	640	1376		
o	11	(	646	1340	654	1378		
o	12	r	658	1352	674	1369		
o	13	2	676	1355	688	1374		
o	14	)	694	1340	702	1378		
o	15	+	717	1347	743	1372		
o	16	1	757	1343	780	1369		
R	17	RSUB	1	2	0	0		
R	18	RSUP	1	3	0	0		
R	19	HORIZONTAL	1	4	0	0		
R	20	HORIZONTAL	4	5	0	0		
R	21	RSUB	5	6	0	0		
R	22	HORIZONTAL	5	7	0	0		
R	23	HORIZONTAL	7	8	0	0		
R	24	HORIZONTAL	8	9	0	0		
R	25	RSUB	9	10	0	0		
R	26	HORIZONTAL	10	11	0	0		
R	27	HORIZONTAL	11	12	0	0		
R	28	RSUB	12	13	0	0		
R	29	HORIZONTAL	12	14	0	0		
R	30	HORIZONTAL	14	15	0	0		
R	31	HORIZONTAL	15	16	0	0		
MML	32	"<mrow>\n <msubsup>\n  <mi xml:id="0:">\n   N\n  </mi>\n  <mi xml:id="1:">\n   R\n  </mi>\n  <mi xml:id="2:">\n   ′\n  </mi>\n </msubsup>\n <mi xml:id="3:">\n  (\n </mi>\n <msub>\n  <mi xml:id="4:">\n   r\n  </mi>\n  <mn xml:id="5:">\n   2\n  </mn>\n </msub>\n <mi xml:id="6:">\n  )\n </mi>\n <mo xml:id="7:">\n  =\n </mo>\n <msub>\n  <mi xml:id="8:">\n   N\n  </mi>\n  <mrow>\n   <mi xml:id="9:">\n    R\n   </mi>\n   <mi xml:id="10:">\n    (\n   </mi>\n   <msub>\n    <mi xml:id="11:">\n     r\n    </mi>\n    <mn xml:id="12:">\n     2\n    </mn>\n   </msub>\n   <mi xml:id="13:">\n    )\n   </mi>\n   <mo xml:id="14:">\n    +\n   </mo>\n   <mn xml:id="15:16:">\n    1\n   </mn>\n  </mrow>\n </msub>\n</mrow>"	0	0	0	0		
FR	9	257	1352	298	1374
o	1	r	257	1352	273	1369		
o	2	2	275	1355	287	1374		
o	3	COMMA	292	1365	298	1374		
R	4	RSUB	1	2	0	0		
R	5	HORIZONTAL	2	3	0	0		
MML	6	"<msub>\n <mi xml:id="0:">\n  r\n </mi>\n <mrow>\n  <mn xml:id="1:">\n   2\n  </mn>\n  <mo xml:id="2:">\n   ,\n  </mo>\n </mrow>\n</msub>"	0	0	0	0		
FR	10	497	1533	707	1572
o	1	{	497	1533	510	1572		
o	2	r	515	1545	531	1562		
o	3	1	534	1548	544	1567		
o	4	COMMA	552	1558	556	1569		
o	5	.	569	1558	608	1562		
o	6	COMMA	621	1558	625	1569		
o	7	r	636	1545	652	1562		
o	8	m	653	1555	678	1567		
o	9	}	683	1533	707	1572		
R	10	HORIZONTAL	1	2	0	0		
R	11	RSUB	2	3	0	0		
R	12	HORIZONTAL	2	7	0	0		
R	13	PUNC	3	4	0	0		
R	14	HORIZONTAL	4	5	0	0		
R	15	HORIZONTAL	5	6	0	0		
R	16	RSUB	7	8	0	0		
R	17	HORIZONTAL	8	9	0	0		
MML	18	"<mrow>\n <mi xml:id="0:">\n  {\n </mi>\n <msub>\n  <mi xml:id="1:">\n   r\n  </mi>\n  <mrow>\n   <mn xml:id="2:">\n    1\n   </mn>\n   <mo xml:id="3:">\n    ,\n   </mo>\n   <mo xml:id="4:5:6:">\n    .\n   </mo>\n   <mo xml:id="7:">\n    ,\n   </mo>\n  </mrow>\n </msub>\n <msub>\n  <mi xml:id="8:">\n   r\n  </mi>\n  <mrow>\n   <mi xml:id="9:">\n    m\n   </mi>\n   <mi xml:id="10:11:">\n    }\n   </mi>\n  </mrow>\n </msub>\n</mrow>"	0	0	0	0		
FR	11	361	1816	461	1854
o	1	d	361	1819	378	1845		
o	2	e	380	1827	395	1845		
o	3	g	397	1827	414	1853		
o	4	(	419	1816	428	1854		
o	5	v	431	1828	448	1845		
o	6	)	453	1816	461	1854		
R	7	HORIZONTAL	1	2	0	0		
R	8	HORIZONTAL	2	3	0	0		
R	9	HORIZONTAL	3	4	0	0		
R	10	HORIZONTAL	4	5	0	0		
R	11	HORIZONTAL	5	6	0	0		
MML	12	"<mrow>\n <mi xml:id="0:">\n  d\n </mi>\n <mi xml:id="1:">\n  e\n </mi>\n <mi xml:id="2:">\n  g\n </mi>\n <mi xml:id="3:">\n  (\n </mi>\n <mi xml:id="4:">\n  v\n </mi>\n <mi xml:id="5:">\n  )\n </mi>\n</mrow>"	0	0	0	0		
FR	12	479	1912	543	1950
o	1	τ	479	1924	497	1941		
o	2	(	503	1912	511	1950		
o	3	e	516	1924	530	1941		
o	4	)	534	1912	543	1950		
R	5	HORIZONTAL	1	2	0	0		
R	6	HORIZONTAL	2	3	0	0		
R	7	HORIZONTAL	3	4	0	0		
MML	8	"<mrow>\n <mi xml:id="0:">\n  τ\n </mi>\n <mi xml:id="1:">\n  (\n </mi>\n <mi xml:id="2:">\n  e\n </mi>\n <mi xml:id="3:">\n  )\n </mi>\n</mrow>"	0	0	0	0		
FR	13	312	1972	422	1995
o	1	e	312	1972	327	1989		
o	2	i	329	1983	337	1995		
o	3	i	334	1976	337	1979		
o	4	=	356	1975	382	1984		
o	5	e	399	1972	414	1989		
o	6	.	418	1985	422	1989		
R	7	RSUB	2	3	0	0		
R	8	HORIZONTAL	2	4	0	0		
R	9	HORIZONTAL	3	1	0	0		
R	10	HORIZONTAL	4	5	0	0		
R	11	HORIZONTAL	5	6	0	0		
MML	12	"<mrow>\n <msub>\n  <mi xml:id="1:">\n   e\n  </mi>\n  <mrow>\n   <mi xml:id="2:">\n    i\n   </mi>\n   <mi xml:id="0:">\n    i\n   </mi>\n  </mrow>\n </msub>\n <mo xml:id="3:">\n  =\n </mo>\n <mi xml:id="4:">\n  e\n </mi>\n <mo xml:id="5:">\n  .\n </mo>\n</mrow>"	0	0	0	0		
FR	14	258	2002	807	2051
o	1	N	258	2012	290	2038		
o	2	0	292	2004	305	2024		
o	3	=	324	2024	350	2033		
o	4	N	367	2012	400	2038		
o	5	COMMA	403	2034	409	2043		
o	6	N	424	2012	456	2038		
o	7	R	455	2030	476	2050		
o	8	i	459	2004	467	2023		
o	9	(	482	2009	491	2048		
o	10	r	494	2021	510	2038		
o	11	i	512	2024	520	2043		
o	12	)	525	2009	534	2048		
o	13	=	554	2024	579	2033		
o	14	N	597	2012	629	2038		
o	15	R	628	2031	649	2051		
o	16	i	632	2002	640	2021		
o	17	−	644	2013	661	2015		
o	18	1	667	2002	677	2021		
o	19	(	685	2009	694	2048		
o	20	r	698	2021	713	2038		
o	21	i	715	2024	723	2043		
o	22	)	728	2009	737	2047		
o	23	+	753	2016	779	2041		
o	24	1	794	2012	807	2038		
R	25	RSUP	1	2	0	0		
R	26	HORIZONTAL	1	3	0	0		
R	27	HORIZONTAL	3	4	0	0		
R	28	PUNC	4	5	0	0		
R	29	HORIZONTAL	4	6	0	0		
R	30	RSUB	6	7	0	0		
R	31	RSUP	6	8	0	0		
R	32	HORIZONTAL	6	9	0	0		
R	33	HORIZONTAL	9	10	0	0		
R	34	RSUB	10	11	0	0		
R	35	HORIZONTAL	10	12	0	0		
R	36	HORIZONTAL	12	13	0	0		
R	37	HORIZONTAL	13	14	0	0		
R	38	RSUB	14	15	0	0		
R	39	RSUP	14	16	0	0		
R	40	HORIZONTAL	14	19	0	0		
R	41	HORIZONTAL	16	17	0	0		
R	42	HORIZONTAL	17	18	0	0		
R	43	HORIZONTAL	19	20	0	0		
R	44	RSUB	20	21	0	0		
R	45	HORIZONTAL	20	22	0	0		
R	46	HORIZONTAL	22	23	0	0		
R	47	HORIZONTAL	23	24	0	0		
MML	48	"<mrow>\n <msup>\n  <mi xml:id="0:">\n   N\n  </mi>\n  <mn xml:id="1:">\n   0\n  </mn>\n </msup>\n <mo xml:id="2:">\n  =\n </mo>\n <mi xml:id="3:">\n  N\n </mi>\n <mo xml:id="4:">\n  ,\n </mo>\n <msubsup>\n  <mi xml:id="5:">\n   N\n  </mi>\n  <mi xml:id="6:">\n   R\n  </mi>\n  <mi xml:id="7:">\n   i\n  </mi>\n </msubsup>\n <mi xml:id="8:">\n  (\n </mi>\n <msub>\n  <mi xml:id="9:">\n   r\n  </mi>\n  <mi xml:id="10:">\n   i\n  </mi>\n </msub>\n <mi xml:id="11:">\n  )\n </mi>\n <mo xml:id="12:">\n  =\n </mo>\n <msubsup>\n  <mi xml:id="13:">\n   N\n  </mi>\n  <mi xml:id="14:">\n   R\n  </mi>\n  <mrow>\n   <mi xml:id="15:">\n    i\n   </mi>\n   <mi xml:id="16:">\n    −\n   </mi>\n   <mn xml:id="17:">\n    1\n   </mn>\n  </mrow>\n </msubsup>\n <mi xml:id="18:">\n  (\n </mi>\n <msub>\n  <mi xml:id="19:">\n   r\n  </mi>\n  <mi xml:id="20:">\n   i\n  </mi>\n </msub>\n <mi xml:id="21:">\n  )\n </mi>\n <mo xml:id="22:">\n  +\n </mo>\n <mn xml:id="23:">\n  1\n </mn>\n</mrow>"	0	0	0	0		
P	8	
FR	1	625	856	732	885
o	1	N	625	856	657	882		
o	2	+	675	860	700	885		
o	3	1	720	856	732	882		
R	4	HORIZONTAL	1	2	0	0		
R	5	HORIZONTAL	2	3	0	0		
MML	6	"<mrow>\n <mi xml:id="0:">\n  N\n </mi>\n <mo xml:id="1:">\n  +\n </mo>\n <mn xml:id="2:">\n  1\n </mn>\n</mrow>"	0	0	0	0		
FR	2	422	997	551	1036
o	1	(	422	997	430	1035		
o	2	i	434	1000	444	1026		
o	3	COMMA	450	1022	454	1033		
o	4	j	463	1000	479	1034		
o	5	)	484	997	493	1036		
o	6	COMMA	499	1022	504	1031		
o	7	w	508	1009	533	1026		
o	8	e	535	1008	551	1026		
R	9	HORIZONTAL	1	2	0	0		
R	10	PUNC	2	3	0	0		
R	11	HORIZONTAL	2	4	0	0		
R	12	HORIZONTAL	4	5	0	0		
R	13	PUNC	5	6	0	0		
R	14	HORIZONTAL	5	7	0	0		
R	15	HORIZONTAL	7	8	0	0		
MML	16	"<mrow>\n <mi xml:id="0:">\n  (\n </mi>\n <mi xml:id="1:">\n  i\n </mi>\n <mo xml:id="2:">\n  ,\n </mo>\n <mi xml:id="3:">\n  j\n </mi>\n <mi xml:id="4:">\n  )\n </mi>\n <mo xml:id="5:">\n  ,\n </mo>\n <mi xml:id="6:">\n  w\n </mi>\n <mi xml:id="7:">\n  e\n </mi>\n</mrow>"	0	0	0	0		
FR	3	258	1094	423	1133
o	1	R	258	1097	285	1124		
o	2	/	288	1094	303	1133		
o	3	R	307	1097	334	1124		
o	4	O	337	1096	363	1124		
o	5	O	367	1096	394	1124		
o	6	T	397	1097	423	1123		
R	7	HORIZONTAL	1	2	0	0		
R	8	HORIZONTAL	2	3	0	0		
R	9	HORIZONTAL	3	4	0	0		
R	10	HORIZONTAL	4	5	0	0		
R	11	HORIZONTAL	5	6	0	0		
MML	12	"<mrow>\n <mi xml:id="0:">\n  R\n </mi>\n <mo xml:id="1:">\n  /\n </mo>\n <mi xml:id="2:">\n  R\n </mi>\n <mi xml:id="3:">\n  O\n </mi>\n <mi xml:id="4:">\n  O\n </mi>\n <mi xml:id="5:">\n  T\n </mi>\n</mrow>"	0	0	0	0		
FR	4	1286	1723	1341	1749
o	1	a	1286	1731	1301	1749		
o	2	s	1304	1731	1315	1749		
o	3	1	1330	1723	1341	1749		
R	4	HORIZONTAL	1	2	0	0		
R	5	HORIZONTAL	2	3	0	0		
MML	6	"<mrow>\n <mi xml:id="0:">\n  a\n </mi>\n <mi xml:id="1:">\n  s\n </mi>\n <mn xml:id="2:">\n  1\n </mn>\n</mrow>"	0	0	0	0		
FR	5	1422	2012	1467	2038
o	1	F	1422	2012	1467	2038		
MML	2	"<mi xml:id="0:1:">\n F\n</mi>"	0	0	0	0		
FR	6	299	2197	911	2229
o	1	[	299	2197	303	2229		
o	2	X	305	2199	330	2221		
o	3	1	336	2200	344	2221		
o	4	-	349	2213	357	2215		
o	5	1	363	2200	371	2221		
o	6	]	375	2197	380	2229		
o	7	minus	386	2212	405	2214		
o	8	>	419	2204	438	2222		
o	9	[	454	2197	458	2229		
o	10	X	460	2199	486	2221		
o	11	1	492	2200	500	2221		
o	12	-	505	2213	513	2215		
o	13	1	518	2200	526	2221		
o	14	comma	533	2218	536	2221		
o	15	COMMA	533	2223	536	2227		
o	16	1	547	2200	557	2221		
o	17	]	561	2197	565	2229		
o	18	semicolon	572	2207	575	2211		
o	19	;	572	2218	575	2227		
o	20	[	587	2197	591	2229		
o	21	X	593	2199	618	2221		
o	22	1	624	2200	632	2221		
o	23	-	637	2213	645	2215		
o	24	1	651	2200	659	2221		
o	25	comma	665	2218	669	2223		
o	26	COMMA	666	2224	668	2227		
o	27	2	678	2200	691	2221		
o	28	BigRightPar	693	2197	698	2229		
o	29	colon	704	2207	707	2211		
o	30	;	704	2218	769	2227		
o	31	ldots	718	2207	769	2215		
o	32	[	781	2197	785	2229		
o	33	X	787	2199	813	2221		
o	34	1	819	2200	827	2221		
o	35	-	832	2213	840	2215		
o	36	1	845	2200	853	2221		
o	37	comma	860	2218	863	2221		
o	38	COMMA	860	2223	863	2227		
o	39	n	872	2207	889	2221		
o	40	]	891	2197	895	2229		
o	41	|	910	2197	911	2229		
R	42	HORIZONTAL	1	15	0	0		
R	43	HORIZONTAL	5	6	0	0		
R	44	HORIZONTAL	6	7	0	0		
R	45	HORIZONTAL	7	32	0	0		
R	46	HORIZONTAL	9	10	0	0		
R	47	HORIZONTAL	10	11	0	0		
R	48	HORIZONTAL	11	12	0	0		
R	49	HORIZONTAL	12	13	0	0		
R	50	HORIZONTAL	13	14	0	0		
R	51	HORIZONTAL	14	1	0	0		
R	52	HORIZONTAL	15	16	0	0		
R	53	HORIZONTAL	16	17	0	0		
R	54	HORIZONTAL	17	18	0	0		
R	55	HORIZONTAL	18	19	0	0		
R	56	HORIZONTAL	19	20	0	0		
R	57	PUNC	20	21	0	0		
R	58	HORIZONTAL	20	22	0	0		
R	59	HORIZONTAL	22	23	0	0		
R	60	PUNC	23	2	0	0		
R	61	HORIZONTAL	23	24	0	0		
R	62	UPPER	24	3	0	0		
R	63	HORIZONTAL	24	25	0	0		
R	64	HORIZONTAL	25	26	0	0		
R	65	HORIZONTAL	26	27	0	0		
R	66	PUNC	26	30	0	0		
R	67	HORIZONTAL	27	28	0	0		
R	68	HORIZONTAL	28	29	0	0		
R	69	PUNC	29	4	0	0		
R	70	HORIZONTAL	29	31	0	0		
R	71	HORIZONTAL	31	5	0	0		
R	72	HORIZONTAL	32	33	0	0		
R	73	HORIZONTAL	33	34	0	0		
R	74	HORIZONTAL	34	35	0	0		
R	75	PUNC	34	38	0	0		
R	76	HORIZONTAL	35	36	0	0		
R	77	HORIZONTAL	36	37	0	0		
R	78	PUNC	37	8	0	0		
R	79	HORIZONTAL	37	39	0	0		
R	80	HORIZONTAL	39	40	0	0		
R	81	HORIZONTAL	40	41	0	0		
MML	82	"<mrow>\n <mi xml:id="11:">\n  [\n </mi>\n <mi xml:id="12:">\n  X\n </mi>\n <mn xml:id="13:">\n  1\n </mn>\n <mo xml:id="14:">\n  -\n </mo>\n <mn xml:id="15:">\n  1\n </mn>\n <mi xml:id="16:">\n  ]\n </mi>\n <mo xml:id="0:">\n  -\n </mo>\n <mo xml:id="17:">\n  &gt;\n </mo>\n <mi xml:id="18:">\n  [\n </mi>\n <mi xml:id="19:">\n  X\n </mi>\n <mn xml:id="20:">\n  1\n </mn>\n <mo xml:id="21:">\n  -\n </mo>\n <mn xml:id="22:">\n  1\n </mn>\n <mo xml:id="23:">\n  ,\n </mo>\n <mn xml:id="24:">\n  1\n </mn>\n <mi xml:id="25:">\n  ]\n </mi>\n <mo xml:id="1:">\n  ,\n </mo>\n <munder>\n  <mi xml:id="2:">\n   ;\n  </mi>\n  <mi xml:id="26:">\n   ;\n  </mi>\n </munder>\n <mi xml:id="27:">\n  [\n </mi>\n <mi xml:id="28:">\n  X\n </mi>\n <mn xml:id="29:">\n  1\n </mn>\n <mo xml:id="30:">\n  -\n </mo>\n <mn xml:id="31:">\n  1\n </mn>\n <mo xml:id="3:">\n  ,\n </mo>\n <mn xml:id="33:">\n  2\n </mn>\n <mi xml:id="4:">\n  ]\n </mi>\n <mi xml:id="5:">\n  &amp;colon\n </mi>\n <mo xml:id="6:7:8:9:">\n  …\n </mo>\n <mi xml:id="34:35:">\n  ;\n </mi>\n <mi xml:id="36:">\n  [\n </mi>\n <mi xml:id="37:">\n  X\n </mi>\n <mn xml:id="38:">\n  1\n </mn>\n <mo xml:id="39:">\n  -\n </mo>\n <mn xml:id="40:">\n  1\n </mn>\n <mi xml:id="42:">\n  n\n </mi>\n <mi xml:id="43:">\n  ]\n </mi>\n <mo xml:id="44:">\n  |\n </mo>\n <mo xml:id="10:">\n  ,\n </mo>\n <mo xml:id="41:">\n  ,\n </mo>\n <mo xml:id="32:">\n  ,\n </mo>\n</mrow>"	0	0	0	0		
FR	7	500	2260	868	2287
o	1	[	500	2260	503	2287		
o	2	X	505	2261	527	2280		
o	3	1	533	2262	539	2280		
o	4	-	544	2273	551	2275		
o	5	1	556	2261	562	2280		
o	6	COMMA	569	2277	572	2285		
o	7	1	581	2262	590	2280		
o	8	]	593	2260	597	2287		
o	9	:	609	2268	614	2280		
o	10	o	617	2268	629	2280		
o	11	p	629	2268	643	2286		
o	12	2	645	2261	657	2280		
o	13	[	669	2260	672	2287		
o	14	X	674	2261	696	2280		
o	15	1	702	2262	708	2280		
o	16	-	713	2273	720	2275		
o	17	1	725	2262	731	2280		
o	18	comma	737	2277	741	2281		
o	19	COMMA	738	2283	740	2285		
o	20	2	749	2262	760	2280		
o	21	]	762	2260	766	2287		
o	22	·	776	2272	822	2280		
o	23	semicolon	822	2268	825	2271		
o	24	o	828	2268	840	2280		
o	25	p	839	2268	854	2286		
o	26	n	856	2267	868	2280		
R	27	HORIZONTAL	1	20	0	0		
R	28	HORIZONTAL	2	24	0	0		
R	29	HORIZONTAL	3	4	0	0		
R	30	HORIZONTAL	4	5	0	0		
R	31	HORIZONTAL	5	6	0	0		
R	32	HORIZONTAL	6	7	0	0		
R	33	PUNC	7	8	0	0		
R	34	HORIZONTAL	7	9	0	0		
R	35	HORIZONTAL	9	10	0	0		
R	36	HORIZONTAL	10	11	0	0		
R	37	HORIZONTAL	11	12	0	0		
R	38	HORIZONTAL	12	13	0	0		
R	39	HORIZONTAL	13	14	0	0		
R	40	HORIZONTAL	14	15	0	0		
R	41	HORIZONTAL	15	16	0	0		
R	42	HORIZONTAL	16	17	0	0		
R	43	HORIZONTAL	17	18	0	0		
R	44	HORIZONTAL	18	19	0	0		
R	45	PUNC	19	1	0	0		
R	46	HORIZONTAL	19	21	0	0		
R	47	HORIZONTAL	21	22	0	0		
R	48	HORIZONTAL	22	23	0	0		
R	49	HORIZONTAL	23	2	0	0		
R	50	HORIZONTAL	24	25	0	0		
R	51	HORIZONTAL	25	26	0	0		
MML	52	"<mrow>\n <mi xml:id="2:">\n  [\n </mi>\n <mi xml:id="3:">\n  X\n </mi>\n <mn xml:id="4:">\n  1\n </mn>\n <mo xml:id="5:">\n  -\n </mo>\n <mn xml:id="6:">\n  1\n </mn>\n <mo xml:id="7:">\n  ,\n </mo>\n <mn xml:id="8:">\n  1\n </mn>\n <mi xml:id="9:">\n  ]\n </mi>\n <mi xml:id="10:">\n  :\n </mi>\n <mi xml:id="11:">\n  o\n </mi>\n <mi xml:id="12:">\n  p\n </mi>\n <mn xml:id="13:">\n  2\n </mn>\n <mi xml:id="14:">\n  [\n </mi>\n <mi xml:id="15:">\n  X\n </mi>\n <mn xml:id="16:">\n  1\n </mn>\n <mo xml:id="17:">\n  -\n </mo>\n <mn xml:id="18:">\n  1\n </mn>\n <mo xml:id="0:">\n  ,\n </mo>\n <mo xml:id="19:">\n  ,\n </mo>\n <mn xml:id="20:">\n  2\n </mn>\n <mi xml:id="21:">\n  ]\n </mi>\n <mi xml:id="22:23:24:25:">\n  ·\n </mi>\n <mi xml:id="1:">\n  ;\n </mi>\n <mi xml:id="26:">\n  o\n </mi>\n <mi xml:id="27:">\n  p\n </mi>\n <mi xml:id="28:">\n  n\n </mi>\n</mrow>"	0	0	0	0		
FR	8	298	2317	680	2346
o	1	[	298	2317	302	2346		
o	2	X	304	2319	328	2339		
o	3	1	334	2319	341	2339		
o	4	-	346	2331	353	2333		
o	5	1	358	2319	365	2339		
o	6	]	370	2317	374	2346		
o	7	−	380	2331	397	2332		
o	8	>	411	2323	429	2340		
o	9	[	444	2317	448	2346		
o	10	X	449	2319	473	2339		
o	11	1	479	2319	486	2339		
o	12	-	491	2331	498	2333		
o	13	1	503	2319	510	2339		
o	14	semicolon	517	2336	680	2339		
o	15	COMMA	518	2341	520	2344		
o	16	1	530	2319	540	2339		
o	17	]	543	2317	547	2346		
o	18	COMMA	554	2341	556	2344		
o	19	[	567	2317	571	2346		
o	20	X	573	2319	597	2339		
o	21	1	603	2319	610	2339		
o	22	-	615	2331	622	2333		
o	23	1	627	2319	634	2339		
o	24	COMMA	642	2340	644	2344		
o	25	2	653	2319	665	2339		
o	26	]	667	2317	680	2346		
R	27	HORIZONTAL	2	3	0	0		
R	28	HORIZONTAL	3	4	0	0		
R	29	HORIZONTAL	4	5	0	0		
R	30	HORIZONTAL	5	6	0	0		
R	31	HORIZONTAL	6	7	0	0		
R	32	HORIZONTAL	7	8	0	0		
R	33	HORIZONTAL	8	9	0	0		
R	34	HORIZONTAL	9	10	0	0		
R	35	HORIZONTAL	10	11	0	0		
R	36	HORIZONTAL	11	12	0	0		
R	37	HORIZONTAL	12	13	0	0		
R	38	HORIZONTAL	13	14	0	0		
R	39	PUNC	14	15	0	0		
R	40	HORIZONTAL	14	16	0	0		
R	41	HORIZONTAL	16	17	0	0		
R	42	PUNC	17	18	0	0		
R	43	HORIZONTAL	17	19	0	0		
R	44	HORIZONTAL	19	20	0	0		
R	45	HORIZONTAL	20	21	0	0		
R	46	HORIZONTAL	21	22	0	0		
R	47	HORIZONTAL	22	23	0	0		
R	48	PUNC	23	24	0	0		
R	49	HORIZONTAL	23	25	0	0		
R	50	HORIZONTAL	25	26	0	0		
R	51	PUNC	26	1	0	0		
MML	52	"<mrow>\n <mi xml:id="4:">\n  [\n </mi>\n <mi xml:id="5:">\n  X\n </mi>\n <mn xml:id="6:">\n  1\n </mn>\n <mo xml:id="7:">\n  -\n </mo>\n <mn xml:id="8:">\n  1\n </mn>\n <mi xml:id="9:">\n  ]\n </mi>\n <mi xml:id="10:">\n  −\n </mi>\n <mo xml:id="11:">\n  &gt;\n </mo>\n <mi xml:id="12:">\n  [\n </mi>\n <mi xml:id="13:">\n  X\n </mi>\n <mn xml:id="14:">\n  1\n </mn>\n <mo xml:id="15:">\n  -\n </mo>\n <mn xml:id="16:">\n  1\n </mn>\n <mo xml:id="17:">\n  ,\n </mo>\n <mn xml:id="18:">\n  1\n </mn>\n <mi xml:id="19:">\n  ]\n </mi>\n <mo xml:id="20:">\n  ,\n </mo>\n <mi xml:id="21:">\n  [\n </mi>\n <mi xml:id="22:">\n  X\n </mi>\n <mn xml:id="23:">\n  1\n </mn>\n <mo xml:id="24:">\n  -\n </mo>\n <mn xml:id="25:">\n  1\n </mn>\n <mo xml:id="26:">\n  ,\n </mo>\n <mn xml:id="27:">\n  2\n </mn>\n <mi xml:id="28:29:">\n  ]\n </mi>\n <mi xml:id="0:1:2:3:">\n  ;\n </mi>\n</mrow>"	0	0	0	0		
FR	9	879	2377	990	2405
o	1	[	879	2377	883	2405		
o	2	X	884	2379	907	2398		
o	3	1	912	2379	918	2398		
o	4	-	924	2391	930	2393		
o	5	1	936	2379	942	2398		
o	6	COMMA	948	2395	951	2402		
o	7	n	959	2386	974	2398		
o	8	vert	975	2377	979	2405		
o	9	)	984	2377	990	2405		
R	10	HORIZONTAL	1	9	0	0		
R	11	HORIZONTAL	2	3	0	0		
R	12	HORIZONTAL	3	4	0	0		
R	13	HORIZONTAL	4	5	0	0		
R	14	HORIZONTAL	5	6	0	0		
R	15	PUNC	6	7	0	0		
R	16	HORIZONTAL	6	8	0	0		
R	17	HORIZONTAL	8	1	0	0		
MML	18	"<mrow>\n <mi xml:id="1:">\n  [\n </mi>\n <mi xml:id="2:">\n  X\n </mi>\n <mn xml:id="3:">\n  1\n </mn>\n <mo xml:id="4:">\n  -\n </mo>\n <mn xml:id="5:">\n  1\n </mn>\n <mo xml:id="6:">\n  ,\n </mo>\n <mi xml:id="7:">\n  n\n </mi>\n <mo xml:id="0:">\n  |\n </mo>\n <mi xml:id="8:">\n  )\n </mi>\n</mrow>"	0	0	0	0		
P	9	
FR	1	474	1748	676	1775
o	1	S	474	1748	491	1775		
o	2	H	494	1748	520	1774		
o	3	R	522	1748	547	1774		
o	4	G	549	1748	575	1775		
o	5	-	577	1764	586	1766		
o	6	b	588	1748	606	1774		
o	7	a	609	1756	624	1774		
o	8	s	627	1756	638	1774		
o	9	e	641	1756	656	1774		
o	10	d	658	1748	676	1774		
R	11	HORIZONTAL	1	2	0	0		
R	12	HORIZONTAL	2	3	0	0		
R	13	HORIZONTAL	3	4	0	0		
R	14	HORIZONTAL	4	5	0	0		
R	15	HORIZONTAL	5	6	0	0		
R	16	HORIZONTAL	6	7	0	0		
R	17	HORIZONTAL	7	8	0	0		
R	18	HORIZONTAL	8	9	0	0		
R	19	HORIZONTAL	9	10	0	0		
MML	20	"<mrow>\n <mi xml:id="0:">\n  S\n </mi>\n <mi xml:id="1:">\n  H\n </mi>\n <mi xml:id="2:">\n  R\n </mi>\n <mi xml:id="3:">\n  G\n </mi>\n <mo xml:id="4:">\n  -\n </mo>\n <mi xml:id="5:">\n  b\n </mi>\n <mi xml:id="6:">\n  a\n </mi>\n <mi xml:id="7:">\n  s\n </mi>\n <mi xml:id="8:">\n  e\n </mi>\n <mi xml:id="9:">\n  d\n </mi>\n</mrow>"	0	0	0	0		
P	10	
FR	1	1626	395	1771	424
o	1	semicolon	1626	395	1771	424		
o	2	E	1636	395	1659	418		
o	3	M	1658	395	1688	418		
o	4	N	1687	395	1713	418		
o	5	L	1711	395	1731	418		
o	6	P	1731	395	1752	418		
o	7	)	1753	395	1762	424		
R	8	HORIZONTAL	1	2	0	0		
R	9	HORIZONTAL	2	3	0	0		
R	10	HORIZONTAL	3	4	0	0		
R	11	HORIZONTAL	4	5	0	0		
R	12	HORIZONTAL	5	6	0	0		
R	13	HORIZONTAL	6	7	0	0		
MML	14	"<mrow>\n <mi xml:id="0:1:">\n  ;\n </mi>\n <mi xml:id="2:">\n  E\n </mi>\n <mi xml:id="3:">\n  M\n </mi>\n <mi xml:id="4:">\n  N\n </mi>\n <mi xml:id="5:">\n  L\n </mi>\n <mi xml:id="6:">\n  P\n </mi>\n <mi xml:id="7:">\n  )\n </mi>\n</mrow>"	0	0	0	0		
FR	2	556	2497	747	2527
o	1	colon	556	2498	747	2526		
o	2	E	566	2498	588	2521		
o	3	M	587	2498	618	2521		
o	4	N	617	2498	642	2521		
o	5	L	641	2498	660	2521		
o	6	P	661	2498	682	2521		
o	7	-	684	2512	692	2514		
o	8	1	696	2497	708	2521		
o	9	4	712	2497	728	2521		
o	10	)	730	2498	739	2527		
R	11	HORIZONTAL	1	2	0	0		
R	12	HORIZONTAL	2	3	0	0		
R	13	HORIZONTAL	3	4	0	0		
R	14	HORIZONTAL	4	5	0	0		
R	15	HORIZONTAL	5	6	0	0		
R	16	HORIZONTAL	7	8	0	0		
R	17	HORIZONTAL	8	9	0	0		
R	18	HORIZONTAL	9	10	0	0		
R	19	HORIZONTAL	10	1	0	0		
MML	20	"<mrow>\n <mo xml:id="7:">\n  -\n </mo>\n <mn xml:id="8:">\n  1\n </mn>\n <mn xml:id="9:">\n  4\n </mn>\n <mi xml:id="10:">\n  )\n </mi>\n <mi xml:id="0:1:">\n  &amp;colon\n </mi>\n <mi xml:id="2:">\n  E\n </mi>\n <mi xml:id="3:">\n  M\n </mi>\n <mi xml:id="4:">\n  N\n </mi>\n <mi xml:id="5:">\n  L\n </mi>\n <mi xml:id="6:">\n  P\n </mi>\n</mrow>"	0	0	0	0		
