D	1	/home/mlang/Documents/mr-tests/qdgga-parser/W07-0901.pdf
P	1	
FR	1	1322	2263	1378	2289
o	1	4	1322	2263	1339	2289		
o	2	–	1340	2279	1360	2280		
o	3	6	1362	2263	1378	2289		
R	4	HORIZONTAL	1	2	0	0		
R	5	HORIZONTAL	2	3	0	0		
MML	6	"<mrow>\n <mn xml:id="0:">\n  4\n </mn>\n <mi xml:id="1:">\n  –\n </mi>\n <mn xml:id="2:">\n  6\n </mn>\n</mrow>"	0	0	0	0		
FR	2	1713	2631	1763	2656
o	1	1	1713	2631	1721	2652		
o	2	–	1725	2644	1741	2646		
o	3	8	1743	2631	1755	2652		
o	4	COMMA	1758	2649	1763	2656		
R	5	HORIZONTAL	1	2	0	0		
R	6	HORIZONTAL	2	3	0	0		
R	7	PUNC	3	4	0	0		
MML	8	"<mrow>\n <mn xml:id="0:">\n  1\n </mn>\n <mi xml:id="1:">\n  –\n </mi>\n <mn xml:id="2:">\n  8\n </mn>\n <mo xml:id="3:">\n  ,\n </mo>\n</mrow>"	0	0	0	0		
P	2	
FR	1	1114	429	1765	464
o	1	<	1114	434	1134	452		
o	2	h	1136	429	1154	456		
o	3	t	1156	433	1165	456		
o	4	P	1167	433	1194	464		
o	5	:	1199	438	1204	456		
o	6	/	1207	429	1218	456		
o	7	/	1218	429	1229	456		
o	8	u	1231	439	1248	456		
o	9	c	1249	438	1264	457		
o	10	r	1267	438	1279	456		
o	11	e	1280	438	1295	456		
o	12	l	1298	429	1306	456		
o	13	.	1310	452	1314	456		
o	14	l	1319	429	1327	456		
o	15	a	1329	438	1345	456		
o	16	n	1346	438	1364	456		
o	17	c	1366	438	1381	457		
o	18	s	1384	438	1396	456		
o	19	.	1400	452	1404	456		
o	20	a	1408	438	1424	456		
o	21	c	1425	438	1440	457		
o	22	.	1445	452	1449	456		
o	23	u	1453	439	1470	456		
o	24	k	1472	429	1502	456		
o	25	e	1502	438	1517	456		
o	26	v	1520	439	1537	456		
o	27	e	1539	438	1554	456		
o	28	n	1557	438	1575	456		
o	29	t	1576	433	1585	456		
o	30	s	1588	438	1600	456		
o	31	/	1601	429	1612	456		
o	32	h	1613	429	1631	456		
o	33	t	1633	433	1642	456		
o	34	m	1644	438	1673	456		
o	35	0	1674	430	1691	456		
o	36	6	1694	430	1710	456		
o	37	/	1712	429	1723	456		
o	38	>	1724	434	1744	452		
o	39	)	1746	429	1765	464		
R	40	HORIZONTAL	1	6	0	0		
R	41	HORIZONTAL	2	25	0	0		
R	42	HORIZONTAL	3	4	0	0		
R	43	HORIZONTAL	4	5	0	0		
R	44	HORIZONTAL	5	1	0	0		
R	45	HORIZONTAL	6	7	0	0		
R	46	HORIZONTAL	7	8	0	0		
R	47	HORIZONTAL	8	9	0	0		
R	48	HORIZONTAL	9	10	0	0		
R	49	HORIZONTAL	10	11	0	0		
R	50	HORIZONTAL	11	12	0	0		
R	51	HORIZONTAL	12	13	0	0		
R	52	PUNC	13	14	0	0		
R	53	HORIZONTAL	13	15	0	0		
R	54	HORIZONTAL	15	16	0	0		
R	55	HORIZONTAL	16	17	0	0		
R	56	HORIZONTAL	17	18	0	0		
R	57	HORIZONTAL	18	19	0	0		
R	58	PUNC	19	20	0	0		
R	59	HORIZONTAL	19	21	0	0		
R	60	HORIZONTAL	21	22	0	0		
R	61	PUNC	22	23	0	0		
R	62	HORIZONTAL	22	24	0	0		
R	63	HORIZONTAL	24	2	0	0		
R	64	HORIZONTAL	25	26	0	0		
R	65	HORIZONTAL	26	27	0	0		
R	66	HORIZONTAL	27	28	0	0		
R	67	HORIZONTAL	28	29	0	0		
R	68	HORIZONTAL	29	30	0	0		
R	69	HORIZONTAL	30	31	0	0		
R	70	HORIZONTAL	31	32	0	0		
R	71	HORIZONTAL	32	33	0	0		
R	72	HORIZONTAL	33	34	0	0		
R	73	HORIZONTAL	34	35	0	0		
R	74	HORIZONTAL	35	36	0	0		
R	75	HORIZONTAL	36	37	0	0		
R	76	HORIZONTAL	37	38	0	0		
R	77	HORIZONTAL	38	39	0	0		
MML	78	"<mrow>\n <mo xml:id="2:">\n  &lt;\n </mo>\n <mi xml:id="3:">\n  h\n </mi>\n <mi xml:id="4:">\n  t\n </mi>\n <mi xml:id="0:">\n  P\n </mi>\n <mi xml:id="5:">\n  :\n </mi>\n <mo xml:id="6:">\n  /\n </mo>\n <mo xml:id="7:">\n  /\n </mo>\n <mi xml:id="8:">\n  u\n </mi>\n <mi xml:id="9:">\n  c\n </mi>\n <mi xml:id="10:">\n  r\n </mi>\n <mi xml:id="11:">\n  e\n </mi>\n <mi xml:id="12:">\n  l\n </mi>\n <mo xml:id="13:">\n  .\n </mo>\n <mi xml:id="14:">\n  l\n </mi>\n <mi xml:id="15:">\n  a\n </mi>\n <mi xml:id="16:">\n  n\n </mi>\n <mi xml:id="17:">\n  c\n </mi>\n <mi xml:id="18:">\n  s\n </mi>\n <mo xml:id="19:">\n  .\n </mo>\n <mi xml:id="20:">\n  a\n </mi>\n <mi xml:id="21:">\n  c\n </mi>\n <mo xml:id="22:">\n  .\n </mo>\n <mi xml:id="23:">\n  u\n </mi>\n <mi xml:id="1:">\n  k\n </mi>\n <mi xml:id="24:">\n  e\n </mi>\n <mi xml:id="25:">\n  v\n </mi>\n <mi xml:id="26:">\n  e\n </mi>\n <mi xml:id="27:">\n  n\n </mi>\n <mi xml:id="28:">\n  t\n </mi>\n <mi xml:id="29:">\n  s\n </mi>\n <mo xml:id="30:">\n  /\n </mo>\n <mi xml:id="31:">\n  h\n </mi>\n <mi xml:id="32:">\n  t\n </mi>\n <mi xml:id="33:">\n  m\n </mi>\n <mn xml:id="34:">\n  0\n </mn>\n <mn xml:id="35:">\n  6\n </mn>\n <mo xml:id="36:">\n  /\n </mo>\n <mo xml:id="37:">\n  &gt;\n </mo>\n <mi xml:id="38:39:">\n  )\n </mi>\n</mrow>"	0	0	0	0		
FR	2	1242	1823	1848	1858
o	1	N	1242	1824	1457	1850		
o	2	O	1271	1824	1297	1851		
o	3	K	1299	1824	1352	1850		
o	4	<	1367	1828	1387	1846		
o	5	h	1389	1823	1407	1850		
o	6	t	1409	1827	1418	1850		
o	7	t	1420	1827	1429	1850		
o	8	p	1430	1832	1448	1858		
o	9	:	1452	1846	1457	1850		
o	10	/	1460	1823	1471	1850		
o	11	/	1471	1823	1482	1850		
o	12	w	1483	1833	1565	1850		
o	13	.	1570	1846	1574	1850		
o	14	n	1577	1832	1595	1850		
o	15	o	1597	1832	1614	1851		
o	16	r	1617	1832	1629	1850		
o	17	a	1630	1832	1646	1850		
o	18	p	1646	1832	1664	1858		
o	19	r	1666	1832	1678	1850		
o	20	o	1679	1832	1696	1851		
o	21	j	1695	1823	1706	1858		
o	22	e	1710	1832	1725	1850		
o	23	c	1727	1832	1742	1851		
o	24	t	1745	1827	1754	1850		
o	25	.	1758	1846	1762	1850		
o	26	o	1765	1832	1782	1851		
o	27	r	1785	1832	1797	1850		
o	28	g	1798	1832	1816	1858		
o	29	/	1816	1823	1827	1850		
o	30	>	1828	1828	1848	1846		
R	31	HORIZONTAL	1	4	0	0		
R	32	HORIZONTAL	2	3	0	0		
R	33	HORIZONTAL	4	5	0	0		
R	34	HORIZONTAL	5	6	0	0		
R	35	HORIZONTAL	6	7	0	0		
R	36	HORIZONTAL	7	8	0	0		
R	37	HORIZONTAL	8	2	0	0		
R	38	PUNC	8	9	0	0		
R	39	HORIZONTAL	9	10	0	0		
R	40	HORIZONTAL	10	11	0	0		
R	41	HORIZONTAL	11	12	0	0		
R	42	PUNC	12	13	0	0		
R	43	HORIZONTAL	12	14	0	0		
R	44	HORIZONTAL	14	15	0	0		
R	45	HORIZONTAL	15	16	0	0		
R	46	HORIZONTAL	16	17	0	0		
R	47	HORIZONTAL	17	18	0	0		
R	48	HORIZONTAL	18	19	0	0		
R	49	HORIZONTAL	19	20	0	0		
R	50	HORIZONTAL	20	21	0	0		
R	51	HORIZONTAL	21	22	0	0		
R	52	HORIZONTAL	22	23	0	0		
R	53	HORIZONTAL	23	24	0	0		
R	54	PUNC	24	25	0	0		
R	55	HORIZONTAL	24	26	0	0		
R	56	HORIZONTAL	26	27	0	0		
R	57	HORIZONTAL	27	28	0	0		
R	58	RSUP	28	29	0	0		
R	59	HORIZONTAL	28	30	0	0		
MML	60	"<mrow>\n <mi xml:id="0:">\n  K\n </mi>\n <mo xml:id="4:">\n  &lt;\n </mo>\n <mi xml:id="5:">\n  h\n </mi>\n <mi xml:id="6:">\n  t\n </mi>\n <mi xml:id="7:">\n  t\n </mi>\n <mi xml:id="8:">\n  p\n </mi>\n <mi xml:id="1:2:">\n  N\n </mi>\n <mi xml:id="3:">\n  O\n </mi>\n <mi xml:id="9:">\n  :\n </mi>\n <mo xml:id="10:">\n  /\n </mo>\n <mo xml:id="11:">\n  /\n </mo>\n <mi xml:id="12:13:14:">\n  w\n </mi>\n <mo xml:id="15:">\n  .\n </mo>\n <mi xml:id="16:">\n  n\n </mi>\n <mi xml:id="17:">\n  o\n </mi>\n <mi xml:id="18:">\n  r\n </mi>\n <mi xml:id="19:">\n  a\n </mi>\n <mi xml:id="20:">\n  p\n </mi>\n <mi xml:id="21:">\n  r\n </mi>\n <mi xml:id="22:">\n  o\n </mi>\n <mi xml:id="23:">\n  j\n </mi>\n <mi xml:id="24:">\n  e\n </mi>\n <mi xml:id="25:">\n  c\n </mi>\n <mi xml:id="26:">\n  t\n </mi>\n <mo xml:id="27:">\n  .\n </mo>\n <mi xml:id="28:">\n  o\n </mi>\n <mi xml:id="29:">\n  r\n </mi>\n <msup>\n  <mi xml:id="30:">\n   g\n  </mi>\n  <mo xml:id="31:">\n   /\n  </mo>\n </msup>\n <mo xml:id="32:">\n  &gt;\n </mo>\n</mrow>"	0	0	0	0		
P	3	
FR	1	1448	1656	1580	1691
o	1	(	1448	1656	1458	1691		
o	2	k	1460	1656	1477	1683		
o	3	l	1479	1656	1487	1683		
o	4	o	1489	1665	1506	1683		
o	5	c	1508	1665	1524	1683		
o	6	k	1526	1656	1543	1683		
o	7	a	1543	1665	1560	1683		
o	8	n	1563	1665	1580	1683		
R	9	HORIZONTAL	1	2	0	0		
R	10	HORIZONTAL	2	3	0	0		
R	11	HORIZONTAL	3	4	0	0		
R	12	HORIZONTAL	4	5	0	0		
R	13	HORIZONTAL	5	6	0	0		
R	14	HORIZONTAL	6	7	0	0		
R	15	HORIZONTAL	7	8	0	0		
MML	16	"<mrow>\n <mi xml:id="0:">\n  (\n </mi>\n <mi xml:id="1:">\n  k\n </mi>\n <mi xml:id="2:">\n  l\n </mi>\n <mi xml:id="3:">\n  o\n </mi>\n <mi xml:id="4:">\n  c\n </mi>\n <mi xml:id="5:">\n  k\n </mi>\n <mi xml:id="6:">\n  a\n </mi>\n <mi xml:id="7:">\n  n\n </mi>\n</mrow>"	0	0	0	0		
FR	2	1293	1791	1381	1826
o	1	d	1293	1791	1310	1819		
o	2	a	1312	1800	1328	1818		
o	3	y	1329	1801	1346	1826		
o	4	’	1352	1792	1357	1801		
o	5	)	1362	1791	1372	1826		
o	6	.	1377	1814	1381	1818		
R	7	HORIZONTAL	1	2	0	0		
R	8	HORIZONTAL	2	3	0	0		
R	9	RSUP	3	4	0	0		
R	10	HORIZONTAL	3	5	0	0		
R	11	HORIZONTAL	5	6	0	0		
MML	12	"<mrow>\n <mi xml:id="0:">\n  d\n </mi>\n <mi xml:id="1:">\n  a\n </mi>\n <msup>\n  <mi xml:id="2:">\n   y\n  </mi>\n  <mi xml:id="3:">\n   ’\n  </mi>\n </msup>\n <mi xml:id="4:">\n  )\n </mi>\n <mo xml:id="5:">\n  .\n </mo>\n</mrow>"	0	0	0	0		
P	4	
FR	1	1305	669	1369	704
o	1	(	1305	669	1315	704		
o	2	e	1317	678	1332	696		
o	3	.	1336	692	1340	696		
o	4	g	1344	678	1362	704		
o	5	comma	1365	692	1369	696		
R	6	HORIZONTAL	2	3	0	0		
R	7	PUNC	3	4	0	0		
R	8	HORIZONTAL	3	5	0	0		
R	9	HORIZONTAL	5	1	0	0		
MML	10	"<mrow>\n <mi xml:id="1:">\n  (\n </mi>\n <mi xml:id="2:">\n  e\n </mi>\n <mo xml:id="3:">\n  .\n </mo>\n <mi xml:id="4:">\n  g\n </mi>\n <mo xml:id="0:">\n  ,\n </mo>\n</mrow>"	0	0	0	0		
FR	2	1388	669	1600	704
o	1	‘	1388	670	1393	679		
o	2	h	1398	669	1416	696		
o	3	e	1417	678	1432	696		
o	4	pi	1435	678	1460	696		
o	5	’	1464	670	1469	679		
o	6	–	1484	686	1504	687		
o	7	‘	1519	670	1524	679		
o	8	M	1529	670	1562	696		
o	9	r	1564	678	1576	696		
o	10	’	1580	670	1585	679		
o	11	)	1590	669	1600	704		
R	12	RSUP	1	5	0	0		
R	13	HORIZONTAL	1	6	0	0		
R	14	HORIZONTAL	2	3	0	0		
R	15	HORIZONTAL	3	4	0	0		
R	16	HORIZONTAL	4	1	0	0		
R	17	HORIZONTAL	6	8	0	0		
R	18	RSUP	8	7	0	0		
R	19	RSUB	8	9	0	0		
R	20	RSUP	9	10	0	0		
R	21	HORIZONTAL	9	11	0	0		
MML	22	"<mrow>\n <mi xml:id="1:">\n  ‘\n </mi>\n <mi xml:id="2:">\n  h\n </mi>\n <mi xml:id="3:">\n  e\n </mi>\n <msup>\n  <mi xml:id="0:">\n   π\n  </mi>\n  <mi xml:id="4:">\n   ’\n  </mi>\n </msup>\n <mi xml:id="5:">\n  –\n </mi>\n <msubsup>\n  <mi xml:id="7:">\n   M\n  </mi>\n  <mrow>\n   <msup>\n    <mi xml:id="8:">\n     r\n    </mi>\n    <mi xml:id="9:">\n     ’\n    </mi>\n   </msup>\n   <mi xml:id="10:">\n    )\n   </mi>\n  </mrow>\n  <mi xml:id="6:">\n   ‘\n  </mi>\n </msubsup>\n</mrow>"	0	0	0	0		
FR	3	1243	868	1412	891
o	1	<	1243	870	1297	891		
o	2	slash	1263	868	1278	891		
o	3	N	1302	870	1316	891		
o	4	A	1318	870	1337	891		
o	5	M	1340	870	1355	891		
o	6	E	1359	870	1374	891		
o	7	X	1377	870	1394	891		
o	8	>	1397	873	1412	888		
R	9	HORIZONTAL	1	2	0	0		
R	10	HORIZONTAL	2	3	0	0		
R	11	HORIZONTAL	3	4	0	0		
R	12	HORIZONTAL	4	5	0	0		
R	13	HORIZONTAL	5	6	0	0		
R	14	HORIZONTAL	6	7	0	0		
R	15	HORIZONTAL	7	8	0	0		
MML	16	"<mrow>\n <mo xml:id="0:">\n  /\n </mo>\n <mo xml:id="1:2:">\n  &lt;\n </mo>\n <mi xml:id="3:">\n  N\n </mi>\n <mi xml:id="4:">\n  A\n </mi>\n <mi xml:id="5:">\n  M\n </mi>\n <mi xml:id="6:">\n  E\n </mi>\n <mi xml:id="7:">\n  X\n </mi>\n <mo xml:id="8:">\n  &gt;\n </mo>\n</mrow>"	0	0	0	0		
FR	4	257	1643	537	1678
o	1	“	257	1644	272	1653		
o	2	l	275	1643	283	1670		
o	3	o	285	1652	302	1671		
o	4	g	304	1652	322	1678		
o	5	/	323	1643	334	1670		
o	6	l	336	1643	344	1670		
o	7	o	346	1652	363	1671		
o	8	g	365	1652	383	1678		
o	9	e	385	1652	400	1670		
o	10	n	402	1652	420	1670		
o	11	/	421	1643	432	1670		
o	12	l	434	1643	442	1670		
o	13	o	443	1652	460	1671		
o	14	g	463	1652	481	1678		
o	15	e	482	1652	497	1670		
o	16	r	500	1652	512	1670		
o	17	”	513	1644	528	1653		
o	18	semicolon	531	1666	537	1676		
R	19	HORIZONTAL	2	3	0	0		
R	20	HORIZONTAL	3	4	0	0		
R	21	HORIZONTAL	4	5	0	0		
R	22	RSUP	5	6	0	0		
R	23	HORIZONTAL	6	7	0	0		
R	24	HORIZONTAL	7	8	0	0		
R	25	HORIZONTAL	8	9	0	0		
R	26	HORIZONTAL	9	10	0	0		
R	27	HORIZONTAL	10	11	0	0		
R	28	HORIZONTAL	11	12	0	0		
R	29	HORIZONTAL	12	13	0	0		
R	30	HORIZONTAL	13	14	0	0		
R	31	HORIZONTAL	14	15	0	0		
R	32	HORIZONTAL	15	16	0	0		
R	33	HORIZONTAL	16	17	0	0		
R	34	HORIZONTAL	17	1	0	0		
R	35	RSUP	17	18	0	0		
MML	36	"<mrow>\n <mi xml:id="1:">\n  “\n </mi>\n <mi xml:id="2:">\n  l\n </mi>\n <mi xml:id="3:">\n  o\n </mi>\n <msup>\n  <mi xml:id="4:">\n   g\n  </mi>\n  <mrow>\n   <mo xml:id="5:">\n    /\n   </mo>\n   <mi xml:id="6:">\n    l\n   </mi>\n   <mi xml:id="7:">\n    o\n   </mi>\n   <mi xml:id="8:">\n    g\n   </mi>\n   <mi xml:id="9:">\n    e\n   </mi>\n   <mi xml:id="10:">\n    n\n   </mi>\n   <mo xml:id="11:">\n    /\n   </mo>\n   <mi xml:id="12:">\n    l\n   </mi>\n   <mi xml:id="13:">\n    o\n   </mi>\n   <mi xml:id="14:">\n    g\n   </mi>\n   <mi xml:id="15:">\n    e\n   </mi>\n   <msup>\n    <mi xml:id="16:">\n     r\n    </mi>\n    <mi xml:id="17:">\n     ”\n    </mi>\n   </msup>\n   <mi xml:id="0:">\n    ;\n   </mi>\n  </mrow>\n </msup>\n</mrow>"	0	0	0	0		
FR	5	256	1868	1060	1948
o	1	p	256	1922	274	1948		
o	2	e	257	1877	272	1895		
o	3	x	274	1878	292	1895		
o	4	o	276	1922	293	1941		
o	5	p	292	1877	310	1903		
o	6	u	297	1923	314	1940		
o	7	r	313	1877	325	1895		
o	8	n	315	1922	333	1940		
o	9	e	326	1877	341	1895		
o	10	d	335	1913	353	1941		
o	11	s	344	1877	356	1895		
o	12	s	355	1922	367	1940		
o	13	s	360	1877	372	1895		
o	14	i	374	1868	383	1895		
o	15	(	380	1913	390	1948		
o	16	o	385	1877	402	1896		
o	17	2	392	1914	409	1940		
o	18	n	404	1877	422	1895		
o	19	)	412	1913	422	1948		
o	20	.	427	1936	431	1940		
o	21	w	447	1878	473	1895		
o	22	h	476	1868	504	1895		
o	23	c	506	1877	521	1896		
o	24	h	523	1868	541	1895		
o	25	c	567	1877	582	1896		
o	26	a	584	1877	600	1895		
o	27	p	600	1877	618	1903		
o	28	t	621	1872	630	1895		
o	29	u	633	1878	650	1895		
o	30	r	651	1877	663	1895		
o	31	e	664	1877	679	1895		
o	32	s	683	1877	695	1895		
o	33	a	721	1877	737	1895		
o	34	l	763	1868	771	1895		
o	35	o	773	1877	790	1896		
o	36	n	792	1877	810	1895		
o	37	g	812	1877	830	1903		
o	38	l	856	1868	864	1895		
o	39	i	866	1868	875	1895		
o	40	s	878	1877	890	1895		
o	41	t	892	1872	901	1895		
o	42	o	927	1877	944	1896		
o	43	f	947	1868	962	1895		
o	44	c	983	1877	998	1896		
o	45	o	1000	1877	1017	1896		
o	46	m	1020	1877	1049	1895		
o	47	-	1051	1885	1060	1888		
R	48	HORIZONTAL	1	4	0	0		
R	49	HORIZONTAL	2	3	0	0		
R	50	HORIZONTAL	3	5	0	0		
R	51	HORIZONTAL	4	6	0	0		
R	52	UNDER	5	1	0	0		
R	53	HORIZONTAL	5	7	0	0		
R	54	HORIZONTAL	6	8	0	0		
R	55	HORIZONTAL	7	9	0	0		
R	56	HORIZONTAL	8	10	0	0		
R	57	HORIZONTAL	9	11	0	0		
R	58	HORIZONTAL	10	12	0	0		
R	59	HORIZONTAL	11	13	0	0		
R	60	HORIZONTAL	12	15	0	0		
R	61	HORIZONTAL	13	14	0	0		
R	62	HORIZONTAL	14	16	0	0		
R	63	HORIZONTAL	15	17	0	0		
R	64	HORIZONTAL	16	18	0	0		
R	65	HORIZONTAL	17	19	0	0		
R	66	HORIZONTAL	18	21	0	0		
R	67	PUNC	19	20	0	0		
R	68	HORIZONTAL	21	22	0	0		
R	69	HORIZONTAL	22	23	0	0		
R	70	HORIZONTAL	23	24	0	0		
R	71	HORIZONTAL	24	25	0	0		
R	72	HORIZONTAL	25	26	0	0		
R	73	HORIZONTAL	26	27	0	0		
R	74	HORIZONTAL	27	28	0	0		
R	75	HORIZONTAL	28	29	0	0		
R	76	HORIZONTAL	29	30	0	0		
R	77	HORIZONTAL	30	31	0	0		
R	78	HORIZONTAL	31	32	0	0		
R	79	HORIZONTAL	32	33	0	0		
R	80	HORIZONTAL	33	34	0	0		
R	81	HORIZONTAL	34	35	0	0		
R	82	HORIZONTAL	35	36	0	0		
R	83	HORIZONTAL	36	37	0	0		
R	84	HORIZONTAL	37	38	0	0		
R	85	HORIZONTAL	38	39	0	0		
R	86	HORIZONTAL	39	40	0	0		
R	87	HORIZONTAL	40	41	0	0		
R	88	HORIZONTAL	41	42	0	0		
R	89	HORIZONTAL	42	43	0	0		
R	90	HORIZONTAL	43	44	0	0		
R	91	HORIZONTAL	44	45	0	0		
R	92	HORIZONTAL	45	46	0	0		
R	93	HORIZONTAL	46	47	0	0		
MML	94	"<mrow>\n <mi xml:id="1:">\n  e\n </mi>\n <mi xml:id="2:">\n  x\n </mi>\n <munder>\n  <mi xml:id="4:">\n   p\n  </mi>\n  <mrow>\n   <mi xml:id="0:">\n    p\n   </mi>\n   <mi xml:id="3:">\n    o\n   </mi>\n   <mi xml:id="5:">\n    u\n   </mi>\n   <mi xml:id="7:">\n    n\n   </mi>\n   <mi xml:id="9:">\n    d\n   </mi>\n   <mi xml:id="11:">\n    s\n   </mi>\n   <mi xml:id="14:">\n    (\n   </mi>\n   <mn xml:id="16:">\n    2\n   </mn>\n   <mi xml:id="18:">\n    )\n   </mi>\n   <mo xml:id="19:">\n    .\n   </mo>\n  </mrow>\n </munder>\n <mi xml:id="6:">\n  r\n </mi>\n <mi xml:id="8:">\n  e\n </mi>\n <mi xml:id="10:">\n  s\n </mi>\n <mi xml:id="12:">\n  s\n </mi>\n <mi xml:id="13:">\n  i\n </mi>\n <mi xml:id="15:">\n  o\n </mi>\n <mi xml:id="17:">\n  n\n </mi>\n <mi xml:id="20:">\n  w\n </mi>\n <mi xml:id="21:22:">\n  h\n </mi>\n <mi xml:id="23:">\n  c\n </mi>\n <mi xml:id="24:">\n  h\n </mi>\n <mi xml:id="25:">\n  c\n </mi>\n <mi xml:id="26:">\n  a\n </mi>\n <mi xml:id="27:">\n  p\n </mi>\n <mi xml:id="28:">\n  t\n </mi>\n <mi xml:id="29:">\n  u\n </mi>\n <mi xml:id="30:">\n  r\n </mi>\n <mi xml:id="31:">\n  e\n </mi>\n <mi xml:id="32:">\n  s\n </mi>\n <mi xml:id="33:">\n  a\n </mi>\n <mi xml:id="34:">\n  l\n </mi>\n <mi xml:id="35:">\n  o\n </mi>\n <mi xml:id="36:">\n  n\n </mi>\n <mi xml:id="37:">\n  g\n </mi>\n <mi xml:id="38:">\n  l\n </mi>\n <mi xml:id="39:">\n  i\n </mi>\n <mi xml:id="40:">\n  s\n </mi>\n <mi xml:id="41:">\n  t\n </mi>\n <mi xml:id="42:">\n  o\n </mi>\n <mi xml:id="43:">\n  f\n </mi>\n <mi xml:id="44:">\n  c\n </mi>\n <mi xml:id="45:">\n  o\n </mi>\n <mi xml:id="46:">\n  m\n </mi>\n <mo xml:id="47:">\n  -\n </mo>\n</mrow>"	0	0	0	0		
P	5	
P	6	
FR	1	359	567	635	602
o	1	<	359	572	379	590		
o	2	f	382	567	397	594		
o	3	/	393	567	404	594		
o	4	w	405	577	431	594		
o	5	/	432	567	443	594		
o	6	e	444	576	459	594		
o	7	/	461	567	472	594		
o	8	q	473	576	490	602		
o	9	>	492	572	512	590		
o	10	i	526	567	535	594		
o	11	n	537	576	555	594		
o	12	s	557	576	569	594		
o	13	t	572	571	581	594		
o	14	e	582	576	597	594		
o	15	a	600	576	616	594		
o	16	d	617	567	635	595		
R	17	HORIZONTAL	1	2	0	0		
R	18	HORIZONTAL	2	3	0	0		
R	19	RSUB	2	4	0	0		
R	20	HORIZONTAL	4	5	0	0		
R	21	HORIZONTAL	5	6	0	0		
R	22	HORIZONTAL	6	7	0	0		
R	23	HORIZONTAL	7	8	0	0		
R	24	HORIZONTAL	8	9	0	0		
R	25	HORIZONTAL	9	10	0	0		
R	26	HORIZONTAL	10	11	0	0		
R	27	HORIZONTAL	11	12	0	0		
R	28	HORIZONTAL	12	13	0	0		
R	29	HORIZONTAL	13	14	0	0		
R	30	HORIZONTAL	14	15	0	0		
R	31	HORIZONTAL	15	16	0	0		
MML	32	"<mrow>\n <mo xml:id="0:">\n  &lt;\n </mo>\n <msub>\n  <mi xml:id="1:">\n   f\n  </mi>\n  <mrow>\n   <mi xml:id="3:">\n    w\n   </mi>\n   <mo xml:id="4:">\n    /\n   </mo>\n   <mi xml:id="5:">\n    e\n   </mi>\n   <mo xml:id="6:">\n    /\n   </mo>\n   <mi xml:id="7:">\n    q\n   </mi>\n   <mo xml:id="8:">\n    &gt;\n   </mo>\n   <mi xml:id="9:">\n    i\n   </mi>\n   <mi xml:id="10:">\n    n\n   </mi>\n   <mi xml:id="11:">\n    s\n   </mi>\n   <mi xml:id="12:">\n    t\n   </mi>\n   <mi xml:id="13:">\n    e\n   </mi>\n   <mi xml:id="14:">\n    a\n   </mi>\n   <mi xml:id="15:">\n    d\n   </mi>\n  </mrow>\n </msub>\n <mo xml:id="2:">\n  /\n </mo>\n</mrow>"	0	0	0	0		
FR	2	693	567	887	594
o	1	<	693	572	713	590		
o	2	v	715	577	732	594		
o	3	/	733	567	744	594		
o	4	v	745	577	762	594		
o	5	/	764	567	775	594		
o	6	ä	775	569	791	594		
o	7	/	792	567	803	594		
o	8	k	804	567	823	594		
o	9	>	823	572	843	590		
o	10	a	857	576	873	594		
o	11	s	875	576	887	594		
R	12	HORIZONTAL	1	2	0	0		
R	13	HORIZONTAL	2	3	0	0		
R	14	HORIZONTAL	3	4	0	0		
R	15	HORIZONTAL	4	5	0	0		
R	16	HORIZONTAL	5	6	0	0		
R	17	HORIZONTAL	6	7	0	0		
R	18	HORIZONTAL	7	8	0	0		
R	19	HORIZONTAL	8	9	0	0		
R	20	HORIZONTAL	9	10	0	0		
R	21	HORIZONTAL	10	11	0	0		
MML	22	"<mrow>\n <mo xml:id="0:">\n  &lt;\n </mo>\n <mi xml:id="1:">\n  v\n </mi>\n <mo xml:id="2:">\n  /\n </mo>\n <mi xml:id="3:">\n  v\n </mi>\n <mo xml:id="4:">\n  /\n </mo>\n <mi xml:id="5:">\n  ä\n </mi>\n <mo xml:id="6:">\n  /\n </mo>\n <mi xml:id="7:">\n  k\n </mi>\n <mo xml:id="8:">\n  &gt;\n </mo>\n <mi xml:id="9:">\n  a\n </mi>\n <mi xml:id="10:">\n  s\n </mi>\n</mrow>"	0	0	0	0		
FR	3	1337	1743	1692	1769
o	1	F	1337	1743	1361	1769		
o	2	minus	1362	1758	1373	1761		
o	3	s	1375	1751	1388	1769		
o	4	c	1390	1751	1406	1769		
o	5	o	1407	1751	1424	1769		
o	6	r	1428	1751	1441	1769		
o	7	e	1442	1751	1457	1769		
o	8	=	1472	1751	1491	1761		
o	9	2	1495	1743	1514	1769		
o	10	*	1518	1743	1533	1758		
o	11	P	1534	1743	1557	1769		
o	12	*	1562	1743	1577	1758		
o	13	M	1577	1743	1614	1769		
o	14	P	1612	1743	1635	1769		
o	15	+	1640	1747	1659	1765		
o	16	R	1662	1743	1692	1769		
R	17	HORIZONTAL	1	4	0	0		
R	18	HORIZONTAL	2	14	0	0		
R	19	HORIZONTAL	3	1	0	0		
R	20	HORIZONTAL	4	5	0	0		
R	21	HORIZONTAL	5	6	0	0		
R	22	HORIZONTAL	6	7	0	0		
R	23	HORIZONTAL	7	8	0	0		
R	24	HORIZONTAL	8	9	0	0		
R	25	HORIZONTAL	9	10	0	0		
R	26	RSUP	10	11	0	0		
R	27	HORIZONTAL	11	12	0	0		
R	28	HORIZONTAL	12	13	0	0		
R	29	HORIZONTAL	13	2	0	0		
R	30	HORIZONTAL	14	15	0	0		
R	31	HORIZONTAL	15	16	0	0		
MML	32	"<mrow>\n <mi xml:id="2:">\n  F\n </mi>\n <mo xml:id="0:">\n  -\n </mo>\n <mi xml:id="3:">\n  s\n </mi>\n <mi xml:id="4:">\n  c\n </mi>\n <mi xml:id="5:">\n  o\n </mi>\n <mi xml:id="6:">\n  r\n </mi>\n <mi xml:id="7:">\n  e\n </mi>\n <mo xml:id="8:">\n  =\n </mo>\n <msup>\n  <mn xml:id="9:">\n   2\n  </mn>\n  <mrow>\n   <mi xml:id="10:">\n    *\n   </mi>\n   <mi xml:id="11:">\n    P\n   </mi>\n   <mi xml:id="12:">\n    *\n   </mi>\n   <mi xml:id="1:">\n    M\n   </mi>\n   <mi xml:id="13:">\n    P\n   </mi>\n   <mo xml:id="14:">\n    +\n   </mo>\n   <mi xml:id="15:16:">\n    R\n   </mi>\n  </mrow>\n </msup>\n</mrow>"	0	0	0	0		
P	7	
FR	1	477	1424	833	1447
o	1	<	477	1426	512	1447		
o	2	N	517	1426	531	1447		
o	3	A	533	1426	552	1447		
o	4	M	555	1426	570	1447		
o	5	E	574	1426	589	1447		
o	6	X	592	1426	609	1447		
o	7	T	645	1426	662	1447		
o	8	Y	664	1426	682	1447		
o	9	P	685	1426	700	1447		
o	10	E	704	1426	738	1447		
o	11	minus	723	1431	738	1434		
o	12	”	743	1424	749	1434		
o	13	m	750	1424	756	1434		
o	14	L	763	1426	776	1447		
o	15	O	780	1426	796	1447		
o	16	C	800	1426	815	1447		
o	17	”	820	1424	826	1434		
o	18	m	827	1424	833	1434		
R	19	HORIZONTAL	1	14	0	0		
R	20	HORIZONTAL	2	15	0	0		
R	21	HORIZONTAL	4	5	0	0		
R	22	HORIZONTAL	5	6	0	0		
R	23	HORIZONTAL	6	7	0	0		
R	24	HORIZONTAL	7	8	0	0		
R	25	HORIZONTAL	8	9	0	0		
R	26	HORIZONTAL	9	10	0	0		
R	27	HORIZONTAL	10	11	0	0		
R	28	HORIZONTAL	11	12	0	0		
R	29	HORIZONTAL	12	13	0	0		
R	30	HORIZONTAL	13	1	0	0		
R	31	HORIZONTAL	14	2	0	0		
R	32	HORIZONTAL	15	16	0	0		
R	33	HORIZONTAL	16	17	0	0		
R	34	RSUP	17	18	0	0		
R	35	HORIZONTAL	18	3	0	0		
MML	36	"<mrow>\n <mo xml:id="3:4:">\n  &lt;\n </mo>\n <mi xml:id="5:">\n  N\n </mi>\n <mi xml:id="6:">\n  A\n </mi>\n <mi xml:id="7:">\n  M\n </mi>\n <mi xml:id="8:">\n  E\n </mi>\n <mi xml:id="9:">\n  X\n </mi>\n <mi xml:id="10:">\n  T\n </mi>\n <mi xml:id="11:">\n  Y\n </mi>\n <mi xml:id="12:">\n  P\n </mi>\n <mi xml:id="13:14:">\n  E\n </mi>\n <mo xml:id="0:">\n  -\n </mo>\n <mi xml:id="15:">\n  ”\n </mi>\n <mi xml:id="1:">\n  m\n </mi>\n <mi xml:id="16:">\n  L\n </mi>\n <mi xml:id="17:">\n  O\n </mi>\n <msup>\n  <mi xml:id="18:">\n   C\n  </mi>\n  <mrow>\n   <mi xml:id="19:">\n    ”\n   </mi>\n   <mi xml:id="2:">\n    m\n   </mi>\n  </mrow>\n </msup>\n</mrow>"	0	0	0	0		
FR	2	872	1424	1060	1447
o	1	S	872	1426	888	1447		
o	2	B	892	1426	907	1447		
o	3	T	910	1426	927	1447		
o	4	equal	930	1431	945	1434		
o	5	=	930	1439	945	1442		
o	6	”	950	1424	983	1447		
o	7	m	957	1424	1040	1434		
o	8	N	988	1426	1002	1447		
o	9	C	1006	1426	1022	1447		
o	10	”	1027	1424	1033	1434		
o	11	>	1045	1429	1060	1444		
R	12	PUNC	1	6	0	0		
R	13	HORIZONTAL	1	7	0	0		
R	14	HORIZONTAL	3	4	0	0		
R	15	HORIZONTAL	4	5	0	0		
R	16	HORIZONTAL	5	1	0	0		
R	17	HORIZONTAL	7	8	0	0		
R	18	HORIZONTAL	8	9	0	0		
R	19	RSUP	9	10	0	0		
R	20	HORIZONTAL	9	11	0	0		
R	21	HORIZONTAL	10	2	0	0		
MML	22	"<mrow>\n <mi xml:id="3:">\n  S\n </mi>\n <mi xml:id="4:">\n  B\n </mi>\n <mi xml:id="5:">\n  T\n </mi>\n <mo xml:id="0:">\n  =\n </mo>\n <mo xml:id="6:">\n  =\n </mo>\n <mi xml:id="7:8:">\n  ”\n </mi>\n <mi xml:id="9:">\n  N\n </mi>\n <msup>\n  <mi xml:id="10:">\n   C\n  </mi>\n  <mrow>\n   <mi xml:id="11:">\n    ”\n   </mi>\n   <mi xml:id="1:2:">\n    m\n   </mi>\n  </mrow>\n </msup>\n <mo xml:id="12:">\n  &gt;\n </mo>\n</mrow>"	0	0	0	0		
FR	3	571	1506	758	1529
o	1	T	571	1508	588	1529		
o	2	Y	590	1508	607	1529		
o	3	P	610	1508	625	1529		
o	4	E	630	1508	664	1529		
o	5	equal	648	1513	664	1516		
o	6	”	669	1506	675	1516		
o	7	m	675	1506	682	1516		
o	8	L	688	1508	702	1529		
o	9	O	705	1508	721	1529		
o	10	C	725	1508	741	1529		
o	11	”	745	1506	751	1516		
o	12	m	752	1506	758	1516		
R	13	RSUP	1	8	0	0		
R	14	HORIZONTAL	1	9	0	0		
R	15	HORIZONTAL	4	5	0	0		
R	16	HORIZONTAL	5	6	0	0		
R	17	HORIZONTAL	6	7	0	0		
R	18	HORIZONTAL	7	1	0	0		
R	19	HORIZONTAL	8	2	0	0		
R	20	HORIZONTAL	9	10	0	0		
R	21	HORIZONTAL	10	11	0	0		
R	22	RSUP	11	12	0	0		
R	23	HORIZONTAL	12	3	0	0		
MML	24	"<mrow>\n <mi xml:id="3:">\n  T\n </mi>\n <mi xml:id="4:">\n  Y\n </mi>\n <mi xml:id="5:">\n  P\n </mi>\n <mi xml:id="6:7:">\n  E\n </mi>\n <msup>\n  <mo xml:id="0:">\n   =\n  </mo>\n  <mrow>\n   <mi xml:id="8:">\n    ”\n   </mi>\n   <mi xml:id="1:">\n    m\n   </mi>\n  </mrow>\n </msup>\n <mi xml:id="9:">\n  L\n </mi>\n <mi xml:id="10:">\n  O\n </mi>\n <msup>\n  <mi xml:id="11:">\n   C\n  </mi>\n  <mrow>\n   <mi xml:id="12:">\n    ”\n   </mi>\n   <mi xml:id="2:">\n    m\n   </mi>\n  </mrow>\n </msup>\n</mrow>"	0	0	0	0		
P	8	
FR	1	1608	326	1833	357
o	1	3	1608	326	1621	350		
o	2	1	1629	326	1637	350		
o	3	(	1643	326	1652	357		
o	4	4	1654	326	1670	350		
o	5	)	1673	326	1682	357		
o	6	:	1687	334	1690	350		
o	7	2	1703	326	1718	350		
o	8	8	1722	326	1736	350		
o	9	5	1739	326	1753	350		
o	10	–	1755	341	1774	342		
o	11	3	1775	326	1788	350		
o	12	0	1792	326	1808	350		
o	13	0	1810	326	1833	350		
R	14	HORIZONTAL	1	2	0	0		
R	15	HORIZONTAL	2	3	0	0		
R	16	HORIZONTAL	3	4	0	0		
R	17	HORIZONTAL	4	5	0	0		
R	18	HORIZONTAL	5	6	0	0		
R	19	HORIZONTAL	6	7	0	0		
R	20	HORIZONTAL	7	8	0	0		
R	21	HORIZONTAL	8	9	0	0		
R	22	HORIZONTAL	9	10	0	0		
R	23	HORIZONTAL	10	11	0	0		
R	24	HORIZONTAL	11	12	0	0		
R	25	HORIZONTAL	12	13	0	0		
MML	26	"<mrow>\n <mn xml:id="0:">\n  3\n </mn>\n <mn xml:id="1:">\n  1\n </mn>\n <mi xml:id="2:">\n  (\n </mi>\n <mn xml:id="3:">\n  4\n </mn>\n <mi xml:id="4:">\n  )\n </mi>\n <mi xml:id="5:">\n  :\n </mi>\n <mn xml:id="6:">\n  2\n </mn>\n <mn xml:id="7:">\n  8\n </mn>\n <mn xml:id="8:">\n  5\n </mn>\n <mi xml:id="9:">\n  –\n </mi>\n <mn xml:id="10:">\n  3\n </mn>\n <mn xml:id="11:">\n  0\n </mn>\n <mn xml:id="12:13:">\n  0\n </mn>\n</mrow>"	0	0	0	0		
FR	2	1640	778	1752	802
o	1	9	1640	778	1655	802		
o	2	1	1661	778	1670	802		
o	3	–	1674	793	1692	794		
o	4	1	1697	778	1705	802		
o	5	0	1711	778	1727	802		
o	6	2	1729	778	1752	802		
R	7	HORIZONTAL	1	2	0	0		
R	8	HORIZONTAL	2	3	0	0		
R	9	HORIZONTAL	3	4	0	0		
R	10	HORIZONTAL	4	5	0	0		
R	11	HORIZONTAL	5	6	0	0		
MML	12	"<mrow>\n <mn xml:id="0:">\n  9\n </mn>\n <mn xml:id="1:">\n  1\n </mn>\n <mi xml:id="2:">\n  –\n </mi>\n <mn xml:id="3:">\n  1\n </mn>\n <mn xml:id="4:">\n  0\n </mn>\n <mn xml:id="5:6:">\n  2\n </mn>\n</mrow>"	0	0	0	0		
FR	3	1158	1188	1320	1212
o	1	1	1158	1188	1167	1212		
o	2	1	1176	1188	1185	1212		
o	3	2	1190	1188	1205	1212		
o	4	1	1212	1188	1220	1212		
o	5	–	1225	1203	1243	1204		
o	6	1	1247	1188	1256	1212		
o	7	1	1265	1188	1274	1212		
o	8	2	1279	1188	1294	1212		
o	9	8	1298	1188	1312	1212		
o	10	V	1317	1209	1320	1212		
R	11	HORIZONTAL	2	3	0	0		
R	12	HORIZONTAL	3	4	0	0		
R	13	HORIZONTAL	4	5	0	0		
R	14	HORIZONTAL	5	6	0	0		
R	15	HORIZONTAL	6	7	0	0		
R	16	HORIZONTAL	7	8	0	0		
R	17	HORIZONTAL	8	9	0	0		
R	18	HORIZONTAL	9	10	0	0		
R	19	PUNC	10	1	0	0		
MML	20	"<mrow>\n <mn xml:id="1:">\n  1\n </mn>\n <mn xml:id="2:">\n  1\n </mn>\n <mn xml:id="3:">\n  2\n </mn>\n <mn xml:id="4:">\n  1\n </mn>\n <mi xml:id="5:">\n  –\n </mi>\n <mn xml:id="6:">\n  1\n </mn>\n <mn xml:id="7:">\n  1\n </mn>\n <mn xml:id="8:">\n  2\n </mn>\n <mn xml:id="9:">\n  8\n </mn>\n <mi xml:id="0:">\n  V\n </mi>\n</mrow>"	0	0	0	0		
FR	4	1768	1516	1921	1541
o	1	2	1768	1517	1785	1541		
o	2	3	1786	1517	1802	1541		
o	3	r	1805	1524	1817	1541		
o	4	d	1819	1516	1835	1541		
o	5	A	1843	1517	1867	1541		
o	6	C	1869	1517	1891	1541		
o	7	M	1890	1518	1921	1541		
R	8	HORIZONTAL	1	2	0	0		
R	9	HORIZONTAL	2	3	0	0		
R	10	HORIZONTAL	3	4	0	0		
R	11	HORIZONTAL	4	5	0	0		
R	12	HORIZONTAL	5	6	0	0		
R	13	HORIZONTAL	6	7	0	0		
MML	14	"<mrow>\n <mn xml:id="0:">\n  2\n </mn>\n <mn xml:id="1:">\n  3\n </mn>\n <mi xml:id="2:">\n  r\n </mi>\n <mi xml:id="3:">\n  d\n </mi>\n <mi xml:id="4:">\n  A\n </mi>\n <mi xml:id="5:">\n  C\n </mi>\n <mi xml:id="6:">\n  M\n </mi>\n</mrow>"	0	0	0	0		
FR	5	294	2192	458	2216
o	1	A	294	2192	318	2216		
o	2	C	320	2192	342	2216		
o	3	M	341	2193	458	2216		
R	4	HORIZONTAL	1	2	0	0		
R	5	HORIZONTAL	2	3	0	0		
MML	6	"<mrow>\n <mi xml:id="0:">\n  A\n </mi>\n <mi xml:id="1:">\n  C\n </mi>\n <mi xml:id="2:3:4:5:6:7:">\n  M\n </mi>\n</mrow>"	0	0	0	0		
