D	1	/home/mattlangsenkamp/Documents/dprl/MathSeer-extraction-pipeline/inputs/ACL/pdf/A00-3007.pdf
P	1
P	2
FR	1	1500	638	1546	662
c	1	_	1500	638	1537	662
c	2	_	1540	658	1546	662
FR	2	1766	862	1970	898
c	1	_	1766	863	1786	891
c	2	_	1788	863	1799	898
c	3	_	1800	872	1834	891
c	4	_	1834	867	1862	892
c	5	_	1863	872	1897	891
c	6	_	1896	868	1908	892
c	7	_	1908	863	1920	898
c	8	_	1946	862	1957	898
c	9	_	1958	863	1970	898
S	10	w	1920	872	1946	891
FR	3	1230	953	1677	988
c	1	_	1230	955	1250	981
c	2	_	1252	954	1264	988
c	3	_	1264	962	1318	981
c	4	_	1327	957	1372	982
c	5	_	1372	954	1384	988
c	6	_	1412	953	1422	987
c	7	_	1424	954	1429	988
c	8	_	1430	962	1444	981
c	9	_	1444	962	1495	988
c	10	_	1496	957	1522	981
c	11	_	1522	954	1533	988
c	12	_	1556	954	1568	988
c	13	_	1569	962	1633	988
c	14	_	1634	957	1659	981
c	15	_	1660	953	1671	987
c	16	_	1674	975	1677	980
S	17	t	1315	957	1326	981
S	18	w	1383	962	1411	981
S	19	P	1534	954	1553	980
FR	4	1425	998	1611	1033
c	1	_	1425	999	1430	1011
c	2	_	1432	999	1437	1011
c	3	_	1438	1007	1472	1026
c	4	_	1472	1002	1501	1026
c	5	_	1502	1002	1546	1027
c	6	_	1546	998	1559	1033
c	7	_	1586	998	1597	1032
c	8	_	1599	999	1605	1011
c	9	_	1606	999	1611	1011
S	10	w	1558	1007	1586	1026
FR	5	1233	1178	1417	1213
c	1	_	1233	1178	1237	1191
c	2	_	1238	1178	1244	1190
c	3	_	1245	1182	1308	1207
c	4	_	1309	1187	1343	1206
c	5	_	1342	1182	1354	1206
c	6	_	1354	1178	1366	1212
c	7	_	1392	1178	1404	1213
c	8	_	1406	1178	1411	1190
c	9	_	1412	1178	1417	1190
S	10	w	1365	1187	1393	1206
FR	6	1762	1680	1897	1715
c	1	_	1762	1682	1783	1708
c	2	_	1785	1680	1796	1714
c	3	_	1797	1690	1810	1708
c	4	_	1810	1689	1861	1715
c	5	_	1862	1684	1887	1709
S	6	)	1887	1681	1897	1715
FR	7	1232	1726	1415	1760
c	1	_	1254	1726	1266	1760
c	2	_	1292	1747	1298	1759
c	3	_	1301	1726	1304	1760
c	4	_	1307	1734	1320	1754
c	5	_	1320	1734	1371	1760
c	6	_	1372	1730	1397	1754
c	7	_	1397	1726	1409	1760
S	8	P	1232	1727	1253	1754
S	9	w	1266	1735	1293	1754
S	10	i	1294	1741	1298	1744
S	11	.	1412	1748	1415	1754
FR	8	1712	1770	1909	1805
c	1	_	1712	1772	1732	1798
c	2	_	1733	1790	1744	1803
c	3	_	1745	1771	1756	1805
c	4	_	1756	1779	1783	1797
c	5	_	1783	1790	1788	1802
c	6	_	1785	1784	1788	1789
c	7	_	1797	1779	1810	1798
c	8	_	1810	1778	1861	1805
c	9	_	1861	1774	1887	1798
c	10	_	1887	1771	1899	1805
S	11	]	1791	1770	1794	1805
S	12	)	1899	1771	1909	1804
FR	9	1359	2442	1512	2477
c	1	_	1424	2442	1429	2447
c	2	_	1451	2446	1471	2468
c	3	_	1478	2451	1490	2477
c	4	_	1485	2442	1489	2447
S	5	s	1359	2450	1372	2469
S	6	j	1370	2456	1378	2477
S	7	(	1400	2442	1411	2476
S	8	i	1422	2450	1431	2468
S	9	)	1501	2442	1512	2476
P	3
FR	1	1264	867	1773	985
c	1	_	1264	907	1286	934
c	2	_	1287	927	1297	941
c	3	_	1299	906	1310	942
c	4	_	1311	915	1339	935
c	5	_	1340	921	1343	925
c	6	_	1347	906	1350	943
c	7	_	1352	915	1371	935
c	8	_	1371	906	1384	942
c	9	_	1394	915	1417	920
c	10	_	1394	922	1416	927
c	11	_	1432	921	1681	927
c	12	_	1436	928	1481	985
c	13	_	1483	972	1511	985
c	14	_	1514	967	1535	985
c	15	_	1527	867	1539	916
c	16	_	1541	940	1583	969
c	17	_	1565	906	1571	918
c	18	_	1568	901	1571	904
c	19	_	1580	867	1602	916
c	20	_	1587	927	1599	977
c	21	_	1597	949	1625	969
c	22	_	1623	867	1635	915
c	23	_	1626	927	1647	977
c	24	_	1645	949	1666	970
c	25	_	1669	928	1681	977
c	26	_	1730	907	1741	944
c	27	_	1743	908	1758	936
c	28	_	1761	908	1773	943
S	29	w	1338	927	1344	940
S	30	M	1482	878	1524	909
S	31	w	1537	888	1566	909
S	32	x	1599	888	1621	909
FR	2	1138	1050	1268	1083
c	1	_	1138	1051	1172	1078
c	2	_	1174	1050	1185	1083
c	3	_	1185	1059	1214	1078
c	4	_	1213	1050	1223	1083
c	5	_	1227	1050	1238	1083
c	6	_	1238	1059	1258	1078
c	7	_	1258	1050	1268	1083
FR	3	1266	1186	1776	1312
c	1	_	1266	1234	1287	1263
c	2	_	1289	1255	1299	1269
c	3	_	1301	1234	1312	1270
c	4	_	1312	1243	1331	1263
c	5	_	1331	1235	1344	1271
c	6	_	1354	1243	1376	1248
c	7	_	1355	1250	1377	1254
c	8	_	1393	1248	1698	1253
c	9	_	1397	1256	1442	1312
c	10	_	1425	1187	1469	1244
c	11	_	1444	1299	1471	1312
c	12	_	1471	1230	1499	1245
c	13	_	1475	1295	1496	1312
c	14	_	1499	1311	1502	1312
c	15	_	1502	1226	1524	1245
c	16	_	1507	1299	1530	1312
c	17	_	1535	1295	1549	1312
c	18	_	1555	1267	1596	1298
c	19	_	1575	1187	1587	1236
c	20	_	1600	1255	1613	1305
c	21	_	1610	1276	1640	1297
c	22	_	1614	1186	1636	1236
c	23	_	1640	1256	1682	1306
c	24	_	1685	1256	1697	1306
c	25	_	1737	1235	1748	1271
c	26	_	1749	1235	1768	1264
c	27	_	1768	1235	1776	1271
S	28	M	1529	1198	1571	1229
S	29	w	1586	1208	1615	1229
S	30	x	1634	1208	1656	1229
S	31	]	1657	1187	1670	1236
FR	4	1300	1386	1430	1417
c	1	_	1313	1390	1366	1417
c	2	_	1367	1386	1401	1416
S	3	s	1300	1391	1313	1411
S	4	y	1414	1391	1430	1417
FR	5	283	2091	353	2295
c	1	_	283	2091	287	2295
c	2	_	325	2092	350	2115
c	3	_	325	2139	353	2157
S	4	F	304	2131	323	2157
S	5	S	306	2091	323	2116
FR	6	818	2300	928	2332
c	1	_	839	2319	849	2332
c	2	_	849	2301	860	2332
c	3	_	887	2319	892	2331
c	4	_	893	2301	897	2332
c	5	_	898	2308	916	2326
c	6	_	917	2300	928	2332
S	7	P	818	2300	838	2326
S	8	w	861	2308	888	2326
S	9	i	888	2314	892	2317
FR	7	699	2341	1024	2374
c	1	_	699	2341	742	2368
c	2	_	760	2349	776	2368
c	3	_	787	2341	801	2358
c	4	_	803	2350	823	2354
c	5	_	858	2342	868	2367
c	6	_	882	2356	893	2362
c	7	_	903	2342	923	2367
c	8	_	922	2343	945	2374
c	9	_	970	2361	976	2373
c	10	_	977	2342	981	2374
c	11	_	982	2349	1000	2367
c	12	_	1001	2342	1011	2374
c	13	_	1013	2342	1024	2374
S	14	u	741	2349	760	2367
S	15	=	802	2355	823	2360
S	16	(	833	2342	845	2374
S	17	w	945	2349	971	2367
S	18	i	972	2355	975	2359
FR	8	560	2466	1138	2499
c	1	_	669	2471	712	2493
c	2	_	712	2467	734	2499
c	3	_	734	2475	761	2492
c	4	_	759	2467	771	2499
c	5	_	771	2466	783	2499
c	6	_	840	2486	850	2498
c	7	_	851	2467	862	2498
c	8	_	862	2476	880	2492
c	9	_	881	2468	892	2499
c	10	_	894	2467	910	2483
c	11	_	940	2468	952	2499
c	12	_	984	2476	1002	2492
c	13	_	1003	2471	1013	2492
c	14	_	1014	2475	1045	2492
c	15	_	1046	2467	1068	2499
c	16	_	1069	2475	1096	2491
c	17	_	1093	2467	1104	2499
c	18	_	1107	2467	1110	2498
c	19	_	1112	2475	1129	2492
c	20	_	1130	2467	1138	2499
S	21	P	560	2467	580	2493
S	22	(	581	2467	591	2498
S	23	x	592	2475	609	2493
S	24	l	612	2467	615	2499
S	25	c	618	2476	632	2494
S	26	o	633	2475	650	2493
S	27	n	649	2476	667	2493
S	28	=	792	2476	812	2484
S	29	p	822	2475	840	2499
S	30	P	920	2467	939	2492
S	31	e	952	2475	967	2492
S	32	o	968	2475	984	2492
FR	9	1406	2508	1627	2541
c	1	_	1426	2508	1437	2541
c	2	_	1457	2508	1460	2541
c	3	_	1478	2516	1512	2535
c	4	_	1513	2512	1539	2535
c	5	_	1539	2516	1556	2535
c	6	_	1557	2512	1567	2534
c	7	_	1567	2508	1578	2541
c	8	_	1579	2516	1606	2534
c	9	_	1604	2508	1615	2541
c	10	_	1616	2508	1627	2541
S	11	P	1406	2508	1425	2534
S	12	x	1437	2516	1454	2535
S	13	c	1463	2516	1477	2535
FR	10	578	2582	1495	2628
c	1	_	578	2582	1495	2588
c	2	_	745	2597	750	2602
c	3	_	747	2604	784	2628
c	4	_	868	2595	937	2621
c	5	_	968	2595	980	2620
c	6	_	976	2604	999	2628
c	7	_	1015	2603	1038	2621
c	8	_	1034	2597	1039	2601
c	9	_	1039	2600	1051	2620
c	10	_	1098	2604	1103	2608
c	11	_	1198	2603	1229	2620
c	12	_	1249	2603	1273	2628
c	13	_	1273	2604	1289	2620
c	14	_	1287	2603	1303	2621
c	15	_	1303	2595	1323	2620
c	16	_	1321	2604	1330	2620
c	17	_	1327	2597	1331	2601
c	18	_	1331	2603	1347	2620
c	19	_	1348	2600	1366	2620
c	20	_	1363	2597	1368	2601
c	21	_	1368	2603	1385	2620
c	22	_	1386	2604	1402	2620
c	23	_	1408	2603	1430	2627
c	24	_	1431	2595	1481	2620
S	25	F	715	2595	742	2621
S	26	i	739	2604	748	2621
S	27	r	785	2604	800	2620
S	28	e	799	2604	815	2621
S	29	2	824	2595	842	2621
S	30	:	843	2604	853	2621
S	31	A	944	2595	966	2621
S	32	o	997	2603	1015	2620
S	33	h	1049	2595	1066	2620
S	34	m	1067	2604	1092	2620
S	35	:	1094	2616	1098	2620
S	36	t	1114	2600	1126	2620
S	37	h	1125	2595	1142	2620
S	38	e	1143	2603	1159	2620
S	39	s	1167	2604	1181	2620
S	40	e	1182	2603	1198	2620
S	41	e	1230	2603	1246	2620
S	42	e	1482	2603	1495	2620
P	4
FR	1	1558	2376	1694	2410
c	1	_	1558	2376	1598	2409
c	2	_	1619	2391	1641	2395
c	3	_	1620	2385	1641	2389
c	4	_	1663	2377	1681	2403
c	5	_	1683	2376	1694	2410
FR	2	1610	2465	1769	2499
c	1	_	1610	2466	1649	2499
c	2	_	1664	2474	1685	2478
c	3	_	1759	2466	1769	2499
S	4	=	1664	2480	1685	2484
S	5	3	1703	2466	1718	2493
S	6	6	1721	2465	1739	2493
S	7	5	1740	2466	1757	2493
FR	3	436	2593	648	2630
c	1	_	436	2593	445	2609
c	2	_	489	2607	524	2630
c	3	_	524	2599	533	2624
c	4	_	533	2607	562	2630
c	5	_	563	2606	604	2624
S	6	A	456	2600	481	2624
S	7	o	606	2606	621	2624
S	8	u	621	2607	639	2624
S	9	s	640	2606	648	2624
P	5
FR	1	1706	299	1800	390
c	1	_	1706	299	1800	390
S	2	?	1746	312	1760	337
FR	2	971	311	1541	379
c	1	_	971	311	1541	379
c	2	_	1085	373	1089	378
c	3	_	1115	328	1125	339
c	4	_	1226	353	1236	378
c	5	_	1382	313	1403	336
S	6	K	985	311	1013	335
S	7	2	990	353	1005	378
S	8	X	1090	311	1115	335
S	9	0	1092	352	1109	378
S	10	0	1109	353	1126	378
S	11	2	1125	311	1135	320
S	12	3	1127	353	1141	379
S	13	d	1217	311	1235	335
S	14	f	1235	311	1250	335
S	15	R	1297	311	1323	336
S	16	e	1323	318	1337	335
S	17	j	1341	311	1347	317
S	18	e	1350	318	1365	335
S	19	c	1366	319	1380	336
S	20	3	1390	353	1405	379
S	21	i	1394	311	1401	317
S	22	o	1403	319	1419	336
S	23	.	1409	374	1413	379
S	24	8	1418	353	1432	379
S	25	n	1419	318	1438	336
S	26	4	1433	354	1450	379
S	27	r	1448	319	1463	336
S	28	e	1464	319	1478	336
S	29	i	1497	311	1506	336
S	30	o	1507	319	1523	337
S	31	n	1523	319	1541	336
FR	3	1647	577	1824	826
c	1	_	1647	585	1824	612
c	2	_	1647	691	1824	696
c	3	_	1647	735	1824	741
c	4	_	1647	780	1824	786
c	5	_	1647	823	1824	826
c	6	_	1692	578	1699	584
c	7	_	1701	585	1731	602
c	8	_	1733	581	1744	602
S	9	R	1648	577	1674	602
S	10	e	1674	585	1688	602
S	11	Y	1702	619	1727	644
S	12	Y	1702	749	1728	775
S	13	Y	1702	792	1728	817
S	14	N	1707	704	1733	729
S	15	e	1727	627	1741	644
S	16	e	1727	757	1742	775
S	17	e	1727	800	1742	817
S	18	o	1733	712	1749	730
S	19	s	1742	627	1754	644
S	20	s	1742	800	1754	818
S	21	s	1743	757	1754	775
S	22	H	1752	578	1779	602
S	23	?	1792	578	1806	602
FR	4	1133	877	1320	910
c	1	_	1143	884	1166	904
c	2	_	1167	886	1186	890
c	3	_	1187	899	1191	904
c	4	_	1230	899	1236	907
c	5	_	1266	892	1277	898
c	6	_	1295	879	1306	904
c	7	_	1315	899	1320	904
S	8	(	1133	877	1147	910
S	9	=	1167	891	1186	896
S	10	0	1197	879	1214	904
S	11	5	1213	879	1231	904
S	12	2	1249	878	1266	904
S	13	a	1278	886	1295	904
S	14	t	1306	883	1316	904
FR	5	823	1102	1032	1137
c	1	_	823	1102	835	1137
c	2	_	835	1102	870	1131
c	3	_	887	1112	909	1115
c	4	_	887	1118	909	1122
c	5	_	930	1103	958	1131
c	6	_	978	1118	999	1122
c	7	_	1003	1103	1013	1131
c	8	_	1018	1102	1029	1137
c	9	_	1031	1126	1032	1129
c	10	_	1031	1134	1032	1135
FR	6	531	1646	592	1681
c	1	_	531	1646	581	1681
c	2	_	581	1646	592	1681
P	6
FR	1	1799	457	1938	489
c	1	_	1799	458	1831	489
c	2	_	1826	458	1871	484
c	3	_	1894	473	1904	478
c	4	_	1918	457	1932	489
c	5	_	1934	479	1938	484
S	6	C	1872	458	1894	484
S	7	7	1908	458	1924	484
FR	2	1834	541	1943	573
c	1	_	1834	541	1882	573
c	2	_	1883	541	1900	567
c	3	_	1901	541	1922	567
c	4	_	1923	541	1933	573
c	5	_	1936	561	1943	571
FR	3	825	811	1017	845
c	1	_	832	813	854	839
c	2	_	857	813	881	839
c	3	_	878	813	913	839
c	4	_	908	813	923	838
c	5	_	919	813	939	839
c	6	_	935	813	952	838
c	7	_	951	812	975	839
c	8	_	984	813	1007	838
c	9	_	1003	811	1017	845
S	10	(	825	813	839	845
S	11	G	973	813	988	839
FR	4	829	1228	1022	1259
c	1	_	836	1229	858	1254
c	2	_	862	1228	885	1254
c	3	_	882	1228	927	1254
c	4	_	923	1228	956	1253
c	5	_	955	1228	979	1254
c	6	_	988	1228	1010	1253
S	7	(	829	1228	843	1259
S	8	G	976	1228	993	1253
S	9	R	1007	1228	1022	1259
FR	5	434	1396	590	1426
c	1	_	434	1397	485	1423
c	2	_	487	1417	492	1423
S	3	:	488	1404	492	1410
S	4	A	503	1397	529	1422
S	5	C	530	1397	552	1423
S	6	M	553	1396	584	1422
S	7	COMMA	585	1417	590	1426
FR	6	1255	1916	1460	1942
c	1	_	1390	1916	1460	1942
S	2	A	1255	1917	1277	1942
S	3	C	1280	1916	1304	1942
S	4	L	1301	1917	1321	1942
S	5	S	1337	1916	1358	1942
S	6	I	1354	1917	1371	1942
S	7	G	1368	1916	1393	1942
FR	7	882	2224	1023	2257
c	1	_	882	2224	955	2255
c	2	_	956	2224	979	2250
c	3	_	978	2238	988	2243
c	4	_	993	2225	1008	2250
c	5	_	1003	2224	1016	2257
S	6	)	1019	2245	1023	2249
FR	8	442	2553	797	2587
c	1	_	487	2555	547	2581
c	2	_	566	2554	581	2581
c	3	_	685	2563	702	2580
c	4	_	703	2563	718	2579
c	5	_	716	2553	745	2580
c	6	_	746	2554	762	2580
c	7	_	763	2562	780	2580
c	8	_	776	2563	797	2587
S	9	C	442	2554	465	2581
S	10	O	465	2555	490	2581
S	11	G	544	2554	569	2580
S	12	A	576	2555	598	2580
S	13	C	601	2554	625	2580
S	14	L	622	2555	643	2580
S	15	W	659	2554	690	2579
