28004932
28004799
28014807
28003898
28003922
28004031
28004631
28002821
28003985
28004184
28012503
28012334
28003752
28004807
28003756
28004870
28005005
28004197
28015415
28004478
28004194
28004712
28004202
28003704
28012235
28007575
28004776
28014451
28003997
28003720
28004201
28003781
28012212
28005016
28004485
28006943
28012337
28004218
28003896
28004575
28012237
28004501
28004780
28012159
28005042
28003776
28004091
28004561
28003794
28003926
28003373
28007747
28005040
28002991
28005033
28005030
28004231
28004630
28012059
28018628
28003974
28013382
28013344
28003523
28007459
28004115
28004080
28004805
28004179
28012179
28015399
28011927
28018624
28004825
28012255
28007369
28006227
28007201
28004068
28004791
28003722
28002207
28007561
28004138
28007795
28007774
28003731
28003848
28004487
28015055
28004492
28004117
28003889
28004566
28012178
28003729
28004254
28003775
28004635
28004634
28012877
28012943
28003965
28007498
28004488
28003891
28004137
28003255
28012855
28004504
28004177
28008415
28004415
28014450
28003658
28004571
28013282
28004387
28007517
28014841
28006342
28013070
28004473
28004106
28015674
28003785
28012153
28007539
28012839
28015879
28007506
28006319
28018598
28003715
28006686
28004599
28004509
28015862
28003882
28004188
28014886
28004057
